%!PS-Adobe-3.0 EPSF-3.0
%%Creator: MATLAB, The Mathworks, Inc. Version 7.3.0.267 (R2006b). Operating System: Microsoft Windows XP.
%%Title: D:\cygwin\home\Yilin Mo\yilin\security\hscc\simulation2b.eps
%%CreationDate: 10/30/2009  00:23:57
%%DocumentNeededFonts: Helvetica
%%+ Helvetica-Bold
%%DocumentProcessColors: Cyan Magenta Yellow Black
%%LanguageLevel: 2
%%Pages: 1
%%BoundingBox:    36   176   574   614
%%EndComments

%%BeginProlog
% MathWorks dictionary
/MathWorks 160 dict begin
% definition operators
/bdef {bind def} bind def
/ldef {load def} bind def
/xdef {exch def} bdef
/xstore {exch store} bdef
% operator abbreviations
/c  /clip ldef
/cc /concat ldef
/cp /closepath ldef
/gr /grestore ldef
/gs /gsave ldef
/mt /moveto ldef
/np /newpath ldef
/cm /currentmatrix ldef
/sm /setmatrix ldef
/rm /rmoveto ldef
/rl /rlineto ldef
/s {show newpath} bdef
/sc {setcmykcolor} bdef
/sr /setrgbcolor ldef
/sg /setgray ldef
/w /setlinewidth ldef
/j /setlinejoin ldef
/cap /setlinecap ldef
/rc {rectclip} bdef
/rf {rectfill} bdef
% page state control
/pgsv () def
/bpage {/pgsv save def} bdef
/epage {pgsv restore} bdef
/bplot /gsave ldef
/eplot {stroke grestore} bdef
% orientation switch
/portraitMode 0 def /landscapeMode 1 def /rotateMode 2 def
% coordinate system mappings
/dpi2point 0 def
% font control
/FontSize 0 def
/FMS {/FontSize xstore findfont [FontSize 0 0 FontSize neg 0 0]
  makefont setfont} bdef
/ISOLatin1Encoding where {pop /WindowsLatin1Encoding 256 array bdef
ISOLatin1Encoding WindowsLatin1Encoding copy pop
/.notdef/.notdef/quotesinglbase/florin/quotedblbase/ellipsis/dagger
/daggerdbl/circumflex/perthousand/Scaron/guilsinglleft/OE/.notdef/.notdef
/.notdef/.notdef/quoteleft/quoteright/quotedblleft/quotedblright/bullet
/endash/emdash/tilde/trademark/scaron/guilsinglright/oe/.notdef/.notdef
/Ydieresis WindowsLatin1Encoding 128 32 getinterval astore pop}
{/WindowsLatin1Encoding StandardEncoding bdef} ifelse
/reencode {exch dup where {pop load} {pop StandardEncoding} ifelse
  exch dup 3 1 roll findfont dup length dict begin
  { 1 index /FID ne {def}{pop pop} ifelse } forall
  /Encoding exch def currentdict end definefont pop} bdef
/isroman {findfont /CharStrings get /Agrave known} bdef
/FMSR {3 1 roll 1 index dup isroman {reencode} {pop pop} ifelse
  exch FMS} bdef
/csm {1 dpi2point div -1 dpi2point div scale neg translate
 dup landscapeMode eq {pop -90 rotate}
  {rotateMode eq {90 rotate} if} ifelse} bdef
% line types: solid, dotted, dashed, dotdash
/SO { [] 0 setdash } bdef
/DO { [.5 dpi2point mul 4 dpi2point mul] 0 setdash } bdef
/DA { [6 dpi2point mul] 0 setdash } bdef
/DD { [.5 dpi2point mul 4 dpi2point mul 6 dpi2point mul 4
  dpi2point mul] 0 setdash } bdef
% macros for lines and objects
/L {lineto stroke} bdef
/MP {3 1 roll moveto 1 sub {rlineto} repeat} bdef
/AP {{rlineto} repeat} bdef
/PDlw -1 def
/W {/PDlw currentlinewidth def setlinewidth} def
/PP {closepath eofill} bdef
/DP {closepath stroke} bdef
/MR {4 -2 roll moveto dup  0 exch rlineto exch 0 rlineto
  neg 0 exch rlineto closepath} bdef
/FR {MR stroke} bdef
/PR {MR fill} bdef
/L1i {{currentfile picstr readhexstring pop} image} bdef
/tMatrix matrix def
/MakeOval {newpath tMatrix currentmatrix pop translate scale
0 0 1 0 360 arc tMatrix setmatrix} bdef
/FO {MakeOval stroke} bdef
/PO {MakeOval fill} bdef
/PD {currentlinewidth 2 div 0 360 arc fill
   PDlw -1 eq not {PDlw w /PDlw -1 def} if} def
/FA {newpath tMatrix currentmatrix pop translate scale
  0 0 1 5 -2 roll arc tMatrix setmatrix stroke} bdef
/PA {newpath tMatrix currentmatrix pop	translate 0 0 moveto scale
  0 0 1 5 -2 roll arc closepath tMatrix setmatrix fill} bdef
/FAn {newpath tMatrix currentmatrix pop translate scale
  0 0 1 5 -2 roll arcn tMatrix setmatrix stroke} bdef
/PAn {newpath tMatrix currentmatrix pop translate 0 0 moveto scale
  0 0 1 5 -2 roll arcn closepath tMatrix setmatrix fill} bdef
/vradius 0 def /hradius 0 def /lry 0 def
/lrx 0 def /uly 0 def /ulx 0 def /rad 0 def
/MRR {/vradius xdef /hradius xdef /lry xdef /lrx xdef /uly xdef
  /ulx xdef newpath tMatrix currentmatrix pop ulx hradius add uly
  vradius add translate hradius vradius scale 0 0 1 180 270 arc 
  tMatrix setmatrix lrx hradius sub uly vradius add translate
  hradius vradius scale 0 0 1 270 360 arc tMatrix setmatrix
  lrx hradius sub lry vradius sub translate hradius vradius scale
  0 0 1 0 90 arc tMatrix setmatrix ulx hradius add lry vradius sub
  translate hradius vradius scale 0 0 1 90 180 arc tMatrix setmatrix
  closepath} bdef
/FRR {MRR stroke } bdef
/PRR {MRR fill } bdef
/MlrRR {/lry xdef /lrx xdef /uly xdef /ulx xdef /rad lry uly sub 2 div def
  newpath tMatrix currentmatrix pop ulx rad add uly rad add translate
  rad rad scale 0 0 1 90 270 arc tMatrix setmatrix lrx rad sub lry rad
  sub translate rad rad scale 0 0 1 270 90 arc tMatrix setmatrix
  closepath} bdef
/FlrRR {MlrRR stroke } bdef
/PlrRR {MlrRR fill } bdef
/MtbRR {/lry xdef /lrx xdef /uly xdef /ulx xdef /rad lrx ulx sub 2 div def
  newpath tMatrix currentmatrix pop ulx rad add uly rad add translate
  rad rad scale 0 0 1 180 360 arc tMatrix setmatrix lrx rad sub lry rad
  sub translate rad rad scale 0 0 1 0 180 arc tMatrix setmatrix
  closepath} bdef
/FtbRR {MtbRR stroke } bdef
/PtbRR {MtbRR fill } bdef
/stri 6 array def /dtri 6 array def
/smat 6 array def /dmat 6 array def
/tmat1 6 array def /tmat2 6 array def /dif 3 array def
/asub {/ind2 exch def /ind1 exch def dup dup
  ind1 get exch ind2 get sub exch } bdef
/tri_to_matrix {
  2 0 asub 3 1 asub 4 0 asub 5 1 asub
  dup 0 get exch 1 get 7 -1 roll astore } bdef
/compute_transform {
  dmat dtri tri_to_matrix tmat1 invertmatrix 
  smat stri tri_to_matrix tmat2 concatmatrix } bdef
/ds {stri astore pop} bdef
/dt {dtri astore pop} bdef
/db {2 copy /cols xdef /rows xdef mul dup 3 mul string
  currentfile 
  3 index 0 eq {/ASCIIHexDecode filter}
  {/ASCII85Decode filter 3 index 2 eq {/RunLengthDecode filter} if }
  ifelse exch readstring pop
  dup 0 3 index getinterval /rbmap xdef
  dup 2 index dup getinterval /gbmap xdef
  1 index dup 2 mul exch getinterval /bbmap xdef pop pop}bdef
/it {gs np dtri aload pop moveto lineto lineto cp c
  cols rows 8 compute_transform 
  rbmap gbmap bbmap true 3 colorimage gr}bdef
/il {newpath moveto lineto stroke}bdef
currentdict end def
%%EndProlog

%%BeginSetup
MathWorks begin

0 cap

end
%%EndSetup

%%Page: 1 1
%%BeginPageSetup
%%PageBoundingBox:    36   176   574   614
MathWorks begin
bpage
%%EndPageSetup

%%BeginObject: obj1
bplot

/dpi2point 12 def
portraitMode 0432 7368 csm

    0     0  6462  5247 rc
85 dict begin %Colortable dictionary
/c0 { 0.000000 0.000000 0.000000 sr} bdef
/c1 { 1.000000 1.000000 1.000000 sr} bdef
/c2 { 0.900000 0.000000 0.000000 sr} bdef
/c3 { 0.000000 0.820000 0.000000 sr} bdef
/c4 { 0.000000 0.000000 0.800000 sr} bdef
/c5 { 0.910000 0.820000 0.320000 sr} bdef
/c6 { 1.000000 0.260000 0.820000 sr} bdef
/c7 { 0.000000 0.820000 0.820000 sr} bdef
c0
1 j
1 sg
   0    0 6463 5248 rf
6 w
0 4276 5008 0 0 -4276 840 4670 4 MP
PP
-5008 0 0 4276 5008 0 0 -4276 840 4670 5 MP stroke
4 w
DO
SO
6 w
0 sg
 840  394 mt 5848  394 L
 840 4670 mt 5848 4670 L
5848 4670 mt 5848  394 L
 840 4670 mt  840  394 L
 840 4670 mt 5848 4670 L
 840 4670 mt  840  394 L
 840 4670 mt  840 4619 L
 840  394 mt  840  444 L
%%IncludeResource: font Helvetica-Bold
/Helvetica-Bold /WindowsLatin1Encoding 192 FMSR

 787 4888 mt 
(0) s
2092 4670 mt 2092 4619 L
2092  394 mt 2092  444 L
2039 4888 mt 
(5) s
3344 4670 mt 3344 4619 L
3344  394 mt 3344  444 L
3238 4888 mt 
(10) s
4596 4670 mt 4596 4619 L
4596  394 mt 4596  444 L
4490 4888 mt 
(15) s
5848 4670 mt 5848 4619 L
5848  394 mt 5848  444 L
5742 4888 mt 
(20) s
 840 4670 mt  865 4670 L
5848 4670 mt 5822 4670 L
 840 4670 mt  890 4670 L
5848 4670 mt 5797 4670 L
 447 4743 mt 
(10) s
%%IncludeResource: font Helvetica-Bold
/Helvetica-Bold /WindowsLatin1Encoding 128 FMSR

 660 4620 mt 
(-3) s
 840 4240 mt  865 4240 L
5848 4240 mt 5822 4240 L
 840 3989 mt  865 3989 L
5848 3989 mt 5822 3989 L
 840 3811 mt  865 3811 L
5848 3811 mt 5822 3811 L
 840 3673 mt  865 3673 L
5848 3673 mt 5822 3673 L
 840 3560 mt  865 3560 L
5848 3560 mt 5822 3560 L
 840 3465 mt  865 3465 L
5848 3465 mt 5822 3465 L
 840 3382 mt  865 3382 L
5848 3382 mt 5822 3382 L
 840 3309 mt  865 3309 L
5848 3309 mt 5822 3309 L
 840 3244 mt  865 3244 L
5848 3244 mt 5822 3244 L
 840 3244 mt  890 3244 L
5848 3244 mt 5797 3244 L
%%IncludeResource: font Helvetica-Bold
/Helvetica-Bold /WindowsLatin1Encoding 192 FMSR

 447 3317 mt 
(10) s
%%IncludeResource: font Helvetica-Bold
/Helvetica-Bold /WindowsLatin1Encoding 128 FMSR

 660 3194 mt 
(-2) s
 840 2815 mt  865 2815 L
5848 2815 mt 5822 2815 L
 840 2564 mt  865 2564 L
5848 2564 mt 5822 2564 L
 840 2386 mt  865 2386 L
5848 2386 mt 5822 2386 L
 840 2248 mt  865 2248 L
5848 2248 mt 5822 2248 L
 840 2135 mt  865 2135 L
5848 2135 mt 5822 2135 L
 840 2040 mt  865 2040 L
5848 2040 mt 5822 2040 L
 840 1957 mt  865 1957 L
5848 1957 mt 5822 1957 L
 840 1884 mt  865 1884 L
5848 1884 mt 5822 1884 L
 840 1819 mt  865 1819 L
5848 1819 mt 5822 1819 L
 840 1819 mt  890 1819 L
5848 1819 mt 5797 1819 L
%%IncludeResource: font Helvetica-Bold
/Helvetica-Bold /WindowsLatin1Encoding 192 FMSR

 447 1892 mt 
(10) s
%%IncludeResource: font Helvetica-Bold
/Helvetica-Bold /WindowsLatin1Encoding 128 FMSR

 660 1769 mt 
(-1) s
 840 1390 mt  865 1390 L
5848 1390 mt 5822 1390 L
 840 1139 mt  865 1139 L
5848 1139 mt 5822 1139 L
 840  961 mt  865  961 L
5848  961 mt 5822  961 L
 840  823 mt  865  823 L
5848  823 mt 5822  823 L
 840  710 mt  865  710 L
5848  710 mt 5822  710 L
 840  614 mt  865  614 L
5848  614 mt 5822  614 L
 840  532 mt  865  532 L
5848  532 mt 5822  532 L
 840  459 mt  865  459 L
5848  459 mt 5822  459 L
 840  394 mt  865  394 L
5848  394 mt 5822  394 L
 840  394 mt  890  394 L
5848  394 mt 5797  394 L
%%IncludeResource: font Helvetica-Bold
/Helvetica-Bold /WindowsLatin1Encoding 192 FMSR

 447  467 mt 
(10) s
%%IncludeResource: font Helvetica-Bold
/Helvetica-Bold /WindowsLatin1Encoding 128 FMSR

 660  344 mt 
(0) s
 840  394 mt 5848  394 L
 840 4670 mt 5848 4670 L
5848 4670 mt 5848  394 L
 840 4670 mt  840  394 L
gs 840 393 5009 4278 rc
24 w
/c8 { 1.000000 0.000000 0.000000 sr} bdef
c8
250 2 251 -2 250 1 250 -7 251 8 250 -1 251 -2 250 1 
250 -6 251 8 250 -1 251 1 250 -1 250 -10 251 -16 250 -83 
251 -193 250 -372 250 -759 840 1879 20 MP stroke
/c9 { 0.000000 0.000000 1.000000 sr} bdef
c9
250 -1 251 -1 250 -18 250 18 251 10 250 1 251 -3 250 -15 
250 -1 251 10 250 -3 251 -1 250 -13 250 19 251 -2 250 -20 
251 23 250 9 250 -25 840 4188 20 MP stroke
gr

24 w
c9
0 sg
%%IncludeResource: font Helvetica-Bold
/Helvetica-Bold /WindowsLatin1Encoding 192 FMSR

3119 5084 mt 
(Time) s
 349 3753 mt  -90 rotate
(Square of Estimation Error) s
90 rotate
6 w

end %%Color Dict

eplot
%%EndObject

epage
end

showpage

%%Trailer
%%EOF
