%!PS-Adobe-3.0 EPSF-3.0
%%Creator: MATLAB, The Mathworks, Inc. Version 7.3.0.267 (R2006b). Operating System: Microsoft Windows XP.
%%Title: D:\cygwin\home\Yilin Mo\yilin\security\hscc\simulation1upper.eps
%%CreationDate: 10/29/2009  23:54:59
%%DocumentNeededFonts: Helvetica
%%+ Helvetica-Bold
%%DocumentProcessColors: Cyan Magenta Yellow Black
%%LanguageLevel: 2
%%Pages: 1
%%BoundingBox:    35   187   575   604
%%EndComments

%%BeginProlog
% MathWorks dictionary
/MathWorks 160 dict begin
% definition operators
/bdef {bind def} bind def
/ldef {load def} bind def
/xdef {exch def} bdef
/xstore {exch store} bdef
% operator abbreviations
/c  /clip ldef
/cc /concat ldef
/cp /closepath ldef
/gr /grestore ldef
/gs /gsave ldef
/mt /moveto ldef
/np /newpath ldef
/cm /currentmatrix ldef
/sm /setmatrix ldef
/rm /rmoveto ldef
/rl /rlineto ldef
/s {show newpath} bdef
/sc {setcmykcolor} bdef
/sr /setrgbcolor ldef
/sg /setgray ldef
/w /setlinewidth ldef
/j /setlinejoin ldef
/cap /setlinecap ldef
/rc {rectclip} bdef
/rf {rectfill} bdef
% page state control
/pgsv () def
/bpage {/pgsv save def} bdef
/epage {pgsv restore} bdef
/bplot /gsave ldef
/eplot {stroke grestore} bdef
% orientation switch
/portraitMode 0 def /landscapeMode 1 def /rotateMode 2 def
% coordinate system mappings
/dpi2point 0 def
% font control
/FontSize 0 def
/FMS {/FontSize xstore findfont [FontSize 0 0 FontSize neg 0 0]
  makefont setfont} bdef
/ISOLatin1Encoding where {pop /WindowsLatin1Encoding 256 array bdef
ISOLatin1Encoding WindowsLatin1Encoding copy pop
/.notdef/.notdef/quotesinglbase/florin/quotedblbase/ellipsis/dagger
/daggerdbl/circumflex/perthousand/Scaron/guilsinglleft/OE/.notdef/.notdef
/.notdef/.notdef/quoteleft/quoteright/quotedblleft/quotedblright/bullet
/endash/emdash/tilde/trademark/scaron/guilsinglright/oe/.notdef/.notdef
/Ydieresis WindowsLatin1Encoding 128 32 getinterval astore pop}
{/WindowsLatin1Encoding StandardEncoding bdef} ifelse
/reencode {exch dup where {pop load} {pop StandardEncoding} ifelse
  exch dup 3 1 roll findfont dup length dict begin
  { 1 index /FID ne {def}{pop pop} ifelse } forall
  /Encoding exch def currentdict end definefont pop} bdef
/isroman {findfont /CharStrings get /Agrave known} bdef
/FMSR {3 1 roll 1 index dup isroman {reencode} {pop pop} ifelse
  exch FMS} bdef
/csm {1 dpi2point div -1 dpi2point div scale neg translate
 dup landscapeMode eq {pop -90 rotate}
  {rotateMode eq {90 rotate} if} ifelse} bdef
% line types: solid, dotted, dashed, dotdash
/SO { [] 0 setdash } bdef
/DO { [.5 dpi2point mul 4 dpi2point mul] 0 setdash } bdef
/DA { [6 dpi2point mul] 0 setdash } bdef
/DD { [.5 dpi2point mul 4 dpi2point mul 6 dpi2point mul 4
  dpi2point mul] 0 setdash } bdef
% macros for lines and objects
/L {lineto stroke} bdef
/MP {3 1 roll moveto 1 sub {rlineto} repeat} bdef
/AP {{rlineto} repeat} bdef
/PDlw -1 def
/W {/PDlw currentlinewidth def setlinewidth} def
/PP {closepath eofill} bdef
/DP {closepath stroke} bdef
/MR {4 -2 roll moveto dup  0 exch rlineto exch 0 rlineto
  neg 0 exch rlineto closepath} bdef
/FR {MR stroke} bdef
/PR {MR fill} bdef
/L1i {{currentfile picstr readhexstring pop} image} bdef
/tMatrix matrix def
/MakeOval {newpath tMatrix currentmatrix pop translate scale
0 0 1 0 360 arc tMatrix setmatrix} bdef
/FO {MakeOval stroke} bdef
/PO {MakeOval fill} bdef
/PD {currentlinewidth 2 div 0 360 arc fill
   PDlw -1 eq not {PDlw w /PDlw -1 def} if} def
/FA {newpath tMatrix currentmatrix pop translate scale
  0 0 1 5 -2 roll arc tMatrix setmatrix stroke} bdef
/PA {newpath tMatrix currentmatrix pop	translate 0 0 moveto scale
  0 0 1 5 -2 roll arc closepath tMatrix setmatrix fill} bdef
/FAn {newpath tMatrix currentmatrix pop translate scale
  0 0 1 5 -2 roll arcn tMatrix setmatrix stroke} bdef
/PAn {newpath tMatrix currentmatrix pop translate 0 0 moveto scale
  0 0 1 5 -2 roll arcn closepath tMatrix setmatrix fill} bdef
/vradius 0 def /hradius 0 def /lry 0 def
/lrx 0 def /uly 0 def /ulx 0 def /rad 0 def
/MRR {/vradius xdef /hradius xdef /lry xdef /lrx xdef /uly xdef
  /ulx xdef newpath tMatrix currentmatrix pop ulx hradius add uly
  vradius add translate hradius vradius scale 0 0 1 180 270 arc 
  tMatrix setmatrix lrx hradius sub uly vradius add translate
  hradius vradius scale 0 0 1 270 360 arc tMatrix setmatrix
  lrx hradius sub lry vradius sub translate hradius vradius scale
  0 0 1 0 90 arc tMatrix setmatrix ulx hradius add lry vradius sub
  translate hradius vradius scale 0 0 1 90 180 arc tMatrix setmatrix
  closepath} bdef
/FRR {MRR stroke } bdef
/PRR {MRR fill } bdef
/MlrRR {/lry xdef /lrx xdef /uly xdef /ulx xdef /rad lry uly sub 2 div def
  newpath tMatrix currentmatrix pop ulx rad add uly rad add translate
  rad rad scale 0 0 1 90 270 arc tMatrix setmatrix lrx rad sub lry rad
  sub translate rad rad scale 0 0 1 270 90 arc tMatrix setmatrix
  closepath} bdef
/FlrRR {MlrRR stroke } bdef
/PlrRR {MlrRR fill } bdef
/MtbRR {/lry xdef /lrx xdef /uly xdef /ulx xdef /rad lrx ulx sub 2 div def
  newpath tMatrix currentmatrix pop ulx rad add uly rad add translate
  rad rad scale 0 0 1 180 360 arc tMatrix setmatrix lrx rad sub lry rad
  sub translate rad rad scale 0 0 1 0 180 arc tMatrix setmatrix
  closepath} bdef
/FtbRR {MtbRR stroke } bdef
/PtbRR {MtbRR fill } bdef
/stri 6 array def /dtri 6 array def
/smat 6 array def /dmat 6 array def
/tmat1 6 array def /tmat2 6 array def /dif 3 array def
/asub {/ind2 exch def /ind1 exch def dup dup
  ind1 get exch ind2 get sub exch } bdef
/tri_to_matrix {
  2 0 asub 3 1 asub 4 0 asub 5 1 asub
  dup 0 get exch 1 get 7 -1 roll astore } bdef
/compute_transform {
  dmat dtri tri_to_matrix tmat1 invertmatrix 
  smat stri tri_to_matrix tmat2 concatmatrix } bdef
/ds {stri astore pop} bdef
/dt {dtri astore pop} bdef
/db {2 copy /cols xdef /rows xdef mul dup 3 mul string
  currentfile 
  3 index 0 eq {/ASCIIHexDecode filter}
  {/ASCII85Decode filter 3 index 2 eq {/RunLengthDecode filter} if }
  ifelse exch readstring pop
  dup 0 3 index getinterval /rbmap xdef
  dup 2 index dup getinterval /gbmap xdef
  1 index dup 2 mul exch getinterval /bbmap xdef pop pop}bdef
/it {gs np dtri aload pop moveto lineto lineto cp c
  cols rows 8 compute_transform 
  rbmap gbmap bbmap true 3 colorimage gr}bdef
/il {newpath moveto lineto stroke}bdef
currentdict end def
%%EndProlog

%%BeginSetup
MathWorks begin

0 cap

end
%%EndSetup

%%Page: 1 1
%%BeginPageSetup
%%PageBoundingBox:    35   187   575   604
MathWorks begin
bpage
%%EndPageSetup

%%BeginObject: obj1
bplot

/dpi2point 12 def
portraitMode 0420 7248 csm

    0     0  6480  5004 rc
85 dict begin %Colortable dictionary
/c0 { 0.000000 0.000000 0.000000 sr} bdef
/c1 { 1.000000 1.000000 1.000000 sr} bdef
/c2 { 0.900000 0.000000 0.000000 sr} bdef
/c3 { 0.000000 0.820000 0.000000 sr} bdef
/c4 { 0.000000 0.000000 0.800000 sr} bdef
/c5 { 0.910000 0.820000 0.320000 sr} bdef
/c6 { 1.000000 0.260000 0.820000 sr} bdef
/c7 { 0.000000 0.820000 0.820000 sr} bdef
c0
1 j
1 sg
   0    0 6481 5005 rf
6 w
0 2255 -2180 -1033 0 -2254 5863 3661 4 MP
PP
2180 1032 0 2255 -2180 -1033 0 -2254 5863 3661 5 MP stroke
2180 1032 2842 -792 -2181 -1032 3022 4453 4 MP
PP
-2841 792 2180 1032 2842 -792 -2181 -1032 3022 4453 5 MP stroke
0 2255 2842 -793 0 -2254 841 3421 4 MP
PP
-2842 792 0 2255 2842 -793 0 -2254 841 3421 5 MP stroke
4 w
DO
0 sg
3022 4453 mt  841 3421 L
 841 3421 mt  841 1167 L
4443 4057 mt 2262 3025 L
2262 3025 mt 2262  771 L
5863 3661 mt 3683 2629 L
3683 2629 mt 3683  374 L
3022 4453 mt 5863 3661 L
5863 3661 mt 5863 1407 L
1932 3937 mt 4773 3145 L
4773 3145 mt 4773  891 L
 841 3421 mt 3683 2629 L
3683 2629 mt 3683  374 L
 841 3421 mt 3683 2629 L
3683 2629 mt 5863 3661 L
 841 2970 mt 3683 2178 L
3683 2178 mt 5863 3210 L
 841 2519 mt 3683 1727 L
3683 1727 mt 5863 2760 L
 841 2068 mt 3683 1276 L
3683 1276 mt 5863 2309 L
 841 1618 mt 3683  825 L
3683  825 mt 5863 1858 L
 841 1167 mt 3683  374 L
3683  374 mt 5863 1407 L
SO
6 w
3022 4453 mt 5863 3661 L
3022 4453 mt  841 3421 L
 841 3421 mt  841 1167 L
3022 4453 mt 3089 4485 L
%%IncludeResource: font Helvetica-Bold
/Helvetica-Bold /WindowsLatin1Encoding 192 FMSR

3120 4684 mt 
(0) s
4443 4057 mt 4509 4089 L
4541 4288 mt 
(0.5) s
5863 3661 mt 5930 3693 L
5961 3892 mt 
(1) s
3022 4453 mt 2951 4473 L
2812 4667 mt 
(0) s
1932 3937 mt 1861 3957 L
1561 4150 mt 
(0.5) s
 841 3421 mt  770 3441 L
 631 3634 mt 
(1) s
 841 3421 mt  775 3389 L
 478 3448 mt 
(0.4) s
 841 2970 mt  775 2939 L
 478 2997 mt 
(0.6) s
 841 2519 mt  775 2488 L
 478 2546 mt 
(0.8) s
 841 2068 mt  775 2037 L
 638 2095 mt 
(1) s
 841 1618 mt  775 1586 L
 478 1644 mt 
(1.2) s
 841 1167 mt  775 1135 L
 478 1193 mt 
(1.4) s
gs 841 374 5023 4080 rc
/c8 { 1.000000 0.125000 0.000000 sr} bdef
c8
-218 -135 284 -187 5361 2221 3 MP
PP
0 sg
5361 2221 mt 5645 2034 L
5645 2034 mt 5427 1899 L
c8
284 -186 -218 -136 5361 2221 3 MP
PP
0 sg
5361 2221 mt 5143 2085 L
5143 2085 mt 5427 1899 L
/c9 { 1.000000 0.000000 0.000000 sr} bdef
c9
-218 -125 284 -186 5143 2085 3 MP
PP
0 sg
5143 2085 mt 5427 1899 L
5427 1899 mt 5209 1774 L
/c10 { 1.000000 0.437500 0.000000 sr} bdef
c10
-218 -136 284 -192 5077 2413 3 MP
PP
0 sg
5077 2413 mt 5361 2221 L
5361 2221 mt 5143 2085 L
c9
284 -185 -218 -126 5143 2085 3 MP
PP
0 sg
5143 2085 mt 4925 1959 L
4925 1959 mt 5209 1774 L
/c11 { 0.937500 0.000000 0.000000 sr} bdef
c11
-218 -120 284 -185 4925 1959 3 MP
PP
0 sg
4925 1959 mt 5209 1774 L
5209 1774 mt 4991 1654 L
/c12 { 1.000000 0.312500 0.000000 sr} bdef
c12
-218 -126 284 -191 4859 2276 3 MP
PP
0 sg
4859 2276 mt 5143 2085 L
5143 2085 mt 4925 1959 L
c10
284 -191 -218 -137 5077 2413 3 MP
PP
0 sg
5077 2413 mt 4859 2276 L
4859 2276 mt 5143 2085 L
/c13 { 1.000000 0.750000 0.000000 sr} bdef
c13
-218 -137 284 -199 4793 2612 3 MP
PP
0 sg
4793 2612 mt 5077 2413 L
5077 2413 mt 4859 2276 L
c11
-218 -117 284 -185 4707 1839 3 MP
PP
0 sg
4707 1839 mt 4991 1654 L
4991 1654 mt 4773 1537 L
c11
284 -185 -218 -120 4925 1959 3 MP
PP
0 sg
4925 1959 mt 4707 1839 L
4707 1839 mt 4991 1654 L
c12
284 -192 -218 -125 4859 2276 3 MP
PP
0 sg
4859 2276 mt 4641 2151 L
4641 2151 mt 4925 1959 L
/c14 { 1.000000 0.250000 0.000000 sr} bdef
c14
-218 -120 284 -192 4641 2151 3 MP
PP
0 sg
4641 2151 mt 4925 1959 L
4925 1959 mt 4707 1839 L
/c15 { 1.000000 0.625000 0.000000 sr} bdef
c15
-218 -125 284 -198 4575 2474 3 MP
PP
0 sg
4575 2474 mt 4859 2276 L
4859 2276 mt 4641 2151 L
c13
284 -198 -218 -138 4793 2612 3 MP
PP
0 sg
4793 2612 mt 4575 2474 L
4575 2474 mt 4859 2276 L
/c16 { 0.875000 1.000000 0.125000 sr} bdef
c16
-218 -138 284 -206 4509 2818 3 MP
PP
0 sg
4509 2818 mt 4793 2612 L
4793 2612 mt 4575 2474 L
/c17 { 0.875000 0.000000 0.000000 sr} bdef
c17
-218 -114 284 -186 4489 1723 3 MP
PP
0 sg
4489 1723 mt 4773 1537 L
4773 1537 mt 4555 1423 L
c11
284 -186 -218 -116 4707 1839 3 MP
PP
0 sg
4707 1839 mt 4489 1723 L
4489 1723 mt 4773 1537 L
c14
284 -192 -218 -120 4641 2151 3 MP
PP
0 sg
4641 2151 mt 4423 2031 L
4423 2031 mt 4707 1839 L
/c18 { 1.000000 0.187500 0.000000 sr} bdef
c18
-218 -116 284 -192 4423 2031 3 MP
PP
0 sg
4423 2031 mt 4707 1839 L
4707 1839 mt 4489 1723 L
c15
284 -197 -218 -126 4575 2474 3 MP
PP
0 sg
4575 2474 mt 4357 2348 L
4357 2348 mt 4641 2151 L
/c19 { 1.000000 0.562500 0.000000 sr} bdef
c19
-218 -120 284 -197 4357 2348 3 MP
PP
0 sg
4357 2348 mt 4641 2151 L
4641 2151 mt 4423 2031 L
/c20 { 1.000000 1.000000 0.000000 sr} bdef
c20
-218 -126 284 -206 4291 2680 3 MP
PP
0 sg
4291 2680 mt 4575 2474 L
4575 2474 mt 4357 2348 L
c16
284 -206 -218 -138 4509 2818 3 MP
PP
0 sg
4509 2818 mt 4291 2680 L
4291 2680 mt 4575 2474 L
c17
284 -186 -218 -114 4489 1723 3 MP
PP
0 sg
4489 1723 mt 4271 1609 L
4271 1609 mt 4555 1423 L
/c21 { 0.812500 0.000000 0.000000 sr} bdef
c21
-218 -112 284 -186 4271 1609 3 MP
PP
0 sg
4271 1609 mt 4555 1423 L
4555 1423 mt 4337 1311 L
/c22 { 0.562500 1.000000 0.437500 sr} bdef
c22
-218 -138 284 -215 4225 3033 3 MP
PP
0 sg
4225 3033 mt 4509 2818 L
4509 2818 mt 4291 2680 L
c18
284 -192 -218 -116 4423 2031 3 MP
PP
0 sg
4423 2031 mt 4205 1915 L
4205 1915 mt 4489 1723 L
c18
-218 -114 284 -192 4205 1915 3 MP
PP
0 sg
4205 1915 mt 4489 1723 L
4489 1723 mt 4271 1609 L
c19
-218 -116 284 -198 4139 2229 3 MP
PP
0 sg
4139 2229 mt 4423 2031 L
4423 2031 mt 4205 1915 L
c19
284 -198 -218 -119 4357 2348 3 MP
PP
0 sg
4357 2348 mt 4139 2229 L
4139 2229 mt 4423 2031 L
c20
284 -206 -218 -126 4291 2680 3 MP
PP
0 sg
4291 2680 mt 4073 2554 L
4073 2554 mt 4357 2348 L
/c23 { 1.000000 0.937500 0.000000 sr} bdef
c23
-218 -119 284 -206 4073 2554 3 MP
PP
0 sg
4073 2554 mt 4357 2348 L
4357 2348 mt 4139 2229 L
c21
-218 -111 284 -186 4053 1497 3 MP
PP
0 sg
4053 1497 mt 4337 1311 L
4337 1311 mt 4119 1200 L
c21
284 -186 -218 -112 4271 1609 3 MP
PP
0 sg
4271 1609 mt 4053 1497 L
4053 1497 mt 4337 1311 L
gr

4318 4779 mt 
(alpha) s
gs 841 374 5023 4080 rc
c22
284 -214 -218 -139 4225 3033 3 MP
PP
0 sg
4225 3033 mt 4007 2894 L
4007 2894 mt 4291 2680 L
/c24 { 0.625000 1.000000 0.375000 sr} bdef
c24
-218 -126 284 -214 4007 2894 3 MP
PP
0 sg
4007 2894 mt 4291 2680 L
4291 2680 mt 4073 2554 L
c8
-218 -112 284 -192 3987 1801 3 MP
PP
0 sg
3987 1801 mt 4271 1609 L
4271 1609 mt 4053 1497 L
c18
284 -192 -218 -114 4205 1915 3 MP
PP
0 sg
4205 1915 mt 3987 1801 L
3987 1801 mt 4271 1609 L
/c25 { 0.125000 1.000000 0.875000 sr} bdef
c25
-218 -139 284 -227 3941 3260 3 MP
PP
0 sg
3941 3260 mt 4225 3033 L
4225 3033 mt 4007 2894 L
c19
284 -198 -218 -116 4139 2229 3 MP
PP
0 sg
4139 2229 mt 3921 2113 L
3921 2113 mt 4205 1915 L
/c26 { 1.000000 0.500000 0.000000 sr} bdef
c26
-218 -114 284 -198 3921 2113 3 MP
PP
0 sg
3921 2113 mt 4205 1915 L
4205 1915 mt 3987 1801 L
c23
284 -206 -218 -119 4073 2554 3 MP
PP
0 sg
4073 2554 mt 3855 2435 L
3855 2435 mt 4139 2229 L
/c27 { 1.000000 0.875000 0.000000 sr} bdef
c27
-218 -116 284 -206 3855 2435 3 MP
PP
0 sg
3855 2435 mt 4139 2229 L
4139 2229 mt 3921 2113 L
c21
284 -186 -218 -111 4053 1497 3 MP
PP
0 sg
4053 1497 mt 3835 1386 L
3835 1386 mt 4119 1200 L
c21
-218 -110 284 -186 3835 1386 3 MP
PP
0 sg
3835 1386 mt 4119 1200 L
4119 1200 mt 3901 1090 L
/c28 { 0.687500 1.000000 0.312500 sr} bdef
c28
-218 -119 284 -215 3789 2769 3 MP
PP
0 sg
3789 2769 mt 4073 2554 L
4073 2554 mt 3855 2435 L
c24
284 -215 -218 -125 4007 2894 3 MP
PP
0 sg
4007 2894 mt 3789 2769 L
3789 2769 mt 4073 2554 L
c8
-218 -111 284 -192 3769 1689 3 MP
PP
0 sg
3769 1689 mt 4053 1497 L
4053 1497 mt 3835 1386 L
c8
284 -192 -218 -112 3987 1801 3 MP
PP
0 sg
3987 1801 mt 3769 1689 L
3769 1689 mt 4053 1497 L
c25
285 -227 -219 -139 3941 3260 3 MP
PP
0 sg
3941 3260 mt 3722 3121 L
3722 3121 mt 4007 2894 L
/c29 { 0.250000 1.000000 0.750000 sr} bdef
c29
-218 -125 285 -227 3722 3121 3 MP
PP
0 sg
3722 3121 mt 4007 2894 L
4007 2894 mt 3789 2769 L
c26
284 -199 -218 -113 3921 2113 3 MP
PP
0 sg
3921 2113 mt 3703 2000 L
3703 2000 mt 3987 1801 L
c26
-218 -112 284 -199 3703 2000 3 MP
PP
0 sg
3703 2000 mt 3987 1801 L
3987 1801 mt 3769 1689 L
/c30 { 0.000000 0.687500 1.000000 sr} bdef
c30
-219 -139 285 -242 3656 3502 3 MP
PP
0 sg
3656 3502 mt 3941 3260 L
3941 3260 mt 3722 3121 L
c27
-218 -113 284 -206 3637 2319 3 MP
PP
0 sg
3637 2319 mt 3921 2113 L
3921 2113 mt 3703 2000 L
c27
284 -206 -218 -116 3855 2435 3 MP
PP
0 sg
3855 2435 mt 3637 2319 L
3637 2319 mt 3921 2113 L
c21
284 -187 -218 -109 3835 1386 3 MP
PP
0 sg
3835 1386 mt 3617 1277 L
3617 1277 mt 3901 1090 L
/c31 { 0.750000 0.000000 0.000000 sr} bdef
c31
-218 -109 284 -187 3617 1277 3 MP
PP
0 sg
3617 1277 mt 3901 1090 L
3901 1090 mt 3683  981 L
c28
284 -215 -218 -119 3789 2769 3 MP
PP
0 sg
3789 2769 mt 3571 2650 L
3571 2650 mt 3855 2435 L
/c32 { 0.750000 1.000000 0.250000 sr} bdef
c32
-218 -116 284 -215 3571 2650 3 MP
PP
0 sg
3571 2650 mt 3855 2435 L
3855 2435 mt 3637 2319 L
c8
-218 -109 284 -193 3551 1579 3 MP
PP
0 sg
3551 1579 mt 3835 1386 L
3835 1386 mt 3617 1277 L
c8
284 -193 -218 -110 3769 1689 3 MP
PP
0 sg
3769 1689 mt 3551 1579 L
3551 1579 mt 3835 1386 L
c29
-218 -119 285 -228 3504 2997 3 MP
PP
0 sg
3504 2997 mt 3789 2769 L
3789 2769 mt 3571 2650 L
c29
285 -228 -218 -124 3722 3121 3 MP
PP
0 sg
3722 3121 mt 3504 2997 L
3504 2997 mt 3789 2769 L
c10
-218 -110 284 -199 3485 1888 3 MP
PP
0 sg
3485 1888 mt 3769 1689 L
3769 1689 mt 3551 1579 L
c26
284 -199 -218 -112 3703 2000 3 MP
PP
0 sg
3703 2000 mt 3485 1888 L
3485 1888 mt 3769 1689 L
c30
284 -244 -218 -137 3656 3502 3 MP
PP
0 sg
3656 3502 mt 3438 3365 L
3438 3365 mt 3722 3121 L
/c33 { 0.000000 0.750000 1.000000 sr} bdef
c33
-218 -124 284 -244 3438 3365 3 MP
PP
0 sg
3438 3365 mt 3722 3121 L
3722 3121 mt 3504 2997 L
/c34 { 1.000000 0.812500 0.000000 sr} bdef
c34
-218 -112 284 -206 3419 2206 3 MP
PP
0 sg
3419 2206 mt 3703 2000 L
3703 2000 mt 3485 1888 L
c27
284 -206 -218 -113 3637 2319 3 MP
PP
0 sg
3637 2319 mt 3419 2206 L
3419 2206 mt 3703 2000 L
c31
284 -187 -218 -109 3617 1277 3 MP
PP
0 sg
3617 1277 mt 3399 1168 L
3399 1168 mt 3683  981 L
/c35 { 0.000000 0.187500 1.000000 sr} bdef
c35
-218 -137 284 -266 3372 3768 3 MP
PP
0 sg
3372 3768 mt 3656 3502 L
3656 3502 mt 3438 3365 L
c32
-218 -113 285 -217 3352 2536 3 MP
PP
0 sg
3352 2536 mt 3637 2319 L
3637 2319 mt 3419 2206 L
c32
285 -217 -219 -114 3571 2650 3 MP
PP
0 sg
3571 2650 mt 3352 2536 L
3352 2536 mt 3637 2319 L
/c36 { 1.000000 0.062500 0.000000 sr} bdef
c36
-218 -109 284 -192 3333 1469 3 MP
PP
0 sg
3333 1469 mt 3617 1277 L
3617 1277 mt 3399 1168 L
c8
284 -192 -218 -110 3551 1579 3 MP
PP
0 sg
3551 1579 mt 3333 1469 L
3333 1469 mt 3617 1277 L
/c37 { 0.312500 1.000000 0.687500 sr} bdef
c37
-219 -114 285 -229 3286 2879 3 MP
PP
0 sg
3286 2879 mt 3571 2650 L
3571 2650 mt 3352 2536 L
c29
285 -229 -218 -118 3504 2997 3 MP
PP
0 sg
3504 2997 mt 3286 2879 L
3286 2879 mt 3571 2650 L
c10
-218 -110 284 -199 3267 1778 3 MP
PP
0 sg
3267 1778 mt 3551 1579 L
3551 1579 mt 3333 1469 L
c10
284 -199 -218 -110 3485 1888 3 MP
PP
0 sg
3485 1888 mt 3267 1778 L
3267 1778 mt 3551 1579 L
/c38 { 0.000000 0.812500 1.000000 sr} bdef
c38
-218 -118 284 -245 3220 3242 3 MP
PP
0 sg
3220 3242 mt 3504 2997 L
3504 2997 mt 3286 2879 L
c33
284 -245 -218 -123 3438 3365 3 MP
PP
0 sg
3438 3365 mt 3220 3242 L
3220 3242 mt 3504 2997 L
c34
284 -207 -218 -111 3419 2206 3 MP
PP
0 sg
3419 2206 mt 3201 2095 L
3201 2095 mt 3485 1888 L
c34
-218 -110 284 -207 3201 2095 3 MP
PP
0 sg
3201 2095 mt 3485 1888 L
3485 1888 mt 3267 1778 L
/c39 { 0.000000 0.250000 1.000000 sr} bdef
c39
-218 -123 284 -269 3154 3634 3 MP
PP
0 sg
3154 3634 mt 3438 3365 L
3438 3365 mt 3220 3242 L
c35
284 -269 -218 -134 3372 3768 3 MP
PP
0 sg
3372 3768 mt 3154 3634 L
3154 3634 mt 3438 3365 L
c32
285 -217 -218 -113 3352 2536 3 MP
PP
0 sg
3352 2536 mt 3134 2423 L
3134 2423 mt 3419 2206 L
/c40 { 0.812500 1.000000 0.187500 sr} bdef
c40
-218 -111 285 -217 3134 2423 3 MP
PP
0 sg
3134 2423 mt 3419 2206 L
3419 2206 mt 3201 2095 L
c36
284 -193 -218 -108 3333 1469 3 MP
PP
0 sg
3333 1469 mt 3115 1361 L
3115 1361 mt 3399 1168 L
/c41 { 0.000000 0.000000 0.562500 sr} bdef
c41
-218 -134 284 -308 3088 4076 3 MP
PP
0 sg
3088 4076 mt 3372 3768 L
3372 3768 mt 3154 3634 L
/c42 { 0.375000 1.000000 0.625000 sr} bdef
c42
-218 -113 284 -229 3068 2765 3 MP
PP
0 sg
3068 2765 mt 3352 2536 L
3352 2536 mt 3134 2423 L
c37
284 -229 -218 -114 3286 2879 3 MP
PP
0 sg
3286 2879 mt 3068 2765 L
3068 2765 mt 3352 2536 L
c10
284 -200 -218 -109 3267 1778 3 MP
PP
0 sg
3267 1778 mt 3049 1669 L
3049 1669 mt 3333 1469 L
c10
-218 -108 284 -200 3049 1669 3 MP
PP
0 sg
3049 1669 mt 3333 1469 L
3333 1469 mt 3115 1361 L
c38
284 -247 -218 -116 3220 3242 3 MP
PP
0 sg
3220 3242 mt 3002 3126 L
3002 3126 mt 3286 2879 L
/c43 { 0.000000 0.875000 1.000000 sr} bdef
c43
-218 -114 284 -247 3002 3126 3 MP
PP
0 sg
3002 3126 mt 3286 2879 L
3286 2879 mt 3068 2765 L
c34
-218 -109 284 -208 2983 1986 3 MP
PP
0 sg
2983 1986 mt 3267 1778 L
3267 1778 mt 3049 1669 L
c34
284 -208 -218 -109 3201 2095 3 MP
PP
0 sg
3201 2095 mt 2983 1986 L
2983 1986 mt 3267 1778 L
c39
284 -273 -218 -119 3154 3634 3 MP
PP
0 sg
3154 3634 mt 2936 3515 L
2936 3515 mt 3220 3242 L
/c44 { 0.000000 0.312500 1.000000 sr} bdef
c44
-218 -116 284 -273 2936 3515 3 MP
PP
0 sg
2936 3515 mt 3220 3242 L
3220 3242 mt 3002 3126 L
c40
-218 -109 285 -218 2916 2313 3 MP
PP
0 sg
2916 2313 mt 3201 2095 L
3201 2095 mt 2983 1986 L
c40
285 -218 -218 -110 3134 2423 3 MP
PP
0 sg
3134 2423 mt 2916 2313 L
2916 2313 mt 3201 2095 L
c41
284 -318 -218 -124 3088 4076 3 MP
PP
0 sg
3088 4076 mt 2870 3952 L
2870 3952 mt 3154 3634 L
c41
-218 -119 284 -318 2870 3952 3 MP
PP
0 sg
2870 3952 mt 3154 3634 L
3154 3634 mt 2936 3515 L
c42
-218 -110 284 -231 2850 2654 3 MP
PP
0 sg
2850 2654 mt 3134 2423 L
3134 2423 mt 2916 2313 L
c42
284 -231 -218 -111 3068 2765 3 MP
PP
0 sg
3068 2765 mt 2850 2654 L
2850 2654 mt 3134 2423 L
c10
284 -200 -218 -108 3049 1669 3 MP
PP
0 sg
3049 1669 mt 2831 1561 L
2831 1561 mt 3115 1361 L
c43
-218 -111 284 -249 2784 3014 3 MP
PP
0 sg
2784 3014 mt 3068 2765 L
3068 2765 mt 2850 2654 L
c43
284 -249 -218 -112 3002 3126 3 MP
PP
0 sg
3002 3126 mt 2784 3014 L
2784 3014 mt 3068 2765 L
c34
285 -208 -219 -109 2983 1986 3 MP
PP
0 sg
2983 1986 mt 2764 1877 L
2764 1877 mt 3049 1669 L
c13
-218 -108 285 -208 2764 1877 3 MP
PP
0 sg
2764 1877 mt 3049 1669 L
3049 1669 mt 2831 1561 L
c44
284 -276 -218 -113 2936 3515 3 MP
PP
0 sg
2936 3515 mt 2718 3402 L
2718 3402 mt 3002 3126 L
c44
-218 -112 284 -276 2718 3402 3 MP
PP
0 sg
2718 3402 mt 3002 3126 L
3002 3126 mt 2784 3014 L
c40
285 -218 -218 -109 2916 2313 3 MP
PP
0 sg
2916 2313 mt 2698 2204 L
2698 2204 mt 2983 1986 L
c40
-219 -109 285 -218 2698 2204 3 MP
PP
0 sg
2698 2204 mt 2983 1986 L
2983 1986 mt 2764 1877 L
c41
284 -324 -218 -113 2870 3952 3 MP
PP
0 sg
2870 3952 mt 2652 3839 L
2652 3839 mt 2936 3515 L
/c45 { 0.000000 0.000000 0.625000 sr} bdef
c45
-218 -113 284 -324 2652 3839 3 MP
PP
0 sg
2652 3839 mt 2936 3515 L
2936 3515 mt 2718 3402 L
c42
-218 -109 284 -232 2632 2545 3 MP
PP
0 sg
2632 2545 mt 2916 2313 L
2916 2313 mt 2698 2204 L
c42
284 -232 -218 -109 2850 2654 3 MP
PP
0 sg
2850 2654 mt 2632 2545 L
2632 2545 mt 2916 2313 L
c43
-218 -109 284 -250 2566 2904 3 MP
PP
0 sg
2566 2904 mt 2850 2654 L
2850 2654 mt 2632 2545 L
c43
284 -250 -218 -110 2784 3014 3 MP
PP
0 sg
2784 3014 mt 2566 2904 L
2566 2904 mt 2850 2654 L
c13
285 -208 -218 -108 2764 1877 3 MP
PP
0 sg
2764 1877 mt 2546 1769 L
2546 1769 mt 2831 1561 L
c44
-218 -110 284 -278 2500 3292 3 MP
PP
0 sg
2500 3292 mt 2784 3014 L
2784 3014 mt 2566 2904 L
c44
284 -278 -218 -110 2718 3402 3 MP
PP
0 sg
2718 3402 mt 2500 3292 L
2500 3292 mt 2784 3014 L
c40
284 -219 -218 -108 2698 2204 3 MP
PP
0 sg
2698 2204 mt 2480 2096 L
2480 2096 mt 2764 1877 L
c40
-218 -108 284 -219 2480 2096 3 MP
PP
0 sg
2480 2096 mt 2764 1877 L
2764 1877 mt 2546 1769 L
c45
284 -328 -218 -109 2652 3839 3 MP
PP
0 sg
2652 3839 mt 2434 3730 L
2434 3730 mt 2718 3402 L
c45
-218 -110 284 -328 2434 3730 3 MP
PP
0 sg
2434 3730 mt 2718 3402 L
2718 3402 mt 2500 3292 L
c42
284 -232 -218 -109 2632 2545 3 MP
PP
0 sg
2632 2545 mt 2414 2436 L
2414 2436 mt 2698 2204 L
c42
-218 -108 284 -232 2414 2436 3 MP
PP
0 sg
2414 2436 mt 2698 2204 L
2698 2204 mt 2480 2096 L
c43
284 -251 -218 -108 2566 2904 3 MP
PP
0 sg
2566 2904 mt 2348 2796 L
2348 2796 mt 2632 2545 L
/c46 { 0.000000 0.937500 1.000000 sr} bdef
c46
-218 -109 284 -251 2348 2796 3 MP
PP
0 sg
2348 2796 mt 2632 2545 L
2632 2545 mt 2414 2436 L
c44
284 -279 -218 -109 2500 3292 3 MP
PP
0 sg
2500 3292 mt 2282 3183 L
2282 3183 mt 2566 2904 L
/c47 { 0.000000 0.375000 1.000000 sr} bdef
c47
-218 -108 284 -279 2282 3183 3 MP
PP
0 sg
2282 3183 mt 2566 2904 L
2566 2904 mt 2348 2796 L
c40
284 -219 -218 -108 2480 2096 3 MP
PP
0 sg
2480 2096 mt 2262 1988 L
2262 1988 mt 2546 1769 L
c45
284 -331 -218 -107 2434 3730 3 MP
PP
0 sg
2434 3730 mt 2216 3623 L
2216 3623 mt 2500 3292 L
c45
-218 -109 284 -331 2216 3623 3 MP
PP
0 sg
2216 3623 mt 2500 3292 L
2500 3292 mt 2282 3183 L
/c48 { 0.437500 1.000000 0.562500 sr} bdef
c48
-218 -108 284 -233 2196 2329 3 MP
PP
0 sg
2196 2329 mt 2480 2096 L
2480 2096 mt 2262 1988 L
c42
284 -233 -218 -107 2414 2436 3 MP
PP
0 sg
2414 2436 mt 2196 2329 L
2196 2329 mt 2480 2096 L
c46
284 -252 -218 -108 2348 2796 3 MP
PP
0 sg
2348 2796 mt 2130 2688 L
2130 2688 mt 2414 2436 L
c46
-218 -107 284 -252 2130 2688 3 MP
PP
0 sg
2130 2688 mt 2414 2436 L
2414 2436 mt 2196 2329 L
c47
284 -280 -218 -107 2282 3183 3 MP
PP
0 sg
2282 3183 mt 2064 3076 L
2064 3076 mt 2348 2796 L
c47
-218 -108 284 -280 2064 3076 3 MP
PP
0 sg
2064 3076 mt 2348 2796 L
2348 2796 mt 2130 2688 L
c45
-218 -107 284 -335 1998 3518 3 MP
PP
0 sg
1998 3518 mt 2282 3183 L
2282 3183 mt 2064 3076 L
c45
284 -335 -218 -105 2216 3623 3 MP
PP
0 sg
2216 3623 mt 1998 3518 L
1998 3518 mt 2282 3183 L
c48
284 -234 -218 -107 2196 2329 3 MP
PP
0 sg
2196 2329 mt 1978 2222 L
1978 2222 mt 2262 1988 L
c46
-218 -107 284 -252 1912 2581 3 MP
PP
0 sg
1912 2581 mt 2196 2329 L
2196 2329 mt 1978 2222 L
c46
284 -252 -218 -107 2130 2688 3 MP
PP
0 sg
2130 2688 mt 1912 2581 L
1912 2581 mt 2196 2329 L
c47
-218 -107 284 -282 1846 2970 3 MP
PP
0 sg
1846 2970 mt 2130 2688 L
2130 2688 mt 1912 2581 L
c47
284 -282 -218 -106 2064 3076 3 MP
PP
0 sg
2064 3076 mt 1846 2970 L
1846 2970 mt 2130 2688 L
c45
284 -336 -218 -106 1998 3518 3 MP
PP
0 sg
1998 3518 mt 1780 3412 L
1780 3412 mt 2064 3076 L
c45
-218 -106 284 -336 1780 3412 3 MP
PP
0 sg
1780 3412 mt 2064 3076 L
2064 3076 mt 1846 2970 L
c46
284 -253 -218 -106 1912 2581 3 MP
PP
0 sg
1912 2581 mt 1694 2475 L
1694 2475 mt 1978 2222 L
c47
-218 -106 284 -284 1628 2865 3 MP
PP
0 sg
1628 2865 mt 1912 2581 L
1912 2581 mt 1694 2475 L
c47
284 -284 -218 -105 1846 2970 3 MP
PP
0 sg
1846 2970 mt 1628 2865 L
1628 2865 mt 1912 2581 L
gr

1495 4719 mt 
(beta) s
gs 841 374 5023 4080 rc
c45
284 -338 -218 -104 1780 3412 3 MP
PP
0 sg
1780 3412 mt 1562 3308 L
1562 3308 mt 1846 2970 L
/c49 { 0.000000 0.000000 0.687500 sr} bdef
c49
-218 -105 284 -338 1562 3308 3 MP
PP
0 sg
1562 3308 mt 1846 2970 L
1846 2970 mt 1628 2865 L
c47
284 -284 -218 -106 1628 2865 3 MP
PP
0 sg
1628 2865 mt 1410 2759 L
1410 2759 mt 1694 2475 L
c49
-218 -106 284 -338 1344 3203 3 MP
PP
0 sg
1344 3203 mt 1628 2865 L
1628 2865 mt 1410 2759 L
c49
284 -338 -218 -105 1562 3308 3 MP
PP
0 sg
1562 3308 mt 1344 3203 L
1344 3203 mt 1628 2865 L
c49
284 -340 -218 -104 1344 3203 3 MP
PP
0 sg
1344 3203 mt 1126 3099 L
1126 3099 mt 1410 2759 L
gr

 380 2903 mt  -90 rotate
(Upper Bound) s
90 rotate

end %%Color Dict

eplot
%%EndObject

epage
end

showpage

%%Trailer
%%EOF
