%!PS-Adobe-3.0 EPSF-3.0
%%Creator: MATLAB, The Mathworks, Inc. Version 7.3.0.267 (R2006b). Operating System: Microsoft Windows XP.
%%Title: D:\cygwin\home\Yilin Mo\yilin\security\hscc\simulation1lower.eps
%%CreationDate: 10/29/2009  23:53:17
%%DocumentNeededFonts: Helvetica
%%+ Helvetica-Bold
%%DocumentProcessColors: Cyan Magenta Yellow Black
%%LanguageLevel: 2
%%Pages: 1
%%BoundingBox:    35   187   575   604
%%EndComments

%%BeginProlog
% MathWorks dictionary
/MathWorks 160 dict begin
% definition operators
/bdef {bind def} bind def
/ldef {load def} bind def
/xdef {exch def} bdef
/xstore {exch store} bdef
% operator abbreviations
/c  /clip ldef
/cc /concat ldef
/cp /closepath ldef
/gr /grestore ldef
/gs /gsave ldef
/mt /moveto ldef
/np /newpath ldef
/cm /currentmatrix ldef
/sm /setmatrix ldef
/rm /rmoveto ldef
/rl /rlineto ldef
/s {show newpath} bdef
/sc {setcmykcolor} bdef
/sr /setrgbcolor ldef
/sg /setgray ldef
/w /setlinewidth ldef
/j /setlinejoin ldef
/cap /setlinecap ldef
/rc {rectclip} bdef
/rf {rectfill} bdef
% page state control
/pgsv () def
/bpage {/pgsv save def} bdef
/epage {pgsv restore} bdef
/bplot /gsave ldef
/eplot {stroke grestore} bdef
% orientation switch
/portraitMode 0 def /landscapeMode 1 def /rotateMode 2 def
% coordinate system mappings
/dpi2point 0 def
% font control
/FontSize 0 def
/FMS {/FontSize xstore findfont [FontSize 0 0 FontSize neg 0 0]
  makefont setfont} bdef
/ISOLatin1Encoding where {pop /WindowsLatin1Encoding 256 array bdef
ISOLatin1Encoding WindowsLatin1Encoding copy pop
/.notdef/.notdef/quotesinglbase/florin/quotedblbase/ellipsis/dagger
/daggerdbl/circumflex/perthousand/Scaron/guilsinglleft/OE/.notdef/.notdef
/.notdef/.notdef/quoteleft/quoteright/quotedblleft/quotedblright/bullet
/endash/emdash/tilde/trademark/scaron/guilsinglright/oe/.notdef/.notdef
/Ydieresis WindowsLatin1Encoding 128 32 getinterval astore pop}
{/WindowsLatin1Encoding StandardEncoding bdef} ifelse
/reencode {exch dup where {pop load} {pop StandardEncoding} ifelse
  exch dup 3 1 roll findfont dup length dict begin
  { 1 index /FID ne {def}{pop pop} ifelse } forall
  /Encoding exch def currentdict end definefont pop} bdef
/isroman {findfont /CharStrings get /Agrave known} bdef
/FMSR {3 1 roll 1 index dup isroman {reencode} {pop pop} ifelse
  exch FMS} bdef
/csm {1 dpi2point div -1 dpi2point div scale neg translate
 dup landscapeMode eq {pop -90 rotate}
  {rotateMode eq {90 rotate} if} ifelse} bdef
% line types: solid, dotted, dashed, dotdash
/SO { [] 0 setdash } bdef
/DO { [.5 dpi2point mul 4 dpi2point mul] 0 setdash } bdef
/DA { [6 dpi2point mul] 0 setdash } bdef
/DD { [.5 dpi2point mul 4 dpi2point mul 6 dpi2point mul 4
  dpi2point mul] 0 setdash } bdef
% macros for lines and objects
/L {lineto stroke} bdef
/MP {3 1 roll moveto 1 sub {rlineto} repeat} bdef
/AP {{rlineto} repeat} bdef
/PDlw -1 def
/W {/PDlw currentlinewidth def setlinewidth} def
/PP {closepath eofill} bdef
/DP {closepath stroke} bdef
/MR {4 -2 roll moveto dup  0 exch rlineto exch 0 rlineto
  neg 0 exch rlineto closepath} bdef
/FR {MR stroke} bdef
/PR {MR fill} bdef
/L1i {{currentfile picstr readhexstring pop} image} bdef
/tMatrix matrix def
/MakeOval {newpath tMatrix currentmatrix pop translate scale
0 0 1 0 360 arc tMatrix setmatrix} bdef
/FO {MakeOval stroke} bdef
/PO {MakeOval fill} bdef
/PD {currentlinewidth 2 div 0 360 arc fill
   PDlw -1 eq not {PDlw w /PDlw -1 def} if} def
/FA {newpath tMatrix currentmatrix pop translate scale
  0 0 1 5 -2 roll arc tMatrix setmatrix stroke} bdef
/PA {newpath tMatrix currentmatrix pop	translate 0 0 moveto scale
  0 0 1 5 -2 roll arc closepath tMatrix setmatrix fill} bdef
/FAn {newpath tMatrix currentmatrix pop translate scale
  0 0 1 5 -2 roll arcn tMatrix setmatrix stroke} bdef
/PAn {newpath tMatrix currentmatrix pop translate 0 0 moveto scale
  0 0 1 5 -2 roll arcn closepath tMatrix setmatrix fill} bdef
/vradius 0 def /hradius 0 def /lry 0 def
/lrx 0 def /uly 0 def /ulx 0 def /rad 0 def
/MRR {/vradius xdef /hradius xdef /lry xdef /lrx xdef /uly xdef
  /ulx xdef newpath tMatrix currentmatrix pop ulx hradius add uly
  vradius add translate hradius vradius scale 0 0 1 180 270 arc 
  tMatrix setmatrix lrx hradius sub uly vradius add translate
  hradius vradius scale 0 0 1 270 360 arc tMatrix setmatrix
  lrx hradius sub lry vradius sub translate hradius vradius scale
  0 0 1 0 90 arc tMatrix setmatrix ulx hradius add lry vradius sub
  translate hradius vradius scale 0 0 1 90 180 arc tMatrix setmatrix
  closepath} bdef
/FRR {MRR stroke } bdef
/PRR {MRR fill } bdef
/MlrRR {/lry xdef /lrx xdef /uly xdef /ulx xdef /rad lry uly sub 2 div def
  newpath tMatrix currentmatrix pop ulx rad add uly rad add translate
  rad rad scale 0 0 1 90 270 arc tMatrix setmatrix lrx rad sub lry rad
  sub translate rad rad scale 0 0 1 270 90 arc tMatrix setmatrix
  closepath} bdef
/FlrRR {MlrRR stroke } bdef
/PlrRR {MlrRR fill } bdef
/MtbRR {/lry xdef /lrx xdef /uly xdef /ulx xdef /rad lrx ulx sub 2 div def
  newpath tMatrix currentmatrix pop ulx rad add uly rad add translate
  rad rad scale 0 0 1 180 360 arc tMatrix setmatrix lrx rad sub lry rad
  sub translate rad rad scale 0 0 1 0 180 arc tMatrix setmatrix
  closepath} bdef
/FtbRR {MtbRR stroke } bdef
/PtbRR {MtbRR fill } bdef
/stri 6 array def /dtri 6 array def
/smat 6 array def /dmat 6 array def
/tmat1 6 array def /tmat2 6 array def /dif 3 array def
/asub {/ind2 exch def /ind1 exch def dup dup
  ind1 get exch ind2 get sub exch } bdef
/tri_to_matrix {
  2 0 asub 3 1 asub 4 0 asub 5 1 asub
  dup 0 get exch 1 get 7 -1 roll astore } bdef
/compute_transform {
  dmat dtri tri_to_matrix tmat1 invertmatrix 
  smat stri tri_to_matrix tmat2 concatmatrix } bdef
/ds {stri astore pop} bdef
/dt {dtri astore pop} bdef
/db {2 copy /cols xdef /rows xdef mul dup 3 mul string
  currentfile 
  3 index 0 eq {/ASCIIHexDecode filter}
  {/ASCII85Decode filter 3 index 2 eq {/RunLengthDecode filter} if }
  ifelse exch readstring pop
  dup 0 3 index getinterval /rbmap xdef
  dup 2 index dup getinterval /gbmap xdef
  1 index dup 2 mul exch getinterval /bbmap xdef pop pop}bdef
/it {gs np dtri aload pop moveto lineto lineto cp c
  cols rows 8 compute_transform 
  rbmap gbmap bbmap true 3 colorimage gr}bdef
/il {newpath moveto lineto stroke}bdef
currentdict end def
%%EndProlog

%%BeginSetup
MathWorks begin

0 cap

end
%%EndSetup

%%Page: 1 1
%%BeginPageSetup
%%PageBoundingBox:    35   187   575   604
MathWorks begin
bpage
%%EndPageSetup

%%BeginObject: obj1
bplot

/dpi2point 12 def
portraitMode 0420 7248 csm

    0     0  6480  5004 rc
85 dict begin %Colortable dictionary
/c0 { 0.000000 0.000000 0.000000 sr} bdef
/c1 { 1.000000 1.000000 1.000000 sr} bdef
/c2 { 0.900000 0.000000 0.000000 sr} bdef
/c3 { 0.000000 0.820000 0.000000 sr} bdef
/c4 { 0.000000 0.000000 0.800000 sr} bdef
/c5 { 0.910000 0.820000 0.320000 sr} bdef
/c6 { 1.000000 0.260000 0.820000 sr} bdef
/c7 { 0.000000 0.820000 0.820000 sr} bdef
c0
1 j
1 sg
   0    0 6481 5005 rf
6 w
0 2255 -2181 -1033 0 -2254 5864 3661 4 MP
PP
2181 1032 0 2255 -2181 -1033 0 -2254 5864 3661 5 MP stroke
2181 1032 2842 -792 -2181 -1032 3022 4453 4 MP
PP
-2842 792 2181 1032 2842 -792 -2181 -1032 3022 4453 5 MP stroke
0 2255 2842 -793 0 -2254 841 3421 4 MP
PP
-2842 792 0 2255 2842 -793 0 -2254 841 3421 5 MP stroke
4 w
DO
0 sg
3022 4453 mt  841 3421 L
 841 3421 mt  841 1167 L
4443 4057 mt 2262 3025 L
2262 3025 mt 2262  771 L
5864 3661 mt 3683 2629 L
3683 2629 mt 3683  374 L
3022 4453 mt 5864 3661 L
5864 3661 mt 5864 1407 L
1932 3937 mt 4773 3145 L
4773 3145 mt 4773  891 L
 841 3421 mt 3683 2629 L
3683 2629 mt 3683  374 L
 841 3421 mt 3683 2629 L
3683 2629 mt 5864 3661 L
 841 2970 mt 3683 2178 L
3683 2178 mt 5864 3210 L
 841 2519 mt 3683 1727 L
3683 1727 mt 5864 2760 L
 841 2068 mt 3683 1276 L
3683 1276 mt 5864 2309 L
 841 1618 mt 3683  825 L
3683  825 mt 5864 1858 L
 841 1167 mt 3683  374 L
3683  374 mt 5864 1407 L
SO
6 w
3022 4453 mt 5864 3661 L
3022 4453 mt  841 3421 L
 841 3421 mt  841 1167 L
3022 4453 mt 3089 4485 L
%%IncludeResource: font Helvetica-Bold
/Helvetica-Bold /WindowsLatin1Encoding 192 FMSR

3120 4684 mt 
(0) s
4443 4057 mt 4509 4089 L
4541 4288 mt 
(0.5) s
5864 3661 mt 5930 3693 L
5961 3892 mt 
(1) s
3022 4453 mt 2951 4473 L
2812 4667 mt 
(0) s
1932 3937 mt 1861 3957 L
1561 4150 mt 
(0.5) s
 841 3421 mt  770 3441 L
 631 3634 mt 
(1) s
 841 3421 mt  775 3389 L
 638 3448 mt 
(0) s
 841 2970 mt  775 2939 L
 478 2997 mt 
(0.2) s
 841 2519 mt  775 2488 L
 478 2546 mt 
(0.4) s
 841 2068 mt  775 2037 L
 478 2095 mt 
(0.6) s
 841 1618 mt  775 1586 L
 478 1644 mt 
(0.8) s
 841 1167 mt  775 1135 L
 638 1193 mt 
(1) s
gs 842 374 5023 4080 rc
/c8 { 0.687500 0.000000 0.000000 sr} bdef
c8
-218 30 284 -170 5361 1734 3 MP
PP
0 sg
5361 1734 mt 5645 1564 L
5645 1564 mt 5427 1594 L
c8
284 -169 -218 29 5361 1734 3 MP
PP
0 sg
5361 1734 mt 5143 1763 L
5143 1763 mt 5427 1594 L
/c9 { 1.000000 0.000000 0.000000 sr} bdef
c9
-218 0 284 -169 5143 1763 3 MP
PP
0 sg
5143 1763 mt 5427 1594 L
5427 1594 mt 5209 1594 L
/c10 { 0.875000 0.000000 0.000000 sr} bdef
c10
-218 29 284 -180 5077 1914 3 MP
PP
0 sg
5077 1914 mt 5361 1734 L
5361 1734 mt 5143 1763 L
c9
284 -169 -218 0 5143 1763 3 MP
PP
0 sg
5143 1763 mt 4925 1763 L
4925 1763 mt 5209 1594 L
/c11 { 1.000000 0.187500 0.000000 sr} bdef
c11
-218 -18 284 -169 4925 1763 3 MP
PP
0 sg
4925 1763 mt 5209 1594 L
5209 1594 mt 4991 1576 L
c11
-218 0 284 -180 4859 1943 3 MP
PP
0 sg
4859 1943 mt 5143 1763 L
5143 1763 mt 4925 1763 L
c10
284 -180 -218 29 5077 1914 3 MP
PP
0 sg
5077 1914 mt 4859 1943 L
4859 1943 mt 5143 1763 L
/c12 { 1.000000 0.125000 0.000000 sr} bdef
c12
-218 29 284 -192 4793 2106 3 MP
PP
0 sg
4793 2106 mt 5077 1914 L
5077 1914 mt 4859 1943 L
/c13 { 1.000000 0.375000 0.000000 sr} bdef
c13
-218 -30 284 -169 4707 1745 3 MP
PP
0 sg
4707 1745 mt 4991 1576 L
4991 1576 mt 4773 1546 L
c11
284 -169 -218 -18 4925 1763 3 MP
PP
0 sg
4925 1763 mt 4707 1745 L
4707 1745 mt 4991 1576 L
c11
284 -179 -218 -1 4859 1943 3 MP
PP
0 sg
4859 1943 mt 4641 1942 L
4641 1942 mt 4925 1763 L
/c14 { 1.000000 0.437500 0.000000 sr} bdef
c14
-218 -18 284 -179 4641 1942 3 MP
PP
0 sg
4641 1942 mt 4925 1763 L
4925 1763 mt 4707 1745 L
c14
-218 -1 284 -191 4575 2134 3 MP
PP
0 sg
4575 2134 mt 4859 1943 L
4859 1943 mt 4641 1942 L
c12
284 -191 -218 28 4793 2106 3 MP
PP
0 sg
4793 2106 mt 4575 2134 L
4575 2134 mt 4859 1943 L
c14
-218 28 284 -207 4509 2313 3 MP
PP
0 sg
4509 2313 mt 4793 2106 L
4793 2106 mt 4575 2134 L
/c15 { 1.000000 0.562500 0.000000 sr} bdef
c15
-218 -40 284 -168 4489 1714 3 MP
PP
0 sg
4489 1714 mt 4773 1546 L
4773 1546 mt 4555 1506 L
c13
284 -168 -218 -31 4707 1745 3 MP
PP
0 sg
4707 1745 mt 4489 1714 L
4489 1714 mt 4773 1546 L
c14
284 -178 -218 -19 4641 1942 3 MP
PP
0 sg
4641 1942 mt 4423 1923 L
4423 1923 mt 4707 1745 L
/c16 { 1.000000 0.625000 0.000000 sr} bdef
c16
-218 -31 284 -178 4423 1923 3 MP
PP
0 sg
4423 1923 mt 4707 1745 L
4707 1745 mt 4489 1714 L
c14
284 -190 -218 -2 4575 2134 3 MP
PP
0 sg
4575 2134 mt 4357 2132 L
4357 2132 mt 4641 1942 L
/c17 { 1.000000 0.687500 0.000000 sr} bdef
c17
-218 -19 284 -190 4357 2132 3 MP
PP
0 sg
4357 2132 mt 4641 1942 L
4641 1942 mt 4423 1923 L
/c18 { 1.000000 0.750000 0.000000 sr} bdef
c18
-218 -2 284 -205 4291 2339 3 MP
PP
0 sg
4291 2339 mt 4575 2134 L
4575 2134 mt 4357 2132 L
c14
284 -205 -218 26 4509 2313 3 MP
PP
0 sg
4509 2313 mt 4291 2339 L
4291 2339 mt 4575 2134 L
c15
284 -167 -218 -41 4489 1714 3 MP
PP
0 sg
4489 1714 mt 4271 1673 L
4271 1673 mt 4555 1506 L
c17
-218 -48 284 -167 4271 1673 3 MP
PP
0 sg
4271 1673 mt 4555 1506 L
4555 1506 mt 4337 1458 L
c18
-218 26 284 -223 4225 2536 3 MP
PP
0 sg
4225 2536 mt 4509 2313 L
4509 2313 mt 4291 2339 L
c16
284 -177 -218 -32 4423 1923 3 MP
PP
0 sg
4423 1923 mt 4205 1891 L
4205 1891 mt 4489 1714 L
c18
-218 -41 284 -177 4205 1891 3 MP
PP
0 sg
4205 1891 mt 4489 1714 L
4489 1714 mt 4271 1673 L
/c19 { 1.000000 0.875000 0.000000 sr} bdef
c19
-218 -32 284 -189 4139 2112 3 MP
PP
0 sg
4139 2112 mt 4423 1923 L
4423 1923 mt 4205 1891 L
c17
284 -189 -218 -20 4357 2132 3 MP
PP
0 sg
4357 2132 mt 4139 2112 L
4139 2112 mt 4423 1923 L
c18
284 -203 -218 -4 4291 2339 3 MP
PP
0 sg
4291 2339 mt 4073 2335 L
4073 2335 mt 4357 2132 L
/c20 { 1.000000 0.937500 0.000000 sr} bdef
c20
-218 -20 284 -203 4073 2335 3 MP
PP
0 sg
4073 2335 mt 4357 2132 L
4357 2132 mt 4139 2112 L
/c21 { 1.000000 0.812500 0.000000 sr} bdef
c21
-218 -53 284 -167 4053 1625 3 MP
PP
0 sg
4053 1625 mt 4337 1458 L
4337 1458 mt 4119 1405 L
c17
284 -167 -218 -48 4271 1673 3 MP
PP
0 sg
4271 1673 mt 4053 1625 L
4053 1625 mt 4337 1458 L
gr

4318 4779 mt 
(alpha) s
gs 842 374 5023 4080 rc
c18
284 -221 -218 24 4225 2536 3 MP
PP
0 sg
4225 2536 mt 4007 2560 L
4007 2560 mt 4291 2339 L
/c22 { 0.937500 1.000000 0.062500 sr} bdef
c22
-218 -4 284 -221 4007 2560 3 MP
PP
0 sg
4007 2560 mt 4291 2339 L
4291 2339 mt 4073 2335 L
c20
-218 -48 284 -176 3987 1849 3 MP
PP
0 sg
3987 1849 mt 4271 1673 L
4271 1673 mt 4053 1625 L
c18
284 -176 -218 -42 4205 1891 3 MP
PP
0 sg
4205 1891 mt 3987 1849 L
3987 1849 mt 4271 1673 L
/c23 { 0.875000 1.000000 0.125000 sr} bdef
c23
-218 24 284 -246 3941 2782 3 MP
PP
0 sg
3941 2782 mt 4225 2536 L
4225 2536 mt 4007 2560 L
c19
284 -187 -218 -34 4139 2112 3 MP
PP
0 sg
4139 2112 mt 3921 2078 L
3921 2078 mt 4205 1891 L
/c24 { 1.000000 1.000000 0.000000 sr} bdef
c24
-218 -42 284 -187 3921 2078 3 MP
PP
0 sg
3921 2078 mt 4205 1891 L
4205 1891 mt 3987 1849 L
c20
284 -201 -218 -22 4073 2335 3 MP
PP
0 sg
4073 2335 mt 3855 2313 L
3855 2313 mt 4139 2112 L
c23
-218 -34 284 -201 3855 2313 3 MP
PP
0 sg
3855 2313 mt 4139 2112 L
4139 2112 mt 3921 2078 L
c21
284 -165 -218 -55 4053 1625 3 MP
PP
0 sg
4053 1625 mt 3835 1570 L
3835 1570 mt 4119 1405 L
c20
-218 -59 284 -165 3835 1570 3 MP
PP
0 sg
3835 1570 mt 4119 1405 L
4119 1405 mt 3901 1346 L
/c25 { 0.750000 1.000000 0.250000 sr} bdef
c25
-218 -22 284 -219 3789 2554 3 MP
PP
0 sg
3789 2554 mt 4073 2335 L
4073 2335 mt 3855 2313 L
c22
284 -219 -218 -6 4007 2560 3 MP
PP
0 sg
4007 2560 mt 3789 2554 L
3789 2554 mt 4073 2335 L
c22
-218 -55 284 -174 3769 1799 3 MP
PP
0 sg
3769 1799 mt 4053 1625 L
4053 1625 mt 3835 1570 L
c20
284 -174 -218 -50 3987 1849 3 MP
PP
0 sg
3987 1849 mt 3769 1799 L
3769 1799 mt 4053 1625 L
c23
285 -243 -219 21 3941 2782 3 MP
PP
0 sg
3941 2782 mt 3722 2803 L
3722 2803 mt 4007 2560 L
/c26 { 0.562500 1.000000 0.437500 sr} bdef
c26
-218 -6 285 -243 3722 2803 3 MP
PP
0 sg
3722 2803 mt 4007 2560 L
4007 2560 mt 3789 2554 L
c24
284 -185 -218 -44 3921 2078 3 MP
PP
0 sg
3921 2078 mt 3703 2034 L
3703 2034 mt 3987 1849 L
c23
-218 -50 284 -185 3703 2034 3 MP
PP
0 sg
3703 2034 mt 3987 1849 L
3987 1849 mt 3769 1799 L
/c27 { 0.437500 1.000000 0.562500 sr} bdef
c27
-219 21 285 -274 3656 3056 3 MP
PP
0 sg
3656 3056 mt 3941 2782 L
3941 2782 mt 3722 2803 L
/c28 { 0.687500 1.000000 0.312500 sr} bdef
c28
-218 -44 284 -198 3637 2276 3 MP
PP
0 sg
3637 2276 mt 3921 2078 L
3921 2078 mt 3703 2034 L
c23
284 -198 -218 -37 3855 2313 3 MP
PP
0 sg
3855 2313 mt 3637 2276 L
3637 2276 mt 3921 2078 L
c20
284 -165 -218 -59 3835 1570 3 MP
PP
0 sg
3835 1570 mt 3617 1511 L
3617 1511 mt 3901 1346 L
c24
-218 -62 284 -165 3617 1511 3 MP
PP
0 sg
3617 1511 mt 3901 1346 L
3901 1346 mt 3683 1284 L
c25
284 -216 -218 -25 3789 2554 3 MP
PP
0 sg
3789 2554 mt 3571 2529 L
3571 2529 mt 3855 2313 L
c26
-218 -37 284 -216 3571 2529 3 MP
PP
0 sg
3571 2529 mt 3855 2313 L
3855 2313 mt 3637 2276 L
c23
-218 -59 284 -173 3551 1743 3 MP
PP
0 sg
3551 1743 mt 3835 1570 L
3835 1570 mt 3617 1511 L
c22
284 -173 -218 -56 3769 1799 3 MP
PP
0 sg
3769 1799 mt 3551 1743 L
3551 1743 mt 3835 1570 L
/c29 { 0.375000 1.000000 0.625000 sr} bdef
c29
-218 -25 285 -239 3504 2793 3 MP
PP
0 sg
3504 2793 mt 3789 2554 L
3789 2554 mt 3571 2529 L
c26
285 -239 -218 -10 3722 2803 3 MP
PP
0 sg
3722 2803 mt 3504 2793 L
3504 2793 mt 3789 2554 L
c25
-218 -56 284 -183 3485 1982 3 MP
PP
0 sg
3485 1982 mt 3769 1799 L
3769 1799 mt 3551 1743 L
c23
284 -183 -218 -52 3703 2034 3 MP
PP
0 sg
3703 2034 mt 3485 1982 L
3485 1982 mt 3769 1799 L
c27
284 -271 -218 18 3656 3056 3 MP
PP
0 sg
3656 3056 mt 3438 3074 L
3438 3074 mt 3722 2803 L
/c30 { 0.125000 1.000000 0.875000 sr} bdef
c30
-218 -10 284 -271 3438 3074 3 MP
PP
0 sg
3438 3074 mt 3722 2803 L
3722 2803 mt 3504 2793 L
c26
-218 -52 284 -196 3419 2230 3 MP
PP
0 sg
3419 2230 mt 3703 2034 L
3703 2034 mt 3485 1982 L
c28
284 -196 -218 -46 3637 2276 3 MP
PP
0 sg
3637 2276 mt 3419 2230 L
3419 2230 mt 3703 2034 L
c24
284 -163 -218 -64 3617 1511 3 MP
PP
0 sg
3617 1511 mt 3399 1447 L
3399 1447 mt 3683 1284 L
/c31 { 0.000000 0.875000 1.000000 sr} bdef
c31
-218 18 284 -318 3372 3374 3 MP
PP
0 sg
3372 3374 mt 3656 3056 L
3656 3056 mt 3438 3074 L
c27
-218 -46 284 -213 3353 2489 3 MP
PP
0 sg
3353 2489 mt 3637 2276 L
3637 2276 mt 3419 2230 L
c26
284 -213 -218 -40 3571 2529 3 MP
PP
0 sg
3571 2529 mt 3353 2489 L
3353 2489 mt 3637 2276 L
c25
-218 -64 284 -171 3333 1682 3 MP
PP
0 sg
3333 1682 mt 3617 1511 L
3617 1511 mt 3399 1447 L
c23
284 -171 -218 -61 3551 1743 3 MP
PP
0 sg
3551 1743 mt 3333 1682 L
3333 1682 mt 3617 1511 L
/c32 { 0.187500 1.000000 0.812500 sr} bdef
c32
-218 -40 285 -234 3286 2763 3 MP
PP
0 sg
3286 2763 mt 3571 2529 L
3571 2529 mt 3353 2489 L
c29
285 -234 -218 -30 3504 2793 3 MP
PP
0 sg
3504 2793 mt 3286 2763 L
3286 2763 mt 3571 2529 L
/c33 { 0.625000 1.000000 0.375000 sr} bdef
c33
-218 -61 284 -182 3267 1925 3 MP
PP
0 sg
3267 1925 mt 3551 1743 L
3551 1743 mt 3333 1682 L
c25
284 -182 -218 -57 3485 1982 3 MP
PP
0 sg
3485 1982 mt 3267 1925 L
3267 1925 mt 3551 1743 L
/c34 { 0.000000 0.937500 1.000000 sr} bdef
c34
-218 -30 284 -265 3220 3058 3 MP
PP
0 sg
3220 3058 mt 3504 2793 L
3504 2793 mt 3286 2763 L
c30
284 -265 -218 -16 3438 3074 3 MP
PP
0 sg
3438 3074 mt 3220 3058 L
3220 3058 mt 3504 2793 L
c26
284 -194 -218 -54 3419 2230 3 MP
PP
0 sg
3419 2230 mt 3201 2176 L
3201 2176 mt 3485 1982 L
/c35 { 0.500000 1.000000 0.500000 sr} bdef
c35
-218 -57 284 -194 3201 2176 3 MP
PP
0 sg
3201 2176 mt 3485 1982 L
3485 1982 mt 3267 1925 L
/c36 { 0.000000 0.625000 1.000000 sr} bdef
c36
-218 -16 284 -311 3154 3385 3 MP
PP
0 sg
3154 3385 mt 3438 3074 L
3438 3074 mt 3220 3058 L
c31
284 -311 -218 11 3372 3374 3 MP
PP
0 sg
3372 3374 mt 3154 3385 L
3154 3385 mt 3438 3074 L
c27
285 -210 -219 -49 3353 2489 3 MP
PP
0 sg
3353 2489 mt 3134 2440 L
3134 2440 mt 3419 2230 L
/c37 { 0.312500 1.000000 0.687500 sr} bdef
c37
-218 -54 285 -210 3134 2440 3 MP
PP
0 sg
3134 2440 mt 3419 2230 L
3419 2230 mt 3201 2176 L
c25
284 -170 -218 -65 3333 1682 3 MP
PP
0 sg
3333 1682 mt 3115 1617 L
3115 1617 mt 3399 1447 L
/c38 { 0.000000 0.187500 1.000000 sr} bdef
c38
-218 11 284 -394 3088 3768 3 MP
PP
0 sg
3088 3768 mt 3372 3374 L
3372 3374 mt 3154 3385 L
/c39 { 0.062500 1.000000 0.937500 sr} bdef
c39
-219 -49 285 -230 3068 2719 3 MP
PP
0 sg
3068 2719 mt 3353 2489 L
3353 2489 mt 3134 2440 L
c32
285 -230 -218 -44 3286 2763 3 MP
PP
0 sg
3286 2763 mt 3068 2719 L
3068 2719 mt 3353 2489 L
c33
284 -180 -218 -63 3267 1925 3 MP
PP
0 sg
3267 1925 mt 3049 1862 L
3049 1862 mt 3333 1682 L
c26
-218 -65 284 -180 3049 1862 3 MP
PP
0 sg
3049 1862 mt 3333 1682 L
3333 1682 mt 3115 1617 L
c34
284 -258 -218 -37 3220 3058 3 MP
PP
0 sg
3220 3058 mt 3002 3021 L
3002 3021 mt 3286 2763 L
/c40 { 0.000000 0.812500 1.000000 sr} bdef
c40
-218 -44 284 -258 3002 3021 3 MP
PP
0 sg
3002 3021 mt 3286 2763 L
3286 2763 mt 3068 2719 L
c29
-218 -63 284 -191 2983 2116 3 MP
PP
0 sg
2983 2116 mt 3267 1925 L
3267 1925 mt 3049 1862 L
c35
284 -191 -218 -60 3201 2176 3 MP
PP
0 sg
3201 2176 mt 2983 2116 L
2983 2116 mt 3267 1925 L
c36
284 -300 -218 -27 3154 3385 3 MP
PP
0 sg
3154 3385 mt 2936 3358 L
2936 3358 mt 3220 3058 L
/c41 { 0.000000 0.437500 1.000000 sr} bdef
c41
-218 -37 284 -300 2936 3358 3 MP
PP
0 sg
2936 3358 mt 3220 3058 L
3220 3058 mt 3002 3021 L
c32
-218 -60 285 -207 2916 2383 3 MP
PP
0 sg
2916 2383 mt 3201 2176 L
3201 2176 mt 2983 2116 L
c37
285 -207 -218 -57 3134 2440 3 MP
PP
0 sg
3134 2440 mt 2916 2383 L
2916 2383 mt 3201 2176 L
c38
284 -373 -218 -10 3088 3768 3 MP
PP
0 sg
3088 3768 mt 2870 3758 L
2870 3758 mt 3154 3385 L
/c42 { 0.000000 0.000000 1.000000 sr} bdef
c42
-218 -27 284 -373 2870 3758 3 MP
PP
0 sg
2870 3758 mt 3154 3385 L
3154 3385 mt 2936 3358 L
c34
-218 -57 284 -226 2850 2666 3 MP
PP
0 sg
2850 2666 mt 3134 2440 L
3134 2440 mt 2916 2383 L
c39
284 -226 -218 -53 3068 2719 3 MP
PP
0 sg
3068 2719 mt 2850 2666 L
2850 2666 mt 3134 2440 L
c26
284 -178 -218 -67 3049 1862 3 MP
PP
0 sg
3049 1862 mt 2831 1795 L
2831 1795 mt 3115 1617 L
/c43 { 0.000000 0.687500 1.000000 sr} bdef
c43
-218 -53 284 -252 2784 2971 3 MP
PP
0 sg
2784 2971 mt 3068 2719 L
3068 2719 mt 2850 2666 L
c40
284 -252 -218 -50 3002 3021 3 MP
PP
0 sg
3002 3021 mt 2784 2971 L
2784 2971 mt 3068 2719 L
c29
285 -189 -219 -65 2983 2116 3 MP
PP
0 sg
2983 2116 mt 2764 2051 L
2764 2051 mt 3049 1862 L
c37
-218 -67 285 -189 2764 2051 3 MP
PP
0 sg
2764 2051 mt 3049 1862 L
3049 1862 mt 2831 1795 L
c41
284 -290 -218 -47 2936 3358 3 MP
PP
0 sg
2936 3358 mt 2718 3311 L
2718 3311 mt 3002 3021 L
/c44 { 0.000000 0.312500 1.000000 sr} bdef
c44
-218 -50 284 -290 2718 3311 3 MP
PP
0 sg
2718 3311 mt 3002 3021 L
3002 3021 mt 2784 2971 L
c32
285 -204 -218 -63 2916 2383 3 MP
PP
0 sg
2916 2383 mt 2698 2320 L
2698 2320 mt 2983 2116 L
c30
-219 -65 285 -204 2698 2320 3 MP
PP
0 sg
2698 2320 mt 2983 2116 L
2983 2116 mt 2764 2051 L
c42
284 -352 -218 -48 2870 3758 3 MP
PP
0 sg
2870 3758 mt 2652 3710 L
2652 3710 mt 2936 3358 L
/c45 { 0.000000 0.000000 0.875000 sr} bdef
c45
-218 -47 284 -352 2652 3710 3 MP
PP
0 sg
2652 3710 mt 2936 3358 L
2936 3358 mt 2718 3311 L
c31
-218 -63 284 -221 2632 2604 3 MP
PP
0 sg
2632 2604 mt 2916 2383 L
2916 2383 mt 2698 2320 L
c34
284 -221 -218 -62 2850 2666 3 MP
PP
0 sg
2850 2666 mt 2632 2604 L
2632 2604 mt 2916 2383 L
/c46 { 0.000000 0.562500 1.000000 sr} bdef
c46
-218 -62 284 -245 2566 2911 3 MP
PP
0 sg
2566 2911 mt 2850 2666 L
2850 2666 mt 2632 2604 L
c43
284 -245 -218 -60 2784 2971 3 MP
PP
0 sg
2784 2971 mt 2566 2911 L
2566 2911 mt 2850 2666 L
c37
285 -188 -218 -68 2764 2051 3 MP
PP
0 sg
2764 2051 mt 2546 1983 L
2546 1983 mt 2831 1795 L
/c47 { 0.000000 0.250000 1.000000 sr} bdef
c47
-218 -60 284 -280 2500 3251 3 MP
PP
0 sg
2500 3251 mt 2784 2971 L
2784 2971 mt 2566 2911 L
c44
284 -280 -218 -60 2718 3311 3 MP
PP
0 sg
2718 3311 mt 2500 3251 L
2500 3251 mt 2784 2971 L
c30
284 -201 -218 -68 2698 2320 3 MP
PP
0 sg
2698 2320 mt 2480 2252 L
2480 2252 mt 2764 2051 L
/c48 { 0.000000 1.000000 1.000000 sr} bdef
c48
-218 -68 284 -201 2480 2252 3 MP
PP
0 sg
2480 2252 mt 2764 2051 L
2764 2051 mt 2546 1983 L
c45
284 -333 -218 -66 2652 3710 3 MP
PP
0 sg
2652 3710 mt 2434 3644 L
2434 3644 mt 2718 3311 L
/c49 { 0.000000 0.000000 0.750000 sr} bdef
c49
-218 -60 284 -333 2434 3644 3 MP
PP
0 sg
2434 3644 mt 2718 3311 L
2718 3311 mt 2500 3251 L
c31
284 -218 -218 -66 2632 2604 3 MP
PP
0 sg
2632 2604 mt 2414 2538 L
2414 2538 mt 2698 2320 L
c40
-218 -68 284 -218 2414 2538 3 MP
PP
0 sg
2414 2538 mt 2698 2320 L
2698 2320 mt 2480 2252 L
c46
284 -241 -218 -66 2566 2911 3 MP
PP
0 sg
2566 2911 mt 2348 2845 L
2348 2845 mt 2632 2604 L
/c50 { 0.000000 0.500000 1.000000 sr} bdef
c50
-218 -66 284 -241 2348 2845 3 MP
PP
0 sg
2348 2845 mt 2632 2604 L
2632 2604 mt 2414 2538 L
c47
284 -272 -218 -68 2500 3251 3 MP
PP
0 sg
2500 3251 mt 2282 3183 L
2282 3183 mt 2566 2911 L
c38
-218 -66 284 -272 2282 3183 3 MP
PP
0 sg
2282 3183 mt 2566 2911 L
2566 2911 mt 2348 2845 L
c48
284 -198 -218 -71 2480 2252 3 MP
PP
0 sg
2480 2252 mt 2262 2181 L
2262 2181 mt 2546 1983 L
c49
284 -318 -218 -75 2434 3644 3 MP
PP
0 sg
2434 3644 mt 2216 3569 L
2216 3569 mt 2500 3251 L
/c51 { 0.000000 0.000000 0.687500 sr} bdef
c51
-218 -68 284 -318 2216 3569 3 MP
PP
0 sg
2216 3569 mt 2500 3251 L
2500 3251 mt 2282 3183 L
c43
-218 -71 284 -214 2196 2466 3 MP
PP
0 sg
2196 2466 mt 2480 2252 L
2480 2252 mt 2262 2181 L
c40
284 -214 -218 -72 2414 2538 3 MP
PP
0 sg
2414 2538 mt 2196 2466 L
2196 2466 mt 2480 2252 L
c50
284 -235 -218 -72 2348 2845 3 MP
PP
0 sg
2348 2845 mt 2130 2773 L
2130 2773 mt 2414 2538 L
c41
-218 -72 284 -235 2130 2773 3 MP
PP
0 sg
2130 2773 mt 2414 2538 L
2414 2538 mt 2196 2466 L
c38
284 -263 -218 -75 2282 3183 3 MP
PP
0 sg
2282 3183 mt 2064 3108 L
2064 3108 mt 2348 2845 L
/c52 { 0.000000 0.125000 1.000000 sr} bdef
c52
-218 -72 284 -263 2064 3108 3 MP
PP
0 sg
2064 3108 mt 2348 2845 L
2348 2845 mt 2130 2773 L
/c53 { 0.000000 0.000000 0.625000 sr} bdef
c53
-218 -75 284 -304 1998 3487 3 MP
PP
0 sg
1998 3487 mt 2282 3183 L
2282 3183 mt 2064 3108 L
c51
284 -304 -218 -82 2216 3569 3 MP
PP
0 sg
2216 3569 mt 1998 3487 L
1998 3487 mt 2282 3183 L
c43
284 -210 -218 -75 2196 2466 3 MP
PP
0 sg
2196 2466 mt 1978 2391 L
1978 2391 mt 2262 2181 L
/c54 { 0.000000 0.375000 1.000000 sr} bdef
c54
-218 -75 284 -230 1912 2696 3 MP
PP
0 sg
1912 2696 mt 2196 2466 L
2196 2466 mt 1978 2391 L
c41
284 -230 -218 -77 2130 2773 3 MP
PP
0 sg
2130 2773 mt 1912 2696 L
1912 2696 mt 2196 2466 L
/c55 { 0.000000 0.062500 1.000000 sr} bdef
c55
-218 -77 284 -256 1846 3029 3 MP
PP
0 sg
1846 3029 mt 2130 2773 L
2130 2773 mt 1912 2696 L
c52
284 -256 -218 -79 2064 3108 3 MP
PP
0 sg
2064 3108 mt 1846 3029 L
1846 3029 mt 2130 2773 L
c53
284 -293 -218 -86 1998 3487 3 MP
PP
0 sg
1998 3487 mt 1780 3401 L
1780 3401 mt 2064 3108 L
c53
-218 -79 284 -293 1780 3401 3 MP
PP
0 sg
1780 3401 mt 2064 3108 L
2064 3108 mt 1846 3029 L
c54
284 -226 -218 -79 1912 2696 3 MP
PP
0 sg
1912 2696 mt 1694 2617 L
1694 2617 mt 1978 2391 L
c42
-218 -79 284 -250 1628 2946 3 MP
PP
0 sg
1628 2946 mt 1912 2696 L
1912 2696 mt 1694 2617 L
c55
284 -250 -218 -83 1846 3029 3 MP
PP
0 sg
1846 3029 mt 1628 2946 L
1628 2946 mt 1912 2696 L
gr

1495 4719 mt 
(beta) s
gs 842 374 5023 4080 rc
c53
284 -283 -218 -89 1780 3401 3 MP
PP
0 sg
1780 3401 mt 1562 3312 L
1562 3312 mt 1846 3029 L
/c56 { 0.000000 0.000000 0.562500 sr} bdef
c56
-218 -83 284 -283 1562 3312 3 MP
PP
0 sg
1562 3312 mt 1846 3029 L
1846 3029 mt 1628 2946 L
c42
284 -244 -218 -85 1628 2946 3 MP
PP
0 sg
1628 2946 mt 1410 2861 L
1410 2861 mt 1694 2617 L
c56
-218 -85 284 -275 1344 3221 3 MP
PP
0 sg
1344 3221 mt 1628 2946 L
1628 2946 mt 1410 2861 L
c56
284 -275 -218 -91 1562 3312 3 MP
PP
0 sg
1562 3312 mt 1344 3221 L
1344 3221 mt 1628 2946 L
c56
284 -267 -218 -93 1344 3221 3 MP
PP
0 sg
1344 3221 mt 1126 3128 L
1126 3128 mt 1410 2861 L
gr

 380 2907 mt  -90 rotate
(Lower Bound) s
90 rotate

end %%Color Dict

eplot
%%EndObject

epage
end

showpage

%%Trailer
%%EOF
