% This file was created by matlab2tikz v0.4.2.
% Copyright (c) 2008--2013, Nico Schlömer <nico.schloemer@gmail.com>
% All rights reserved.
% 
% The latest updates can be retrieved from
%   http://www.mathworks.com/matlabcentral/fileexchange/22022-matlab2tikz
% where you can also make suggestions and rate matlab2tikz.
% 
% 
% 
\begin{tikzpicture}

\begin{axis}[%
width=1.4in,
height=\figureheight,
scale only axis,
xmin=0,
xmax=100,
xlabel={\scriptsize time},
ymin=0,
ymax=30,
name=plot1,
title={\scriptsize CLSET-KF},
legend style={draw=black,fill=white,legend cell align=left}
]
\addplot [
color=blue,
dash pattern=on 1pt off 3pt on 3pt off 3pt,
line width=1pt,
]
table[row sep=crcr]{
1 0.0133479189406177\\
2 0.0797613423236324\\
3 0.481349396067478\\
4 1.85569600008857\\
5 3.94596590553639\\
6 4.82157658632439\\
7 4.84247537447161\\
8 4.67244276031972\\
9 4.55362492862641\\
10 4.67391483586888\\
11 4.64342121344828\\
12 4.83062460740527\\
13 4.8090214755073\\
14 4.78359395096118\\
15 4.68405613203108\\
16 4.65945886394777\\
17 4.53501838618304\\
18 4.49078573164015\\
19 4.43252271688341\\
20 4.57469954243919\\
21 4.63577779300903\\
22 4.55960037361181\\
23 4.71646432937204\\
24 4.60625627800726\\
25 4.562277025512\\
26 4.56437981427437\\
27 4.72424420049667\\
28 4.64722178838186\\
29 4.69361699159414\\
30 4.67583316754948\\
31 4.77584322305639\\
32 4.56720586552311\\
33 4.5993785442751\\
34 4.75465803393088\\
35 4.67841260837555\\
36 4.46126760574907\\
37 4.60736438017194\\
38 4.59957542972859\\
39 4.58336010024831\\
40 4.61922450587307\\
41 4.50390806888317\\
42 4.5346173432714\\
43 4.41025975517829\\
44 4.57348472266205\\
45 4.58845151687726\\
46 4.60404296131704\\
47 4.74196084473618\\
48 4.71880494114941\\
49 4.67755999923848\\
50 4.69783171181987\\
51 4.71099064298678\\
52 4.81532544241062\\
53 4.64263012278963\\
54 4.51433817831401\\
55 4.72016486226366\\
56 4.61605169958397\\
57 4.63867301977024\\
58 4.59177270365687\\
59 4.61512249309682\\
60 4.6089580448972\\
61 4.64833490381277\\
62 4.6184873228685\\
63 4.47009499217027\\
64 4.65826832764821\\
65 4.61790271030153\\
66 4.63854384825892\\
67 4.71843651446988\\
68 4.52324923377388\\
69 4.54123473377449\\
70 4.7141081481367\\
71 4.78705289999818\\
72 4.59122137849091\\
73 4.69276956889999\\
74 4.5089178873416\\
75 4.64302727679276\\
76 4.66601366266117\\
77 4.65852434711783\\
78 4.47487075978846\\
79 4.70152122800941\\
80 4.65427117500137\\
81 4.70718019972641\\
82 4.80852552198817\\
83 4.70062863839693\\
84 4.63467111212516\\
85 4.53939880778617\\
86 4.59536001461689\\
87 4.61736766011703\\
88 4.72549048015427\\
89 4.63414026736956\\
90 4.62709398694121\\
91 4.66930429362286\\
92 4.84053347402853\\
93 4.6685706790655\\
94 4.60360440075536\\
95 4.43093012576923\\
96 4.64940887065254\\
97 4.76632243647791\\
98 4.69149185015342\\
99 4.68528761721005\\
100 4.65650942342753\\
};
\addlegendentry{\scriptsize Empirical $P_{11}$};

\addplot [
color=black,
solid,
line width=1pt,
]
table[row sep=crcr]{
1 0.476199994974552\\
2 1.3321328461168\\
3 2.96995319454861\\
4 4.94434185166122\\
5 5.92434389361709\\
6 5.55599929181617\\
7 4.94379500750126\\
8 4.68528444826281\\
9 4.65008935712568\\
10 4.65198816529479\\
11 4.58561381072122\\
12 4.60881601919809\\
13 4.61441926632762\\
14 4.59636696080738\\
15 4.55981863336235\\
16 4.56665741169736\\
17 4.60473759592185\\
18 4.6033253777982\\
19 4.62399560530896\\
20 4.65636449311476\\
21 4.67548486984619\\
22 4.67935315784351\\
23 4.64193952307689\\
24 4.57263189772679\\
25 4.5620995621398\\
26 4.63470419253287\\
27 4.62460243533668\\
28 4.59824284705059\\
29 4.60497933686045\\
30 4.61635898666626\\
31 4.65734670322846\\
32 4.61471306150953\\
33 4.61520662750778\\
34 4.59412539502722\\
35 4.57666937522074\\
36 4.58436700225431\\
37 4.65009684265305\\
38 4.67114684118895\\
39 4.66113083000038\\
40 4.60422029519475\\
41 4.56608857491567\\
42 4.57005525152313\\
43 4.59124319670344\\
44 4.69028803836929\\
45 4.65635865698661\\
46 4.6348798284152\\
47 4.68498614389146\\
48 4.67442762372643\\
49 4.63448157442332\\
50 4.58649243193284\\
51 4.58716737195745\\
52 4.60689406874567\\
53 4.58587978313063\\
54 4.6289324310081\\
55 4.66941358652222\\
56 4.6202729603683\\
57 4.61922195762163\\
58 4.6158028325814\\
59 4.65354344448868\\
60 4.65340262422473\\
61 4.64935091899275\\
62 4.67840233325912\\
63 4.65286481202494\\
64 4.70462684891046\\
65 4.67404051732237\\
66 4.67439155731927\\
67 4.62957277666562\\
68 4.5752099340351\\
69 4.59293906033423\\
70 4.62350620794638\\
71 4.60656038731122\\
72 4.58193443525365\\
73 4.57764492078097\\
74 4.59715567089521\\
75 4.64627844545023\\
76 4.66662863959563\\
77 4.6439056184351\\
78 4.61306066697872\\
79 4.67081206513839\\
80 4.64694804316994\\
81 4.69688979973418\\
82 4.66761400500108\\
83 4.61887996673699\\
84 4.61201757175568\\
85 4.58272882388377\\
86 4.61020283172647\\
87 4.62644789074877\\
88 4.63743158289353\\
89 4.63393127538542\\
90 4.61811418696094\\
91 4.5929314093151\\
92 4.6265604117149\\
93 4.62050435637575\\
94 4.6255118107259\\
95 4.64918566195577\\
96 4.67747005203308\\
97 4.69816223684524\\
98 4.67956996373722\\
99 4.68504652915295\\
100 4.61892653849062\\
};
\addlegendentry{\scriptsize Theoretical $P_{11}$};

\end{axis}

\begin{axis}[%
width=1.4in,
height=\figureheight,
scale only axis,
xmin=0,
xmax=100,
xlabel={\scriptsize time},
ymin=0,
ymax=30,
at=(plot1.right of south east),
anchor=left of south west,
title={\scriptsize DET-KF},
legend style={draw=black,fill=white,legend cell align=left}
]
\addplot [
color=blue,
dash pattern=on 1pt off 3pt on 3pt off 3pt,
line width=1pt,
]
table[row sep=crcr]{
1 0.000280764566485344\\
2 0.00958430479789418\\
3 0.330074885196316\\
4 1.95879139040536\\
5 5.71419130431959\\
6 9.30272033810781\\
7 8.90017535455133\\
8 8.00968275034741\\
9 7.64558359451232\\
10 7.48254934396933\\
11 7.25130301074357\\
12 7.23161086026668\\
13 7.56184985126251\\
14 7.44365980070675\\
15 7.15212148976322\\
16 7.3111925246712\\
17 7.47269878328517\\
18 7.14065984624038\\
19 7.34292111290266\\
20 7.67126944125487\\
21 7.43330518749491\\
22 7.62394631067024\\
23 7.32404017253305\\
24 7.25337197371056\\
25 7.26191154555712\\
26 7.47926772044766\\
27 7.45765766378238\\
28 7.59421983576123\\
29 7.56681822485771\\
30 7.48847528634812\\
31 7.26718915531222\\
32 7.67674155658511\\
33 7.30056880345211\\
34 7.30288795730192\\
35 7.10699097900869\\
36 7.55428549369568\\
37 7.60152520628677\\
38 7.59721660152875\\
39 7.43893409320244\\
40 7.36785983719094\\
41 7.09753184207062\\
42 7.0456005401803\\
43 7.32191960083943\\
44 7.15671243081952\\
45 7.26807595661754\\
46 7.43234226241379\\
47 7.13875221159796\\
48 7.33432266599598\\
49 7.2494164647771\\
50 7.20441067397427\\
51 7.41075404357228\\
52 7.15002085308971\\
53 7.51277185360024\\
54 7.21752936600597\\
55 7.28340507837284\\
56 7.4249713181669\\
57 7.41349786980321\\
58 7.23028463700329\\
59 7.1685025958404\\
60 7.25477244228234\\
61 7.1764836660771\\
62 7.30922725831091\\
63 7.64495833093634\\
64 7.5444982765184\\
65 7.27885576170266\\
66 7.34645435562321\\
67 7.33646731331353\\
68 7.15247835535927\\
69 7.50576822029284\\
70 7.29559335837427\\
71 7.31430868656874\\
72 7.50959790511437\\
73 7.61799841810397\\
74 7.61277584705663\\
75 7.13586414116326\\
76 7.09591211457068\\
77 7.29057903806874\\
78 7.5671310849006\\
79 7.37061643068941\\
80 7.3505661978606\\
81 7.36427803607565\\
82 7.44759392419082\\
83 7.42306593126963\\
84 7.25792203625843\\
85 7.06015085183863\\
86 7.04075033960601\\
87 6.93169256410772\\
88 7.0136106845784\\
89 7.33883966408237\\
90 7.49633683530583\\
91 7.26536366536739\\
92 7.450148316094\\
93 7.38521712892385\\
94 7.40752694819474\\
95 7.33205878203646\\
96 7.48225575996571\\
97 7.30841589353716\\
98 7.35983079548481\\
99 7.20076961685917\\
100 7.59923191256186\\
};
\addlegendentry{\scriptsize Empirical $P_{11}$};

\addplot [
color=black,
solid,
line width=1pt,
]
table[row sep=crcr]{
1 0.504685062085693\\
2 1.5895599990644\\
3 4.39897557789842\\
4 10.3004791999201\\
5 19.4812439294864\\
6 27.4978172967932\\
7 29.5301964940721\\
8 27.1739413642402\\
9 23.7278679773706\\
10 21.6984065398269\\
11 19.582318685987\\
12 18.4534444344705\\
13 17.9809895130036\\
14 17.933433581503\\
15 17.2125963677964\\
16 17.5169111755158\\
17 17.6539939046952\\
18 17.2137155231775\\
19 17.9233973560041\\
20 18.3344326453125\\
21 18.5942696350141\\
22 18.3677648596582\\
23 17.7150110984161\\
24 17.887878289359\\
25 17.9881825957771\\
26 18.7245898801406\\
27 17.6494794420274\\
28 18.2943612054232\\
29 18.1824517706306\\
30 18.674680347831\\
31 18.5426632474497\\
32 18.8543060094299\\
33 18.8237193253566\\
34 18.7810461554805\\
35 19.1009987280737\\
36 19.9446492432384\\
37 19.7207235515265\\
38 19.4310252481282\\
39 19.1044622756549\\
40 19.6406784565983\\
41 18.2163086641585\\
42 18.0355694765468\\
43 17.722643919654\\
44 18.573253563325\\
45 19.186142683745\\
46 18.1233232027567\\
47 17.4968174271412\\
48 18.6027719358598\\
49 17.8218479469428\\
50 17.4470845343641\\
51 18.3256675529841\\
52 18.1504420145186\\
53 19.3379193873133\\
54 18.6038914040352\\
55 18.2007338679625\\
56 18.5629403976203\\
57 18.2359372036131\\
58 18.194401818824\\
59 17.4533020290171\\
60 18.848028164568\\
61 18.9741976499227\\
62 18.5577484628878\\
63 19.6787844034834\\
64 20.541558874466\\
65 18.3767578352864\\
66 17.7905369586092\\
67 17.4169251172278\\
68 16.1654942800414\\
69 17.7853240141886\\
70 17.6357224500053\\
71 17.6103660926531\\
72 17.9887616412454\\
73 18.4789937136052\\
74 18.6063774540441\\
75 18.3184180101162\\
76 18.3743110662784\\
77 18.7450038969724\\
78 19.0262529070368\\
79 18.764804789417\\
80 18.8651763389677\\
81 17.288824115416\\
82 17.3065953516936\\
83 17.7082886030571\\
84 18.4983529289514\\
85 18.5639762391823\\
86 18.6990608886614\\
87 18.4079375771378\\
88 18.2993956947458\\
89 19.2678742777738\\
90 19.7776109195065\\
91 19.2946682409942\\
92 19.3531086917377\\
93 19.8174544641847\\
94 19.8515312553029\\
95 20.4929730972094\\
96 20.2450420910459\\
97 19.9203687803035\\
98 18.6322768695675\\
99 18.5007476437516\\
100 19.0206026715159\\
};
\addlegendentry{\scriptsize Theoretical $P_{11}$};

\end{axis}
\end{tikzpicture}%
