% This file was created by matlab2tikz v0.3.0.
% Copyright (c) 2008--2012, Nico Schlömer <nico.schloemer@gmail.com>
% All rights reserved.
% 
% The latest updates can be retrieved from
%   http://www.mathworks.com/matlabcentral/fileexchange/22022-matlab2tikz
% where you can also make suggestions and rate matlab2tikz.
% 
% 
% 
\begin{tikzpicture}

\begin{axis}[%
width=\figurewidth,
height=\figureheight,
xlabel={$e^c_1$},
ylabel={$e^c_2$},
scale only axis,
xmin=-0.2, xmax=0.2,
ymin=-4, ymax=4]
\addplot [
color=blue,
solid,
forget plot
]
coordinates{
 (0.142828399678242,1.25036179223144)(0.142857517504846,1.24972714050596)(0.142744231851186,1.2478467335882)(0.142488655642865,1.24472244590867)(0.142091043643805,1.24035739182526)(0.141551792202295,1.23475592251881)(0.140871438855898,1.22792362165576)(0.140050661795626,1.21986729982218)(0.139090279189903,1.2105949877349)(0.137991248368997,1.20011592823623)(0.136754664870731,1.1884405670806)(0.135381761348428,1.17558054252191)(0.133873906342179,1.16154867371232)(0.132232602914644,1.14635894792381)(0.130459487152775,1.1300265066054)(0.128556326536924,1.11256763028978)(0.126525018178984,1.09399972236455)(0.1243675869313,1.07434129172415)(0.12208618336826,1.05361193431975)(0.119683081642551,1.03183231362563)(0.117160677218234,1.00902414004137)(0.114521484482897,0.9852101492504)(0.111768134241254,0.960414079556653)(0.108903371092704,0.934660648221652)(0.105930050695456,0.907975526825829)(0.102851136919946,0.880385315678529)(0.0996696988943826,0.851917517302248)(0.0963889079453795,0.822600509017513)(0.0930120344367039,0.79246351465576)(0.0895424445093085,0.761536575428377)(0.0859835967258882,0.729850519980974)(0.0823390386233101,0.697436933662718)(0.0786124031763516,0.664328127041372)(0.0748074051762716,0.630557103695413)(0.0709278375278265,0.596157527315354)(0.0669775674684197,0.561163688147041)(0.0629605327131555,0.525610468810389)(0.058880737529639,0.489533309527634)(0.0547422487464352,0.452968172795741)(0.0505491916991655,0.415951507538211)(0.0463057461182838,0.378520212771998)(0.0420161419626302,0.340711600825768)(0.0376846552029158,0.302563360146157)(0.0333156035593423,0.26411351772911)(0.0289133421976047,0.225400401213741)(0.0244822593875672,0.186462600676513)(0.0200267721289405,0.147338930163807)(0.0155513217483204,0.108068389001238)(0.0110603694719768,0.068690122918278)(0.00655839197880655,0.0292433850269447)(0.00204987693788212,-0.0102325033065587)(-0.00246068146495396,-0.049698191658233)(-0.00696878700699177,-0.0891143397716436)(-0.0114699459105862,-0.128441656773142)(-0.0159596713226526,-0.167640940337864)(-0.0204334877872592,-0.206673115767461)(-0.0248869357068591,-0.245499274940606)(-0.0293155757877139,-0.284080715097456)(-0.0337149934650786,-0.32237897741941)(-0.0380808033037353,-0.360355885365685)(-0.0424086533694908,-0.397973582728533)(-0.0466942295672789,-0.435194571369127)(-0.0509332599415445,-0.471981748596519)(-0.0551215189346215,-0.508298444152415)(-0.0592548315988609,-0.544108456764883)(-0.063329077758309,-0.579376090234565)(-0.0673401961157888,-0.614066189017432)(-0.0712841883012893,-0.648144173268588)(-0.0751571228576273,-0.681576073312216)(-0.0789551391594098,-0.714328563503286)(-0.0826744512613893,-0.746368995447287)(-0.0863113516723762,-0.777665430544853)(-0.0898622150509468,-0.808186671828854)(-0.0933235018192624,-0.837902295062213)(-0.0966917616913975,-0.866782679065447)(-0.0999636371126597,-0.894799035243699)(-0.103135866606474,-0.921923436283842)(-0.106205288025491,-0.948128843993027)(-0.109168841703689,-0.973389136250943)(-0.112023573506311,-0.997679133048916)(-0.114766637774612,-1.02097462158989)(-0.117395300162474,-1.04325238042425)(-0.119906940362063,-1.06449020259752)(-0.122299054715803,-1.08466691778668)(-0.124569258712086,-1.10376241340323)(-0.126715289362196,-1.12175765464186)(-0.128735007456109,-1.13863470345475)(-0.130626399694906,-1.1543767364326)(-0.132387580697669,-1.16896806157459)(-0.134016794880874,-1.18239413393049)(-0.135512418208391,-1.19464157009939)(-0.136872959810361,-1.20569816157057)(-0.138097063469326,-1.21555288689319)(-0.139183508972138,-1.22419592266273)(-0.140131213326292,-1.23161865331318)(-0.140939231839478,-1.23781367970519)(-0.141606759061268,-1.24277482650172)(-0.142133129586012,-1.24649714832377)(-0.142517818716122,-1.24897693467997)(-0.142760442985109,-1.25021171366538)(-0.142860760539823,-1.25020025442543)(-0.142818671381545,-1.24894256838295)(-0.142634217465663,-1.24643990922674)(-0.142307582659851,-1.24269477166186)(-0.141839092560789,-1.2377108889229)(-0.141229214169595,-1.23149322905256)(-0.140478555426312,-1.22404798994941)(-0.139587864603902,-1.21538259318971)(-0.138558029562346,-1.2055056766294)(-0.137390076863611,-1.1944270857937)(-0.136085170748346,-1.1821578640629)(-0.134644611975347,-1.16871024166405)(-0.133069836524926,-1.1540976234796)(-0.1313624141675,-1.13833457568515)(-0.129524046898809,-1.12143681122955)(-0.127556567243324,-1.10342117417191)(-0.125461936427556,-1.08430562289102)(-0.123242242425054,-1.06410921218414)(-0.120899697875073,-1.04285207427268)(-0.118436637876966,-1.02055539873399)(-0.115855517662504,-0.997241411379167)(-0.11315891014845,-0.972933352097818)(-0.11034950337182,-0.947655451692082)(-0.107430097810387,-0.921432907722818)(-0.104403603591103,-0.894291859392133)(-0.101273037589227,-0.866259361487257)(-0.0980415204210303,-0.837363357411743)(-0.0947122733331056,-0.807632651330875)(-0.0912886149913527,-0.777096879459045)(-0.0877739581728634,-0.745786480517738)(-0.0841718063639899,-0.713732665393545)(-0.0804857502679934,-0.680967386026477)(-0.0767194642257539,-0.647523303559578)(-0.0728767025531057,-0.613433755781577)(-0.0689612957984556,-0.57873272389507)(-0.0649771469244071,-0.543454798643306)(-0.0609282274172039,-0.507635145829387)(-0.0568185733278655,-0.471309471262235)(-0.0526522812489632,-0.434513985164252)(-0.0484335042310485,-0.3972853660762)(-0.0441664476428012,-0.359660724295217)(-0.0398553649790271,-0.321677564882482)(-0.0355045536206811,-0.283373750277339)(-0.0311183505511454,-0.244787462555206)(-0.0267011280330293,-0.205957165366846)(-0.0222572892498029,-0.166921565596963)(-0.0177912639166087,-0.127719574780341)(-0.013307503864624,-0.0883902703139764)(-0.00881047860338012,-0.0489728565038819)(-0.00430467086545727,-0.00950662548538073)(0.000205427862000874,0.0299690819441522)(0.00471532181449848,0.0694149155410448)(0.00922051543166434,0.108791554840516)(0.0137165178385234,0.148059748352161)(0.0181988473220987,0.187180352686695)(0.0226630357988814,0.22611437157494)(0.0271046332687117,0.26482299474014)(0.0315192122506378,0.303267636584906)(0.0359023721963236,0.341409974654166)(0.0402497438766116,0.379211987835823)(0.0445569937368661,0.416635994261036)(0.0488198282167536,0.453644688866314)(0.0530339980301581,0.490201180580024)(0.057195302400961,0.526269029096206)(0.0612995932504672,0.56181228119907)(0.065342779332299,0.596795506601935)(0.0693208303106405,0.63118383326492)(0.0732297807777628,0.664942982156139)(0.0770657342068302,0.698039301421795)(0.0808248668360413,0.730439799931078)(0.0845034314802391,0.76211218016244)(0.0880977612661862,0.793024870398463)(0.0916042732877836,0.823147056197245)(0.0950194721775899,0.852448711108893)(0.0983399535910791,0.88090062660655)(0.101562407600166,0.908474441202084)(0.104683621992612,0.935142668717442)(0.107700485474034,0.960878725683465)(0.110609990769302,0.98565695783887)(0.113409237620264,1.00945266570298)(0.116095435676781,1.03224212919668)(0.118665907278212,1.05400263128716)(0.121118090122564,1.0747124806327)(0.123449539820647,1.09435103320506)(0.125657932332699,1.11289871286796)(0.127741066285037,1.13033703089093)(0.129696865164434,1.14664860437934)(0.131523379388032,1.16181717360199)(0.133218788246732,1.17582761819919)(0.134781401720112,1.18866597225509)(0.136209662161077,1.20031943821914)(0.137502145848561,1.21077639966305)(0.138657564406713,1.22002643286023)(0.139674766089189,1.22806031717642)(0.140552736927228,1.23487004426103)(0.141290601740406,1.24044882602999)(0.141887625009031,1.24479110143231)(0.142343211607324,1.24789254199344)(0.142656907396656,1.24975005612998)(0.142828399678242,1.25036179223144) 
};
\addplot [
color=blue,
solid,
forget plot
]
coordinates{
 (0.13718243449684,1.83672636135014)(0.139238087090914,1.83565227654469)(0.141154944131673,1.83274837362885)(0.142931094854334,1.8280175472762)(0.144564768753228,1.82146451327734)(0.146054337346684,1.81309580383906)(0.147398315800334,1.80291976107295)(0.148595364407228,1.79094652867972)(0.149644289923279,1.77718804183782)(0.150544046756723,1.76165801530615)(0.151293738010381,1.74437192975289)(0.151892616375706,1.72534701632407)(0.15234008487772,1.70460223946712)(0.152635697470088,1.68215827802678)(0.152779159479751,1.65803750463191)(0.152770327900655,1.63226396339399)(0.152609211536313,1.60486334593946)(0.152295970991019,1.57586296579968)(0.151830918509761,1.54529173118427)(0.151214517666967,1.51318011616475)(0.150447382904401,1.47956013029732)(0.149530278918679,1.44446528671506)(0.148464119898998,1.40793056872126)(0.147249968615856,1.36999239491738)(0.145889035361657,1.33068858290013)(0.144382676744264,1.29005831156409)(0.142732394334709,1.24814208204734)(0.140939833170387,1.20498167735905)(0.13900678011525,1.16062012072925)(0.136935162078623,1.11510163272234)(0.134727044094417,1.06847158715708)(0.132384627262661,1.020776465877)(0.129910246555395,0.972063812416247)(0.12730636848912,0.922382184607167)(0.12457558866612,0.871781106176823)(0.121720629187111,0.82031101738065)(0.118744335937791,0.768023224722514)(0.115649675751997,0.714969849811271)(0.112439733454304,0.661203777404821)(0.109117708785004,0.606778602693424)(0.105686913210533,0.551748577874851)(0.102150766622532,0.496168558074617)(0.098512793928822,0.440093946665192)(0.0947766215397016,0.383580640038722)(0.0909459737530614,0.326684971888283)(0.0870246690419228,0.269463657053234)(0.0830166162481009,0.211973734984632)(0.0789258106857864,0.154272512887067)(0.0747563301589292,0.0964175085935905)(0.0705123308963949,0.0384663932306939)(0.0661980434089454,-0.0195230662695293)(0.0618177682721738,-0.0774930647527137)(0.0573758718395971,-0.135385816463661)(0.0528767818901803,-0.193143612648433)(0.0483249832146294,-0.250708879079697)(0.0437250131448553,-0.308024233447965)(0.039081457031062,-0.365032542561527)(0.0343989436709701,-0.421676979298064)(0.0296821406957308,-0.477901079251152)(0.0249357499171291,-0.533648797015216)(0.0201645026407159,-0.588864562052806)(0.0153731549495399,-0.643493334088521)(0.0105664829631802,-0.697480657974347)(0.00574927807680654,-0.750772717971737)(0.000926342185012648,-0.803316391396308)(-0.00389751710481701,-0.85505930157169)(-0.00871749126483475,-0.905949870039732)(-0.0135287756399747,-0.955937367975036)(-0.0183265742373377,-1.00497196675255)(-0.0231061045069409,-1.05300478761782)(-0.0278626021090681,-1.09998795041042)(-0.0325913256634667,-1.14587462129188)(-0.0372875614756592,-1.19061905943077)(-0.0419466282356558,-1.23417666259804)(-0.0465638816843865,-1.27650401162759)(-0.051134719243199,-1.31755891369738)(-0.0556545846018098,-1.35730044438819)(-0.0601189722601329,-1.39568898847793)(-0.0645234320194606,-1.43268627943099)(-0.0688635734185182,-1.46825543754316)(-0.0731350701099711,-1.50236100670408)(-0.0773336641730223,-1.53496898974069)(-0.0814551703578002,-1.56604688230635)(-0.0854954802573067,-1.59556370528188)(-0.0894505664027667,-1.62349003565623)(-0.0933164862782966,-1.64979803585594)(-0.0970893862508898,-1.67446148149427)(-0.100765505411802,-1.69745578751224)(-0.104341179325506,-1.71875803268554)(-0.107812843682483,-1.73834698247291)(-0.111177037852201,-1.75620311018318)(-0.114430408332749,-1.77230861643993)(-0.117569712093677,-1.78664744692425)(-0.120591819808726,-1.7992053083781)(-0.1234937189752,-1.80996968285206)(-0.126272516916901,-1.81892984018356)(-0.128925443667608,-1.82607684869292)(-0.131449854732242,-1.83140358408661)(-0.133843233722953,-1.83490473655896)(-0.136103194867513,-1.83657681608503)(-0.138227485387504,-1.8364181558996)(-0.140213987743937,-1.83442891415858)(-0.142060721748062,-1.83061107378141)(-0.143765846535262,-1.8249684404744)(-0.145327662400065,-1.81750663893714)(-0.146744612490453,-1.80823310725569)(-0.148015284359759,-1.7971570894881)(-0.149138411374631,-1.78428962644976)(-0.150112873977633,-1.76964354470767)(-0.150937700803253,-1.75323344379461)(-0.151612069646171,-1.73507568165607)(-0.152135308280859,-1.71518835834424)(-0.152506895131667,-1.69359129797548)(-0.152726459792741,-1.67030602896927)(-0.152793783397251,-1.64535576258815)(-0.152708798835565,-1.61876536980025)(-0.152471590822142,-1.5905613564874)(-0.152082395811088,-1.56077183702341)(-0.151541601760454,-1.52942650624916)(-0.150849747745512,-1.49655660987205)(-0.150007523421389,-1.46219491331962)(-0.149015768335608,-1.42637566907829)(-0.147875471091207,-1.38913458254969)(-0.146587768361277,-1.3505087764588)(-0.145153943755906,-1.31053675384914)(-0.143575426542641,-1.26925835970214)(-0.14185379022177,-1.2267147412188)(-0.139990750957819,-1.18294830680325)(-0.137988165868843,-1.13800268378913)(-0.13584803117521,-1.09192267495092)(-0.133572480209726,-1.04475421384356)(-0.131163781291081,-0.996544319014893)(-0.128624335462741,-0.947341047136534)(-0.125956674099534,-0.897193445099944)(-0.123163456384323,-0.846151501125428)(-0.120247466657272,-0.79426609493278)(-0.117211611640356,-0.74158894702328)(-0.114058917539881,-0.688172567123571)(-0.110792527029887,-0.634070201842813)(-0.107415696119474,-0.579335781595321)(-0.103931790907128,-0.524023866841541)(-0.100344284225335,-0.468189593701005)(-0.0966567521787725,-0.411888618991442)(-0.092872870579581,-0.355177064748858)(-0.088996411283229,-0.298111462283866)(-0.0850312384286467,-0.240748695830044)(-0.080981304586369,-0.183145945840501)(-0.0768506468185262,-0.125360631989148)(-0.0726433826546136,-0.067450355933529)(-0.068363705987048,-0.00947284389623018)(-0.0640158828906042,0.0485141108778782)(-0.0596042473699,0.106452705731194)(-0.0551331970391649,0.164285186212342)(-0.0506071887386036,0.221953903647056)(-0.0460307340917202,0.279401372603637)(-0.0414083950080336,0.336570328195685)(-0.0367447791356678,0.39340378316497)(-0.0320445352683467,0.44984508468759)(-0.0273123487113767,0.505837970846719)(-0.0225529366112319,0.561326626715717)(-0.0177710432533995,0.616255739995671)(-0.0129714353331737,0.67057055615188)(-0.00815889720410938,0.724216932994382)(-0.00333822610887533,0.777141394648056)(0.0014857726027428,0.829291184858546)(0.0063082902639183,0.880614319580831)(0.0111245196841685,0.931059638798066)(0.0159296599412651,0.980576857518982)(0.0207189211668996,1.02911661590308)(0.0254875293213269,1.07663052846358)(0.0302307309522329,1.12307123229911)(0.0349437979330782,1.16839243430613)(0.0396220321761984,1.21254895732484)(0.044260770315959,1.25549678517279)(0.0488553883573009,1.29719310652118)(0.0534013062850382,1.33759635757008)(0.0578939926293176,1.37666626348017)(0.0623289689826856,1.41436387851957)(0.066701814464263,1.45065162488577)(0.0710081701265744,1.48549333016401)(0.0752437433006427,1.51885426338475)(0.079404311875014,1.55070116964423)(0.0834857285044511,1.58100230325371)(0.0874839247440962,1.60972745938421)(0.0913949151049865,1.6368480041754)(0.0952148010268752,1.66233690327843)(0.098939774764402,1.68616874880435)(0.102566123182736,1.70831978465125)(0.106090231458909,1.72876793018486)(0.10950858668515,1.74749280224902)(0.112817781370628,1.76447573548403)(0.116014516838115,1.77969980093271)(0.119095606512174,1.79314982291552)(0.122057979095612,1.80481239415805)(0.124898681631012,1.81467588915566)(0.12761488244431,1.82273047576201)(0.130203873967463,1.82896812499001)(0.132663075437417,1.83338261901526)(0.134990035468664,1.83596955737411)(0.13718243449684,1.83672636135014) 
};
\addplot [
color=blue,
solid,
forget plot
]
coordinates{
 (0.122104670610194,2.29638181422232)(0.125014691446902,2.29507930308575)(0.127800094920399,2.29148900698727)(0.130458104479927,2.28561450481213)(0.132986070563753,2.27746165239183)(0.135381473240305,2.26703857666699)(0.137641924720102,2.25435566758616)(0.13976517173595,2.23942556774894)(0.141749097789047,2.22226315980353)(0.143591725258757,2.20288555161143)(0.145291217373947,2.18131205919389)(0.146845880043915,2.15756418747733)(0.148254163547103,2.13166560885674)(0.149514664075887,2.10364213959851)(0.150626125135927,2.07352171410626)(0.151587438798666,2.04133435707515)(0.152397646805741,2.00711215356268)(0.153055941524188,1.97088921700557)(0.153561666751517,1.93270165521472)(0.153914318369822,1.89258753438224)(0.1541135448483,1.85058684113615)(0.154159147593667,1.80674144268089)(0.154051081148112,1.76109504506318)(0.153789453234619,1.71369314960488)(0.153374524649583,1.66458300754624)(0.15280670900284,1.61381357294491)(0.152086572305376,1.56143545387741)(0.151214832405111,1.50750086199193)(0.150192358271338,1.45206356046261)(0.149020169128509,1.39517881039725)(0.147699433440254,1.33690331575182)(0.146231467744629,1.27729516680674)(0.144617735341765,1.21641378226121)(0.142859844835217,1.15431985000339)(0.14095954852847,1.09107526661533)(0.138918740678212,1.02674307567319)(0.136739455606088,0.961387404903959)(0.134423865670854,0.895073402261604)(0.131974279102916,0.82786717098613)(0.129393137703438,0.759835703710449)(0.126683014410299,0.691046815680667)(0.123846610733339,0.621569077156369)(0.120886754061426,0.551471745058292)(0.117806394844062,0.480824693931526)(0.114608603650304,0.409698346293041)(0.11129656810796,0.338163602432993)(0.107873589726087,0.266291769739776)(0.104343080603978,0.19415449161926)(0.100708560029905,0.121823676079095)(0.0969736509730198,0.0493714240492355)(0.0931420764718955,-0.0231300424898296)(0.0892176559233225,-0.0956084524995162)(0.0852043012750505,-0.167991557924492)(0.0811060131262741,-0.240207205711107)(0.076926876739748,-0.312183409731126)(0.0726710579695087,-0.383848422539069)(0.0683427991082605,-0.455130806891622)(0.0639464146585658,-0.52595950695784)(0.0594862870320549,-0.596263919149138)(0.0549668621809435,-0.665973962498486)(0.0503926451662098,-0.735020148518647)(0.0457681956668528,-0.803333650469801)(0.0410981234347042,-0.870846371967546)(0.0363870836993282,-0.937491014862849)(0.031639772527587,-1.00320114632631)(0.0268609221424996,-1.06791126506984)(0.0220552962060586,-1.13155686663979)(0.0172276850707084,-1.19407450771636)(0.012382901004218,-1.25540186935533)(0.0075257733927076,-1.31547781910887)(0.00266114392661143,-1.37424247196378)(-0.00220613822562439,-1.43163725003609)(-0.00707122125129858,-1.48760494096281)(-0.011929255529847,-1.54208975493246)(-0.0167753984670501,-1.59503738029756)(-0.0216048193222356,-1.64639503771367)(-0.0264127040236665,-1.69611153275095)(-0.0311942599673124,-1.74413730692595)(-0.035944720794221,-1.79042448710251)(-0.0406593511417286,-1.83492693321279)(-0.0453334513637727,-1.8776002842507)(-0.0499623622156012,-1.91840200249186)(-0.0545414694982091,-1.95729141589621)(-0.0590662086578723,-1.99422975865069)(-0.0635320693361939,-2.02918020981193)(-0.0679345998661278,-2.06210793001013)(-0.0722694117094972,-2.09298009617769)(-0.0765321838315844,-2.12176593426797)(-0.080718667008433,-2.14843674993155)(-0.0848246880625661,-2.17296595711934)(-0.0888461540229005,-2.19532910458416)(-0.0927790562047097,-2.21550390025429)(-0.0966194742055673,-2.23347023345462)(-0.10036357981329,-2.24921019495352)(-0.104007640821983,-2.26270809481505)(-0.107548024752382,-2.27395047803907)(-0.110981202472791,-2.2829261379735)(-0.114303751716994,-2.28962612748531)(-0.117512360495648,-2.29404376787926)(-0.120603830397742,-2.29617465555531)(-0.123575079778845,-2.2960166663983)(-0.126423146832957,-2.29356995789525)(-0.129145192544898,-2.28883696897841)(-0.131738503520307,-2.28182241759406)(-0.134200494690403,-2.27253329599957)(-0.136528711888846,-2.26097886379336)(-0.138720834298099,-2.24717063868474)(-0.140774676762871,-2.2311223850128)(-0.142688191968328,-2.2128501000258)(-0.144459472480897,-2.1923719979348)(-0.146086752649643,-2.16970849175731)(-0.147568410366303,-2.14488217296918)(-0.148902968682245,-2.11791778898487)(-0.150089097280713,-2.08884221848877)(-0.151125613802927,-2.05768444464186)(-0.152011485026674,-2.02447552619073)(-0.152745827896254,-1.9892485665075)(-0.153327910402724,-1.95203868059168)(-0.153757152313583,-1.9128829600668)(-0.154033125751158,-1.87182043620661)(-0.154155555619125,-1.8288920410279)(-0.15412431987673,-1.78414056648859)(-0.153939449660439,-1.73761062183174)(-0.153601129252906,-1.68934858911809)(-0.153109695899269,-1.63940257699145)(-0.152465639470983,-1.5878223727229)(-0.151669601977503,-1.53465939258181)(-0.150722376926313,-1.47996663058296)(-0.149624908531946,-1.42379860566094)(-0.148378290774764,-1.36621130732452)(-0.146983766310458,-1.30726213984507)(-0.145442725231342,-1.24700986503474)(-0.143756703680677,-1.18551454367141)(-0.141927382321412,-1.12283747562879)(-0.139956584660863,-1.05904113877138)(-0.137846275232996,-0.994189126675187)(-0.135598557640144,-0.928346085236243)(-0.133215672456086,-0.861577648230189)(-0.130699994992595,-0.793950371887087)(-0.128054032931678,-0.725531668546732)(-0.12528042382586,-0.656389739460557)(-0.122381932469017,-0.586593506807154)(-0.11936144814037,-0.516212544989132)(-0.116221981724384,-0.445317011279854)(-0.112966662709461,-0.373977575889135)(-0.109598736068389,-0.302265351517633)(-0.106121559023689,-0.230251822470178)(-0.10253859770106,-0.158008773398646)(-0.0988534236742677,-0.0856082177454709)(-0.0950697104049275,-0.0131223259590713)(-0.0911912295807125,0.0593766464472263)(-0.0872218473556564,0.13181643092104)(-0.0831655204962857,0.204124817909817)(-0.0790262924374294,0.276229728840865)(-0.0748082892516353,0.348059287970854)(-0.0705157155362103,0.419541894033124)(-0.0661528502219877,0.490606291611368)(-0.0617240423079945,0.561181642168601)(-0.0572337065262757,0.631197594660536)(-0.0526863189411928,0.700584355663047)(-0.0480864124875855,0.769272758943769)(-0.0434385724522441,0.837194334408497)(-0.0387474319031952,0.904281376353678)(-0.0340176670713596,0.97046701095691)(-0.0292539926891828,1.03568526293824)(-0.0244611572908879,1.09987112132575)(-0.0196439384790324,1.16296060425992)(-0.0148071381620917,1.22489082277209)(-0.00995557776781043,1.28560004347362)(-0.00509409343709986,1.34502775009303)(-0.000227531203266504,1.40311470379996)(0.0046392578386184,1.45980300225568)(0.00950142236739696,1.51503613733147)(0.0143541156717259,1.56875905143709)(0.0191925004813851,1.62091819240341)(0.0240117537891725,1.67146156686437)(0.0288070716585837,1.72033879208512)(0.0335736740124794,1.76750114618459)(0.0383068093979709,1.81290161670255)(0.0430017597227712,1.85649494746261)(0.0476538449582927,1.89823768368465)(0.0522584278048003,1.93808821530137)(0.0568109183139741,1.97600681843621)(0.0613067784642683,2.01195569500092)(0.0657415266845109,2.04589901037354)(0.0701107423212305,2.07780292911912)(0.0744100700452602,2.10763564871762)(0.0786352241932245,2.13536743126535)(0.0827819930395815,2.16097063311837)(0.0868462429949625,2.18441973244825)(0.0908239227266243,2.20569135468283)(0.094711067196905,2.22476429580645)(0.0985038016156606,2.24161954349662)(0.102198345302739,2.25624029607586)(0.105791015456646,2.26861197926004)(0.109278230825639,2.27872226068631)(0.1126565152776,2.28656106220627)(0.115922501265118,2.29212056993209)(0.119072933182333,2.29539524202556)(0.122104670610194,2.29638181422232) 
};
\addplot [
color=blue,
solid,
forget plot
]
coordinates{
 (0.10847751063402,2.68445879412029)(0.11189004538471,2.68298074721296)(0.115191045704815,2.67882824674829)(0.118377221085426,2.67200543202902)(0.121445395477632,2.66251910418527)(0.124392510458475,2.65037871939493)(0.127215628279647,2.63559637945757)(0.129911934795908,2.61818681973114)(0.132478742270286,2.59816739444338)(0.134913492053267,2.57555805939281)(0.137213757133317,2.55038135205628)(0.13937724455618,2.52266236912322)(0.141401797710541,2.49242874147864)(0.143285398477788,2.45971060666007)(0.14502616924371,2.42454057881585)(0.146622374770152,2.38695371619461)(0.14807242392473,2.34698748619842)(0.149374871266913,2.30468172803452)(0.150528418488864,2.26007861300269)(0.151531915709625,2.21322260245803)(0.152384362621344,2.16416040349083)(0.1530849094864,2.11294092236803)(0.153632857984442,2.05961521578231)(0.154027661908491,2.0042364399577)(0.15426892770941,1.9468597976623)(0.154356414888201,1.88754248318096)(0.154290036235742,1.82634362530277)(0.154069857919717,1.76332422838019)(0.15369609941866,1.6985471115186)(0.153169133303173,1.63207684595684)(0.15248948486454,1.56397969070118)(0.151657831591106,1.49432352647695)(0.15067500249294,1.4231777880635)(0.149541977275462,1.35061339508012)(0.148259885362849,1.27670268129187)(0.146830004772201,1.20151932250561)(0.145253760839588,1.12513826312846)(0.143532724799243,1.0476356414615)(0.141668612217317,0.96908871380352)(0.139663281281774,0.889575777440216)(0.1375187309501,0.809176092595773)(0.135237098956706,0.727969803424552)(0.132820659681983,0.646037858121641)(0.13027182188515,0.563461928231949)(0.127593126303157,0.480324327238221)(0.124787243118013,0.396707928509175)(0.1218569692951,0.312696082689526)(0.11880522579509,0.228372534614245)(0.115635054662273,0.143821339829895)(0.112349615992178,0.0591267808062256)(0.108952184781522,-0.0256267170784205)(0.10544614766362,-0.110354669694161)(0.101834999532522,-0.194972618375196)(0.0981223400592175,-0.279396214110038)(0.0943118701034114,-0.363541301622443)(0.0904073880244243,-0.447324003259221)(0.0864127858949061,-0.530660802601303)(0.0823320456211327,-0.613468627714725)(0.0781692349737553,-0.69566493395854)(0.0739285035329588,-0.777167786267104)(0.0696140785520692,-0.857895940824743)(0.0652302607437361,-0.937768926051345)(0.0607814199928886,-1.01670712281819)(0.056271991000739,-1.09463184381401)(0.0517064688641762,-1.17146541198225)(0.0470894045949552,-1.2471312379512)(0.04242540058315,-1.32155389637998)(0.0377191060093906,-1.39465920114415)(0.0329752122104591,-1.46637427928607)(0.0281984480028627,-1.53662764365619)(0.023393574969047,-1.60534926417307)(0.0185653827109469,-1.67247063763085)(0.013718684075607,-1.73792485598472)(0.00885831035763131,-1.80164667304637)(0.00398910648324365,-1.86357256952273)(-0.000884073819240133,-1.92364081633347)(-0.0057563728577144,-1.98179153614381)(-0.0106229338185365,-2.03796676305162)(-0.0154789056079044,-2.09211050036901)(-0.0203194476875325,-2.14416877644115)(-0.0251397348998054,-2.1940896984463)(-0.0299349622775999,-2.24182350412373)(-0.0347003498339809,-2.28732261137786)(-0.0394311473269963,-2.33054166570907)(-0.0441226389948213,-2.37143758542408)(-0.0487701482565324,-2.40996960458075)(-0.0533690423738251,-2.44609931362439)(-0.0579147370690282,-2.47979069767529)(-0.0624027010948114,-2.51101017242912)(-0.066828460751031,-2.5397266176345)(-0.0711876043442118,-2.56591140811432)(-0.0754757865852191,-2.58953844229999)(-0.0796887329207369,-2.61058416824999)(-0.0838222437942366,-2.62902760712701)(-0.0878721988321852,-2.64485037411006)(-0.0918345609513237,-2.65803669672091)(-0.0957053803829199,-2.66857343054641)(-0.099480798609983,-2.67645007234114)(-0.103157052213518,-2.68165877049725)(-0.106730476623983,-2.68419433287114)(-0.110197509774211,-2.6840542319591)(-0.11355469565016,-2.68123860741677)(-0.116798687735936,-2.67575026591992)(-0.11992625234968,-2.66759467836671)(-0.122934271866967,-2.65677997442419)(-0.125819747828526,-2.64331693442443)(-0.128579803929165,-2.6272189786185)(-0.131211688884938,-2.60850215379884)(-0.133712779175685,-2.58718511730347)(-0.13608058166021,-2.56328911841797)(-0.138312736061503,-2.53683797719372)(-0.140407017319513,-2.50785806070352)(-0.142361337809136,-2.47637825675839)(-0.144173749421205,-2.44242994511151)(-0.145842445504411,-2.40604696617822)(-0.147365762666208,-2.36726558730318)(-0.148742182430919,-2.32612446660824)(-0.14997033275339,-2.28266461445724)(-0.151048989386669,-2.23692935257595)(-0.151977077102368,-2.18896427086805)(-0.152753670762465,-2.13881718197012)(-0.153377996241513,-2.08653807359095)(-0.153849431198296,-2.03217905868271)(-0.154167505696197,-1.97579432349366)(-0.154331902671638,-1.91744007355406)(-0.15434245825014,-1.85717447764932)(-0.154199161909672,-1.79505760983608)(-0.153902156491142,-1.73115138955906)(-0.153451738056012,-1.66551951992845)(-0.152848355591172,-1.59822742421923)(-0.152092610561386,-1.52934218065586)(-0.151185256309735,-1.45893245554721)(-0.15012719730667,-1.38706843483852)(-0.148919488248416,-1.31382175414849)(-0.147563333005627,-1.23926542736139)(-0.146060083423341,-1.16347377384519)(-0.144411237973435,-1.08652234436839)(-0.142618440260912,-1.00848784578941)(-0.14068347738552,-0.929448064593509)(-0.138608278160335,-0.849481789353508)(-0.136394911189076,-0.768668732191643)(-0.134045582804074,-0.687089449320791)(-0.131562634866955,-0.604825260744271)(-0.128948542434224,-0.521958169194311)(-0.126205911290065,-0.438570778389936)(-0.123337475348851,-0.354746210695775)(-0.120346093929908,-0.270568024263897)(-0.117234748907291,-0.186120129741212)(-0.114006541737382,-0.101486706625524)(-0.110664690367295,-0.0167521193535767)(-0.107212526027152,0.0679991667952638)(-0.103653489909445,0.152682669895818)(-0.0999911297387766,0.237213975590533)(-0.0962290962354117,0.321508821235532)(-0.0923711394761626,0.405483179895459)(-0.088421105156228,0.489053344103362)(-0.0843829307557224,0.572136009302098)(-0.0802606416147087,0.654648356884148)(-0.076058346920653,0.736508136746992)(-0.0717802356122963,0.8176337492818)(-0.0674305722040296,0.897944326713713)(-0.0630136925349334,0.977359813712574)(-0.0585339994467183,1.05580104719385)(-0.0539959583948778,1.13318983523008)(-0.0494040929974239,1.20944903499434)(-0.0447629805256471,1.28450262965784)(-0.0400772473413924,1.35827580416518)(-0.0353515642854021,1.43069501981162)(-0.0305906420213183,1.50168808754805)(-0.0257992263399932,1.57118423994062)(-0.0209820934287797,1.63911420171325)(-0.0161440451105252,1.70541025880273)(-0.0112899040570093,1.77000632585756)(-0.00642450898160057,1.8328380121133)(-0.0015527098159209,1.89384268557863)(0.00332063712467094,1.95295953546835)(0.00819067398196099,2.01012963282083)(0.0130525461972979,2.06529598923971)(0.0179014073507231,2.11840361370119)(0.0227324239919873,2.16939956737021)(0.0275407804586397,2.21823301637114)(0.0323216836763834,2.26485528245998)(0.0370703679369178,2.30921989154798)(0.0417820996484992,2.35128262002798)(0.0464521820544885,2.39100153885745)(0.0510759599151798,2.42833705535433)(0.0556488241482455,2.46325195266379)(0.0601662164231691,2.49571142685689)(0.0646236337050879,2.52568312162384)(0.0690166327435172,2.55313716052747)(0.0733408345014781,2.57804617678475)(0.0775919285206168,2.60038534054655)(0.081765677217964,2.62013238364863)(0.0858579201100486,2.63726762180895)(0.0898645779601595,2.65177397424948)(0.093781656844616,2.66363698072261)(0.097605252133999,2.67284481592551)(0.10133155238537,2.6793883012878)(0.104956843141599,2.68326091412095)(0.10847751063402,2.68445879412029) 
};
\addplot [
color=blue,
solid,
forget plot
]
coordinates{
 (0.09760351905513,3.02517376233871)(0.101330995542625,3.02354415086108)(0.104957463090051,3.01890060481888)(0.108479306755691,3.01124775299979)(0.111893015889187,3.00059322393294)(0.115195187631034,2.98694763828462)(0.118382530304625,2.97032459827136)(0.121451866697467,2.95074067410095)(0.124400137228291,2.92821538745492)(0.127224402996916,2.90277119202886)(0.129921848713801,2.87443345115013)(0.132489785506393,2.84323041249512)(0.13492565359945,2.80919317993134)(0.137227024866683,2.77235568251244)(0.139391605251164,2.73275464065699)(0.141417237052089,2.69042952954474)(0.143301901075629,2.64542253976691)(0.145043718647696,2.59777853526971)(0.146640953486655,2.54754500863297)(0.148092013434082,2.4947720337285)(0.149395452041864,2.43951221580537)(0.15054997001405,2.38182063905187)(0.151554416502018,2.32175481168635)(0.152407790251665,2.25937460863182)(0.153109240601476,2.19474221183132)(0.153658068330489,2.12792204826357)(0.154053726355289,2.05898072572081)(0.15429582027535,1.98798696641265)(0.154384108766189,1.91501153846231)(0.154318503819918,1.84012718536344)(0.154099070832974,1.76340855346775)(0.153726028540931,1.68493211757596)(0.153199748800458,1.60477610470606)(0.152520756218646,1.52302041611487)(0.151689727630066,1.43974654765078)(0.15070749142209,1.35503750851689)(0.14957502670913,1.26897773852562)(0.14829346235664,1.1816530239273)(0.146864075855839,1.09315041189655)(0.145288292050275,1.00355812376177)(0.143567681715517,0.912965467064183)(0.141703959993365,0.821462746534177)(0.139698984682162,0.729141174073537)(0.137554754384904,0.636092777833474)(0.135273406516982,0.542410310478941)(0.132857215175564,0.448187156730771)(0.130308588872727,0.353517240277754)(0.127630068134596,0.258494930151458)(0.124824322968894,0.163214946657129)(0.12189415020342,0.0677722669544306)(0.118842470698112,-0.0277379696178564)(0.115672326433468,-0.123220556378792)(0.112386877478233,-0.218580314209372)(0.108989398839377,-0.313722186429139)(0.105483277197494,-0.408551333550752)(0.101872007530887,-0.50297322781805)(0.0981591896316965,-0.596893747433371)(0.0943485245175491,-0.690219270380213)(0.0904438107423036,-0.782856767747692)(0.0864489406095697,-0.874713896463782)(0.0823678962927746,-0.965699091344903)(0.0782047458656464,-1.05572165637008)(0.0739636392470698,-1.14469185508873)(0.0696488040643562,-1.23252100007186)(0.0652645414390532,-1.31912154131768)(0.0608152216994932,-1.40440715352332)(0.0563052800243549,-1.48829282213576)(0.0517392120215806,-1.57069492809623)(0.0471215692470568,-1.65153133119344)(0.042456954667524,-1.73072145194279)(0.0377500180722396,-1.80818635190972)(0.0330054514379665,-1.88384881239725)(0.0282279842519089,-1.9576334114193)(0.0234223787972566,-2.02946659888291)(0.0185934254060374,-2.09927676990462)(0.0137459376840102,-2.16699433618775)(0.00888474771235769,-2.23255179538953)(0.00401470123096309,-2.2958837984089)(-0.000859347191928844,-2.35692721452794)(-0.00573253899885118,-2.4156211943419)(-0.0106000164862301,-2.47190723041525)(-0.0154569276466501,-2.52572921560314)(-0.02029843100544,-2.57703349898024)(-0.0251197004467605,-2.62576893932113)(-0.0299159300243812,-2.67188695607899)(-0.0346823387523522,-2.71534157781176)(-0.0394141753707955,-2.75608948800746)(-0.0441067230820634,-2.79409006826304)(-0.0487553042525454,-2.82930543877368)(-0.0533552850754351,-2.8617004960922)(-0.0579020801898093,-2.89124294812094)(-0.0623911572514161,-2.91790334630125)(-0.0668180414506134,-2.94165511496842)(-0.0711783199729572,-2.9624745778429)(-0.0754676463979906,-2.98034098163131)(-0.0796817450318503,-2.99523651671382)(-0.0838164151693714,-3.0071463348971)(-0.0878675352814414,-3.01605856421538)(-0.0918310671234302,-3.02196432076466)(-0.0957030597606004,-3.02485771755837)(-0.0994796535064841,-3.02473587039566)(-0.103157083770304,-3.02159890073644)(-0.106731684809597,-3.01544993558029)(-0.110199893384308,-3.00629510434938)(-0.113558252308705,-2.99414353277861)(-0.116803413897575,-2.97900733381876)(-0.119932143303271,-2.96090159556215)(-0.122941321740281,-2.93984436620242)(-0.125827949594095,-2.91585663604375)(-0.128589149411291,-2.88896231657724)(-0.131222168767841,-2.85918821664541)(-0.13372438301279,-2.8265640157186)(-0.13609329788456,-2.79112223430978)(-0.138326551997289,-2.75289820155746)(-0.140421919194709,-2.71193002000874)(-0.142377310769229,-2.66825852763797)(-0.144190777544002,-2.62192725713849)(-0.145860511815908,-2.57298239252833)(-0.147384849157512,-2.52147272311297)(-0.148762270076202,-2.46744959485111)(-0.149991401528849,-2.41096685917185)(-0.151071018290492,-2.35208081929451)(-0.152000044175662,-2.29085017410426)(-0.152777553111155,-2.22733595963984)(-0.153402770059152,-2.16160148825153)(-0.153875071789805,-2.09371228548997)(-0.154193987502476,-2.02373602478891)(-0.154359199295048,-1.95174246000683)(-0.154370542480812,-1.8778033558948)(-0.154228005752634,-1.8019924165598)(-0.153931731194225,-1.72438521199487)(-0.153482014138507,-1.64505910274928)(-0.152879302873223,-1.56409316281391)(-0.152124198194069,-1.48156810079849)(-0.151217452805811,-1.39756617947957)(-0.150159970571971,-1.31217113379915)(-0.148952805613839,-1.22546808739592)(-0.147597161259696,-1.13754346775213)(-0.146094388845319,-1.04848492004077)(-0.14444598636693,-0.958381219759038)(-0.142653596987969,-0.867322184234904)(-0.140719007401151,-0.775398583095306)(-0.138644146047446,-0.682702047784977)(-0.136431081193777,-0.58932498022625)(-0.134082018871318,-0.4953604607108)(-0.131599300676479,-0.400902155115184)(-0.12898540143675,-0.306044221532671)(-0.126242926743739,-0.210881216414389)(-0.123374610355862,-0.115508000313413)(-0.120383311473275,-0.0200196433256996)(-0.117272011887757,0.0754886696778637)(-0.114043813010398,0.170921733933788)(-0.110701932780045,0.266184419688184)(-0.107249702455589,0.361181767024148)(-0.103690563295297,0.455819080519884)(-0.100028063126486,0.550002023643166)(-0.0962658528089745,0.643636712788024)(-0.0924076825958268,0.736629810859991)(-0.0884573983950174,0.828888620316523)(-0.0844189379357472,0.920321175569939)(-0.0802963268432288,1.01083633466073)(-0.0760936746258565,1.1003438701098)(-0.0718151705787583,1.18875455885926)(-0.067465079607816,1.27598027121182)(-0.0630477379783134,1.36193405868047)(-0.0585675489924538,1.44653024066055)(-0.0540289786000515,1.52968448983811)(-0.0494365509467776,1.61131391624915)(-0.0447948438643908,1.69133714990617)(-0.0401084843074575,1.76967442190956)(-0.0353821437411009,1.84624764396292)(-0.0306205334843848,1.92098048621323)(-0.0258284000139666,1.99379845333807)(-0.0210105202327076,2.06462895880418)(-0.016171696707951,2.13340139722333)(-0.0113167528842195,2.20004721473325)(-0.00645052827510018,2.26449997733366)(-0.00157787363911235,2.3266954371091)(0.003296353855634,2.38657159627268)(0.00816729547316894,2.44406876896675)(0.0130300957529569,2.49912964075917)(0.0178799073499241,2.55169932577547)(0.0227118958663991,2.60172542141037)(0.0275212446711439,2.64915806056378)(0.0323031597006781,2.69394996134946)(0.0370528742381047,2.73605647422658)(0.0417656536646779,2.77543562650738)(0.0464368001793732,2.81204816419647)(0.0510616574817583,2.84585759112005)(0.0556356154134943,2.87683020530607)(0.0601541145538422,2.90493513257914)(0.0646126507645919,2.93014435733654)(0.0690067796798861,2.95243275047478)(0.0733321211364598,2.97177809443887)(0.0775843635398834,2.98816110536922)(0.0817592681624525,3.00156545232425)(0.0858526733684452,3.01197777355941)(0.0898604987625301,3.01938768984643)(0.0937787492571938,3.02378781481962)(0.09760351905513,3.02517376233871) 
};
\addplot [
color=blue,
solid,
forget plot
]
coordinates{
 (0.0890712491448656,3.331922022243)(0.0930077628678954,3.33015493568949)(0.0968515644301979,3.32506827827303)(0.100598822246782,3.31666712048436)(0.104245800969563,3.30495983678026)(0.107788865210836,3.28995809723575)(0.111224483167111,3.27167685591104)(0.114549230139695,3.25013433594507)(0.117759791948498,3.22535201139024)(0.120852968235688,3.19735458580662)(0.123825675655872,3.16616996763692)(0.126674950949645,3.13182924238671)(0.129397953897428,3.09436664163775)(0.131991970150665,3.0538195089252)(0.13445441393754,3.01022826251274)(0.136782830640534,2.96363635510282)(0.13897489924324,2.91409023052199)(0.141028434644003,2.86163927742476)(0.142941389834075,2.80633578006186)(0.144711857938121,2.74823486616218)(0.146338074115031,2.68739445198024)(0.147818417317153,2.62387518456406)(0.149151411906191,2.55774038130077)(0.150335729124147,2.48905596680056)(0.151370188417863,2.41789040718151)(0.152253758615817,2.34431464182115)(0.152985558956022,2.26840201264247)(0.153564859963983,2.19022819100518)(0.153991084179856,2.10987110227477)(0.154263806734074,2.02741084814487)(0.154382755770864,1.94292962679012)(0.154347812719239,1.85651165092922)(0.154159012411193,1.7682430638799)(0.153816543046979,1.67821185368938)(0.153320746007507,1.58650776542592)(0.152672115514048,1.49322221171907)(0.151871298135585,1.39844818163751)(0.150919092144296,1.30228014799552)(0.149816446719822,1.20481397318047)(0.148564461003101,1.10614681359508)(0.147164383000724,1.0063770228098)(0.145617608340893,0.905604053521852)(0.143925678882225,0.803928358418587)(0.142090281176803,0.701451290044096)(0.140113244788973,0.598274999768771)(0.137996540471604,0.494502335962599)(0.135742278201591,0.390236741473675)(0.133352705076592,0.285582150514116)(0.130830203075063,0.180642885056184)(0.12817728668186,0.0755235508418696)(0.125396600381737,-0.0296710668903848)(0.122490916023272,-0.134836107857886)(0.119463130055825,-0.239866741260707)(0.116316260642296,-0.344658270279299)(0.113053444650553,-0.449106236438569)(0.109677934526535,-0.553106523734351)(0.106193095052144,-0.656555462418506)(0.102602399991154,-0.759349932339182)(0.0989094286264916,-0.861387465733224)(0.0951178621923264,-0.962566349368268)(0.0912314802045377,-1.0627857259327)(0.0872541566932106,-1.16194569457243)(0.0831898563409186,-1.25994741047422)(0.0790426305306419,-1.35669318339635)(0.0748166133072606,-1.45208657504838)(0.070516017256649,-1.54603249522293)(0.066145129306478,-1.63843729658366)(0.0617083064529131,-1.72920886801499)(0.0572099714174651,-1.81825672644046)(0.0526546082383256,-1.90549210701819)(0.04804675780058,-1.99082805162366)(0.0433910133097547,-2.07417949553144)(0.0386920157132095,-2.15546335220954)(0.0339544490739408,-2.23459859614188)(0.0291830359014056,-2.31150634359632)(0.0243825324440215,-2.38610993125763)(0.0195577239480342,-2.45833499264717)(0.0147134198874811,-2.52810953225302)(0.00985444917000169,-2.59536399729668)(0.00498565532327847,-2.66003134706476)(0.000111891666902758,-2.72204711973664)(-0.00476198352551989,-2.78134949664144)(-0.00963111186920236,-2.83787936388016)(-0.0144906397111196,-2.89158037125176)(-0.0193357229682353,-2.9423989884242)(-0.0241615319561897,-2.99028455829471)(-0.0289632562036336,-3.03518934748585)(-0.0337361092474108,-3.07706859392716)(-0.0384753334038091,-3.11588055147504)(-0.0431762045111223,-3.15158653152611)(-0.0478340366387977,-3.18415094158295)(-0.0524441867584735,-3.21354132073342)(-0.0570020593722506,-3.23972837200839)(-0.0615031110935844,-3.26268599158566)(-0.0659428551762319,-3.28239129481076)(-0.0703168659867373,-3.29882463900889)(-0.0746207834160004,-3.31196964306516)(-0.0788503172255276,-3.32181320375366)(-0.0830012513240351,-3.32834550879901)(-0.0870694479701405,-3.3315600466575)(-0.0910508518969531,-3.33145361300786)(-0.0949414943544525,-3.32802631394549)(-0.0987374970656248,-3.32128156587661)(-0.102435076092413,-3.31122609211279)(-0.10603054560763,-3.29786991616896)(-0.10952032156907,-3.28122635177176)(-0.112900925292161,-3.26131198958815)(-0.116168986917589,-3.23814668068743)(-0.119321248770456,-3.21175351675332)(-0.122354568607591,-3.18215880706561)(-0.125265922749813,-3.14939205227453)(-0.128052409095999,-3.11348591499386)(-0.130711250015958,-3.07447618724212)(-0.133239795119239,-3.03240175476429)(-0.135635523897092,-2.98730455826969)(-0.137896048234971,-2.93922955162455)(-0.140019114793053,-2.88822465704101)(-0.142002607252422,-2.83434071730722)(-0.143844548424659,-2.77763144510616)(-0.145543102222745,-2.71815336947366)(-0.147096575491315,-2.65596577944901)(-0.14850341969443,-2.59113066497439)(-0.149762232459192,-2.52371265510191)(-0.150871758973662,-2.45377895357)(-0.151830893237681,-2.38139927181324)(-0.152638679165355,-2.30664575947249)(-0.153294311538104,-2.22959293247457)(-0.15379713680732,-2.15031759875315)(-0.15414665374584,-2.06889878168493)(-0.154342513947578,-1.98541764131743)(-0.154384522174826,-1.8999573934669)(-0.154272636552869,-1.81260322676694)(-0.154006968611729,-1.72344221775068)(-0.153587783174986,-1.63256324405095)(-0.153015498095801,-1.54005689580512)(-0.152290683840386,-1.44601538535293)(-0.151414062919355,-1.35053245531719)(-0.150386509167504,-1.25370328515907)(-0.149209046872762,-1.15562439630121)(-0.147882849755151,-1.05639355591299)(-0.146409239796799,-0.956109679454157)(-0.14478968592416,-0.854872732073707)(-0.143025802543757,-0.752783628962447)(-0.141119347932902,-0.649944134758561)(-0.139072222487013,-0.546456762106392)(-0.136886466825255,-0.4424246694696)(-0.134564259756406,-0.337951558300586)(-0.132107916106975,-0.233141569668602)(-0.129519884413731,-0.12809918044969)(-0.126802744482951,-0.0229290991818526)(-0.123959204818808,0.0822638383107063)(-0.12099209992348,0.187374773420189)(-0.117904387471654,0.292298929280568)(-0.114699145362252,0.396931715211424)(-0.111379568650317,0.501168830976222)(-0.107948966362106,0.60490637075106)(-0.10441075819659,0.708040926700236)(-0.100768471116614,0.810469692055453)(-0.0970257358331508,0.912090563595816)(-0.0931862831861277,1.01280224342656)(-0.0892539404254416,1.11250433995498)(-0.0852326273958758,1.21109746796297)(-0.0811263526297122,1.30848334767638)(-0.0769392093509397,1.40456490273238)(-0.0726753713950388,1.49924635694735)(-0.0683390890484128,1.59243332978862)(-0.0639346848116083,1.68403293045507)(-0.0594665490905546,1.77395385047269)(-0.0549391358201094,1.86210645471282)(-0.0503569580242816,1.94840287074244)(-0.0457245833175495,2.03275707641733)(-0.0410466293517642,2.11508498563074)(-0.0363277592131731,2.19530453213235)(-0.031572676774155,2.2733357513336)(-0.0267861220042966,2.34910086001822)(-0.0219728662454893,2.42252433387813)(-0.01713770745575,2.49353298279782)(-0.012285465426514,2.56205602381177)(-0.00742097697816071,2.62802515166248)(-0.00254909113856698,2.69137460688863)(0.0023253356905106,2.75204124137556)(0.00719744457440114,2.80996458130264)(0.0120623788890125,2.86508688742495)(0.0169152891620188,2.91735321262897)(0.0217513379069206,2.96671145670505)(0.0265657044451562,3.01311241828207)(0.0313535897114593,3.05650984387244)(0.036110221037671,3.09686047397851)(0.0408308569102398,3.13412408621468)(0.0455107916966651,3.16826353540187)(0.0501453603361744,3.19924479059467)(0.0547299429899566,3.22703696900415)(0.0592599696463187,3.25161236678245)(0.0637309246761721,3.2729464866386)(0.0681383513343103,3.29101806225796)(0.0724778562019893,3.30580907950095)(0.0767451135663829,3.31730479435991)(0.0809358697325475,3.32549374765626)(0.0850459472635977,3.33036777646326)(0.0890712491448656,3.331922022243) 
};
\addplot [
color=blue,
solid,
forget plot
]
coordinates{
 (0.0822945342490529,3.61296201313525)(0.0863772440742969,3.61106734507175)(0.0903738511841453,3.60557308654644)(0.0942803716737143,3.59648471435571)(0.0980929114384222,3.58381128798661)(0.101807670055718,3.56756544058616)(0.105420944573424,3.54776336636837)(0.108929133200921,3.52442480447145)(0.112328738899491,3.49757301928147)(0.115616372868239,3.46723477724187)(0.118788757922128,3.43344032017209)(0.121842731758743,3.3962233351219)(0.124775250110547,3.35562092079138)(0.127583389779473,3.31167355055014)(0.130264351550827,3.26442503209258)(0.132815462983612,3.21392246376945)(0.13523418107447,3.16021618763916)(0.137518094792607,3.10335973928576)(0.139664927483159,3.04340979445344)(0.141672539136611,2.980426112551)(0.143538928522007,2.91447147708229)(0.145262235181817,2.84561163306231)(0.146840741286486,2.77391522148113)(0.148272873346799,2.69945371088103)(0.149557203782373,2.62230132611514)(0.150692452344698,2.54253497435848)(0.151677487393319,2.46023416844521)(0.152511327023878,2.37548094760852)(0.153193140046895,2.28835979570212)(0.153722246816323,2.19895755698491)(0.154098119907026,2.10736334955274)(0.154320384640533,2.01366847650352)(0.154388819458525,1.91796633492436)(0.154303356143686,1.82035232279129)(0.154064079887707,1.72092374387446)(0.153671229206364,1.61977971074369)(0.153125195701759,1.51702104597085)(0.152426523671966,1.41275018162773)(0.151575909568457,1.30707105717957)(0.150574201301871,1.20008901587589)(0.149422397396791,1.09191069974206)(0.148121645996399,0.98264394327623)(0.146673243717981,0.872397665957547)(0.145078634360425,0.761281763672836)(0.14333940746502,0.649406999170005)(0.141457296730957,0.536884891647323)(0.13943417828715,0.423827605588661)(0.137272068822059,0.310347838955493)(0.134973123573421,0.196558710847117)(0.132539634179857,0.0825736487410791)(0.129974026396516,-0.0314937245738082)(0.127278857677034,-0.145529704259125)(0.124456814624202,-0.259420616770308)(0.12151071031191,-0.373052933168903)(0.118443481481006,-0.486313382290691)(0.115258185611894,-0.599089063656837)(0.111957997876769,-0.711267560015549)(0.108546207974537,-0.822737049402038)(0.105026216851571,-0.933386416605084)(0.101401533311573,-1.04310536392909)(0.0976757705179252,-1.15178452114125)(0.0938526423920063,-1.25931555449412)(0.0899359599110764,-1.36559127471511)(0.0859296273094112,-1.47050574385506)(0.0818376381864763,-1.57395438088949)(0.0776640715260206,-1.67583406596724)(0.0734130876300565,-1.77604324320257)(0.0690889239717805,-1.87448202190831)(0.0646958909715674,-1.97105227616902)(0.0602383677002502,-2.0656577426551)(0.0557207975139663,-2.15820411658008)(0.0511476836249239,-2.24859914570579)(0.0465235846125022,-2.3367527223013)(0.0418531098791599,-2.42257697296434)(0.0371409150556832,-2.50598634621536)(0.0323916973603513,-2.58689769777716)(0.0276101909166472,-2.66523037345486)(0.0228011620341806,-2.74090628953379)(0.0179694044575266,-2.81385001061504)(0.0131197345877169,-2.88398882481108)(0.00825698668114673,-2.95125281622656)(0.00338600803068277,-3.01557493465201)(-0.00148834586622393,-3.07689106240092)(-0.00636121614760315,-3.13514007822367)(-0.0112277454303849,-3.19026391823451)(-0.0160830826523446,-3.2422076337909)(-0.020922387907747,-3.29091944626752)(-0.0257408372718703,-3.33635079867033)(-0.0305336276095981,-3.37845640403923)(-0.03529598136329,-3.41719429059109)(-0.0400231513151543,-3.45252584355814)(-0.0447104253193779,-3.48441584367999)(-0.0493531309992964,-3.512832502311)(-0.0539466404049202,-3.53774749310784)(-0.0584863746261755,-3.55913598026585)(-0.062967808357262,-3.57697664327588)(-0.0673864744075761,-3.59125169817704)(-0.071737968154703,-3.60194691528417)(-0.0760179519350409,-3.60905163337226)(-0.080222159367678,-3.6125587703038)(-0.0843463996072138,-3.61246483008843)(-0.0883865615212848,-3.60876990636779)(-0.0923386177886313,-3.60147768232222)(-0.0961986289136179,-3.59059542699922)(-0.099962747153209,-3.57613398806756)(-0.103627220352483,-3.55810778100408)(-0.10718839568486,-3.53653477472401)(-0.110642723293323,-3.51143647366916)(-0.113986759828988,-3.48283789637186)(-0.117217171883511,-3.4507675505159)(-0.120330739311901,-3.4152574045195)(-0.123324358442435,-3.37634285566844)(-0.126195045170458,-3.33406269483132)(-0.128939937933009,-3.28845906779196)(-0.131556300561288,-3.23957743323756)(-0.134041525008126,-3.18746651744449)(-0.136393133947748,-3.13217826570693)(-0.13860878324522,-3.07376779055659)(-0.140686264293137,-3.01229331682539)(-0.142623506213212,-2.94781612360566)(-0.144418577920566,-2.88040048316585)(-0.146069690048684,-2.81011359688247)(-0.147575196733089,-2.73702552825234)(-0.148933597251976,-2.66120913305177)(-0.150143537522167,-2.58273998671232)(-0.151203811448885,-2.50169630898558)(-0.152113362128024,-2.41815888597203)(-0.152871282899685,-2.33221098959166)(-0.15347681825196,-2.24393829457675)(-0.15392936457404,-2.15342879306942)(-0.154228470757911,-2.06077270690913)(-0.154373838648024,-1.96606239769763)(-0.154365323338503,-1.86939227473087)(-0.154202933317596,-1.77085870088975)(-0.153886830459205,-1.67055989658357)(-0.153417329861535,-1.56859584184172)(-0.152794899532993,-1.46506817665145)(-0.152020159925666,-1.36008009964089)(-0.151093883316843,-1.25373626520847)(-0.150016993039193,-1.14614267920106)(-0.148790562560364,-1.03740659324511)(-0.147415814412929,-0.927636397835864)(-0.14589411897574,-0.816941514291334)(-0.144226993107901,-0.705432285678799)(-0.142416098636733,-0.593219866822406)(-0.140463240701229,-0.480416113501621)(-0.138370365952648,-0.367133470950979)(-0.136139560614054,-0.253484861772198)(-0.133773048400725,-0.139583573370503)(-0.1312731883035,-0.0255431450272595)(-0.12864247223729,0.0885227452784536)(-0.125883522557083,0.202500394186508)(-0.122999089443919,0.316276186297732)(-0.119992048163457,0.429736707428191)(-0.11686539619984,0.542768857662916)(-0.113622250267742,0.655259964096379)(-0.110265843205561,0.767097893147261)(-0.106799520752849,0.878171162335678)(-0.103226738215211,0.988369051411318)(-0.0995510570199821,1.0975817127218)(-0.0957761411661134,1.20570028071122)(-0.0919057535718241,1.31261698043967)(-0.0879437523236399,1.41822523501569)(-0.0838940868305695,1.52241977183437)(-0.0797607938872468,1.62509672751543)(-0.0755479936499674,1.72615375143647)(-0.071259885529626,1.82549010775828)(-0.0669007440056536,1.92300677584055)(-0.0624749143651222,2.01860654894779)(-0.057986808371269,2.11219413114707)(-0.0534408998657542,2.20367623230117)(-0.0488417203090392,2.29296166106212)(-0.0441938542633274,2.37996141577279)(-0.0395019348225734,2.46458877318565)(-0.0347706389941137,2.54675937491038)(-0.0300046830365251,2.62639131150415)(-0.0252088177583542,2.70340520412078)(-0.0203878237824091,2.77772428363722)(-0.0155465067803303,2.84927446717875)(-0.0106896926821931,2.91798443196636)(-0.00582222286591436,2.98378568641288)(-0.000948949331263382,3.04661263839684)(0.00392527013671856,3.10640266064618)(0.00879557681006272,3.16309615316643)(0.0136571158611595,3.21663660265128)(0.0185050412021556,3.26697063881631)(0.0233345203156404,3.31404808759963)(0.0281407390718034,3.35782202117646)(0.0329189065272647,3.39824880473784)(0.0376642597007905,3.43528813998672)(0.0423720683211375,3.46890310530822)(0.0470376395422888,3.49906019257383)(0.0516563226213862,3.52572934054315)(0.0562235135546908,3.54888396482948)(0.0607346596669547,3.56850098439977)(0.0651852641496263,3.58456084458229)(0.0695708905433671,3.59704753655915)(0.0738871671604106,3.60594861332423)(0.0781297914423565,3.61125520209062)(0.0822945342490528,3.61296201313525) 
};
\addplot [
color=blue,
solid,
forget plot
]
coordinates{
 (0.0768028382303868,3.87375139315845)(0.0809925446782624,3.87173684728313)(0.085101515996205,3.86586286991725)(0.0891256562722444,3.8561353163692)(0.0930609541558378,3.84256388327589)(0.0969034868564714,3.825162098937)(0.100649424053983,3.80394730982958)(0.104295031716709,3.77894066331681)(0.107836675823648,3.75016708656775)(0.111270825986931,3.71765526170947)(0.114594058970991,3.68143759723605)(0.117803062104917,3.64155019570307)(0.120894636584597,3.59803281773985)(0.123865700661354,3.55092884241514)(0.126713292713905,3.50028522399594)(0.129434574200561,3.44615244514248)(0.132026832488756,3.38858446658597)(0.134487483559053,3.32763867333942)(0.136814074580951,3.26337581749495)(0.139004286357922,3.19585995766483)(0.141055935639234,3.12515839512647)(0.142966977296265,3.05134160673498)(0.144735506361132,2.97448317467039)(0.1463597599256,2.89465971308926)(0.147838118898393,2.81195079175406)(0.149169109619137,2.72643885671632)(0.150351405327334,2.63820914813255)(0.15138382748491,2.54734961529508)(0.152265346951007,2.4539508289622)(0.152995085007849,2.35810589107534)(0.153572314236672,2.259910341953)(0.153996459242825,2.15946206505404)(0.154267097229345,2.05686118940542)(0.154383958418398,1.95220998979129)(0.154346926320212,1.84561278480335)(0.154156037849186,1.73717583285377)(0.153811483287101,1.62700722625451)(0.153313606093436,1.51521678346854)(0.152662902563006,1.40191593964039)(0.151860021331242,1.28721763551523)(0.150905762727615,1.17123620485702)(0.149801077977856,1.05408726047818)(0.148547068255746,0.935887578994162)(0.14714498358545,0.81675498441805)(0.145596221595457,0.696808230710967)(0.143902326125402,0.576166883405567)(0.142064985687127,0.454951200420512)(0.140086031781539,0.333282012184757)(0.13796743707293,0.211280601191155)(0.135711313422578,0.0890685810994286)(0.133319909783604,-0.033232224490971)(0.130795609959162,-0.155499903477274)(0.128140930226216,-0.277612576778034)(0.125358516827256,-0.399448519824839)(0.122451143332469,-0.520886283900016)(0.119421707874984,-0.641804817199347)(0.116273230261946,-0.762083585499145)(0.113008848964314,-0.881602692307389)(0.109631817988357,-1.00024299837915)(0.106145503631995,-1.11788624047719)(0.102553381129197,-1.23441514925933)(0.0988590311857935,-1.34971356617505)(0.0950661364101524,-1.4636665592549)(0.0911784776422725,-1.57616053767718)(0.0871999301849608,-1.68708336499771)(0.0831344599408471,-1.7963244709299)(0.078986119459085,-1.90377496156364)(0.0747590438956833,-2.00932772791305)(0.0704574468914927,-2.11287755268511)(0.0660856163719567,-2.21432121516254)(0.061647910272814,-2.3135575940964)(0.0571487521960141,-2.41048776850601)(0.052592627000174,-2.50501511628553)(0.0479840763299739,-2.59704541051894)(0.0433276940889471,-2.68648691340751)(0.0386281218601768,-2.773250467716)(0.0338900442794653,-2.85724958564659)(0.0291181843655872,-2.93840053505174)(0.0243172988122813,-3.01662242290023)(0.019492173246675,-3.09183727591312)(0.0146476174588676,-3.16397011828917)(0.00978846060742584,-3.2329490464424)(0.00491954640557456,-3.29870530067707)(4.57282928775643e-05,-3.36117333372894)(-0.0048281354027762,-3.42029087610411)(-0.00969718630805987,-3.47599899815069)(-0.0145565708471406,-3.52824216880109)(-0.0194014450798297,-3.57696831092665)(-0.0242269795301273,-3.62212885324921)(-0.0290283640003494,-3.66367877875805)(-0.0338008123660372,-3.70157666958382)(-0.0385395673468701,-3.73578474828474)(-0.0432399052488266,-3.76626891550402)(-0.0478971406728646,-3.79299878396082)(-0.0525066311854296,-3.81594770874095)(-0.0570637819461329,-3.8350928138571)(-0.061564050287989,-3.85041501505213)(-0.0660029502456445,-3.86189903882267)(-0.0703760570270859,-3.86953343764407)(-0.0746790114243688,-3.87331060138156)(-0.0789075241589705,-3.87322676487618)(-0.0830573801574372,-3.86928201169799)(-0.08712444275306,-3.86148027406273)(-0.0911046578093944,-3.84982932891216)(-0.0949940577615119,-3.83434079016177)(-0.0987887655709551,-3.81503009712384)(-0.102484998590453,-3.79191649911715)(-0.106079072334548,-3.76502303627886)(-0.10956740415237,-3.73437651659759)(-0.112946516798898,-3.70000748919066)(-0.11621304190116,-3.66195021385202)(-0.119363723315893,-3.6202426269014)(-0.122395420375345,-3.5749263033685)(-0.125305111017953,-3.52604641555015)(-0.128089894800807,-3.47365168798154)(-0.130746995790869,-3.41779434886659)(-0.133273765332086,-3.35853007801568)(-0.135667684685629,-3.29591795134286)(-0.137926367540623,-3.23002038197767)(-0.140047562392878,-3.16090305805035)(-0.142029154789235,-3.08863487721256)(-0.143869169435296,-3.0132878779586)(-0.145565772164448,-2.93493716781595)(-0.147117271766193,-2.85366084847643)(-0.148522121671985,-2.76953993794272)(-0.149778921496888,-2.68265828976789)(-0.150886418435502,-2.59310250946828)(-0.151843508510795,-2.50096186819336)(-0.152649237674564,-2.40632821373816)(-0.153302802758457,-2.30929587898752)(-0.153803552274583,-2.20996158788295)(-0.154150987064937,-2.10842435900609)(-0.154344760798962,-2.0047854068749)(-0.154384680318786,-1.89914804105075)(-0.154270705831764,-1.79161756315728)(-0.154002950950144,-1.68230116191338)(-0.153581682577813,-1.57130780628517)(-0.153007320644248,-1.45874813686341)(-0.152280437685915,-1.34473435557448)(-0.151401758275555,-1.22938011383509)(-0.150372158299912,-1.1128003992621)(-0.149192664086635,-0.995111421050333)(-0.147864451381206,-0.876430494132721)(-0.146388844174935,-0.756875922238252)(-0.144767313385178,-0.636566879964225)(-0.143001475389088,-0.51562329398041)(-0.141093090412385,-0.394165723483563)(-0.139044060774715,-0.272315240021365)(-0.136856428993382,-0.150193306805697)(-0.134532375747323,-0.0279216576354563)(-0.132074217703356,0.0943778244503493)(-0.129484405206878,0.216583228668243)(-0.126765519839308,0.338572738013628)(-0.123920271844709,0.460224750690597)(-0.120951497428161,0.581418001327268)(-0.117862155928565,0.702031681855742)(-0.114655326868715,0.821945561936197)(-0.111334206885557,0.941040108805132)(-0.107902106543718,1.0591966064282)(-0.104362447035459,1.17629727383893)(-0.100718756770357,1.2922253825454)(-0.0969746678581098,1.40686537288768)(-0.0931339124879701,1.52010296923024)(-0.0892003192084184,1.63182529387441)(-0.0851778091107822,1.74192097957727)(-0.0810703919206071,1.850280280565)(-0.0768821620006745,1.95679518192981)(-0.0726172942696534,2.06135950730157)(-0.0682800400404485,2.16386902468672)(-0.0638747227824008,2.26422155036899)(-0.0594057338115582,2.36231705076835)(-0.0548775279133172,2.45805774215665)(-0.0502946189017945,2.55134818813059)(-0.0456615751203609,2.64209539474476)(-0.0409830148878151,2.73020890321008)(-0.0362636018947448,2.81560088006505)(-0.0315080405546575,2.89818620473005)(-0.0267210713145194,2.97788255435744)(-0.0219074659293745,3.05461048589269)(-0.0170720227057553,3.12829351526499)(-0.0122195617186265,3.19885819362824)(-0.00735492000662988,3.26623418057642)(-0.0024829467504183,3.33035431426048)(0.00239150156111226,3.39115467833669)(0.00726356597187724,3.44857466567989)(0.0121283899021159,3.50255703879793)(0.0169811239895362,3.5530479868873)(0.0218169309232641,3.5999971794729)(0.0266309902657807,3.6433578165785)(0.0314185032580387,3.68308667537806)(0.0361746976029706,3.71914415328112)(0.0408948322226169,3.75149430740953)(0.0455742019841372,3.78010489042612)(0.0502081423899878,3.80494738267953)(0.0547920342275948,3.8259970206332)(0.0593213081738856,3.84323282155026)(0.0637914493500896,3.8566376044095)(0.068198001822267,3.86619800703186)(0.0725365730430818,3.87190449940007)(0.0768028382303868,3.87375139315845) 
};
\end{axis}
\end{tikzpicture}%
