% This file was created by matlab2tikz v0.3.0.
% Copyright (c) 2008--2012, Nico Schlömer <nico.schloemer@gmail.com>
% All rights reserved.
% 
% The latest updates can be retrieved from
%   http://www.mathworks.com/matlabcentral/fileexchange/22022-matlab2tikz
% where you can also make suggestions and rate matlab2tikz.
% 
% 
% 
\begin{tikzpicture}

\begin{axis}[%
width=1figurewidth,
height=1figureheight,
scale only axis,
xmin=-2.5, xmax=2.5,
ymin=-5, ymax=5]
\addplot [
color=blue,
solid,
forget plot
]
coordinates{
 (-1.97161645670457,4.28266022277862)(-1.92446522783675,4.30178040353631)(-1.87539565017722,4.31661247603413)(-1.82445663734815,4.32714165533966)(-1.77169896646532,4.33335744573797)(-1.71717522752242,4.33525365119401)(-1.66093977096819,4.33282838152896)(-1.60304865352873,4.32608405430435)(-1.54355958232888,4.31502739241223)(-1.48253185736857,4.29966941737365)(-1.42002631241125,4.28002543835211)(-1.35610525434347,4.25611503689312)(-1.29083240106606,4.22796204740484)(-1.2242728179787,4.19559453339946)(-1.15649285312131,4.15904475951885)(-1.08756007103693,4.1183491593725)(-1.01754318542186,4.07354829921965)(-0.94651199063038,4.02468683753203)(-0.874537292102231,3.97181348047727)(-0.801690835782181,3.91498093336755)(-0.72804523660213,3.85424584812181)(-0.653673906096958,3.78966876679385)(-0.578650979226317,3.72131406122276)(-0.503051240475282,3.6492498688656)(-0.426950049307558,3.57354802487653)(-0.350423265045523,3.49428399049999)(-0.273547171252007,3.41153677784924)(-0.196398399689179,3.32538887114541)(-0.119053853930336,3.23592614449543)(-0.0415906327007529,3.14323777629082)(0.0359140469760042,3.04741616031275)(0.11338292674969,2.94855681363194)(0.190738783956178,2.84675828139511)(0.267904508594699,2.74212203859308)(0.344803180192758,2.63475238890826)(0.421358144482141,2.5247563607425)(0.497493089809554,2.41224360052882)(0.573132123205739,2.29732626343351)(0.648199846037233,2.18011890155734)(0.722621429165372,2.06073834974764)(0.7963226875376,1.93930360913469)(0.869230154136741,1.81593572850885)(0.941271153214523,1.6907576836565)(1.01237387273634,1.56389425477507)(1.08246743596506,1.43547190208944)(1.15148197211249,1.30561863979367)(1.21934868598808,1.17446390844362)(1.28599992657552,1.04213844592779)(1.35136925446866,0.908774157145002)(1.41539150809983,0.774503982518665)(1.47800286869429,0.639461765478908)(1.53914092388614,0.503782119044531)(1.59874472993237,0.367600291637811)(1.65675487246285,0.231052032265944)(1.71311352570593,0.0942734552034755)(1.76776451013039,-0.0425990956893675)(1.82065334844642,-0.179429182877196)(1.87172731990978,-0.316080411153369)(1.92093551287499,-0.452416563601699)(1.96822887554512,-0.588301737380431)(2.01356026486775,-0.723600479193161)(2.05688449352815,-0.858177920311619)(2.09815837499299,-0.991899911015756)(2.13734076655963,-1.1246331543171)(2.17439261036801,-1.25624533883208)(2.20927697233444,-1.38660527067294)(2.24195907896826,-1.51558300422457)(2.27240635203482,-1.64304997167723)(2.30058844103016,-1.76887911118563)(2.32647725343509,-1.89294499352704)(2.35004698271838,-2.01512394713179)(2.37127413406128,-2.13529418136182)(2.39013754777771,-2.25333590791424)(2.40661842040664,-2.36913146022888)(2.4207003234558,-2.48256541078091)(2.43236921977799,-2.59352468614152)(2.44161347756359,-2.7018986796919)(2.44842388193539,-2.80757936187841)(2.4527936441342,-2.91046138789874)(2.45471840828604,-3.01044220271191)(2.45419625574414,-3.10742214326736)(2.4512277070015,-3.20130453785127)(2.44581572117207,-3.291995802451)(2.43796569304103,-3.37940553404165)(2.42768544768714,-3.46344660070184)(2.41498523268253,-3.54403522846862)(2.39987770787773,-3.62109108484521)(2.38237793278201,-3.6945373588782)(2.36250335155176,-3.76430083772434)(2.34027377560178,-3.83031197963073)(2.31571136385682,-3.89250498325554)(2.28884060066309,-3.95081785326018)(2.2596882713817,-4.00519246210769)(2.22828343568849,-4.05557460800543)(2.19465739860664,-4.10191406893469)(2.15884367930122,-4.14416465271303)(2.12087797766649,-4.18228424303969)(2.08079813873951,-4.21623484147803)(2.03864411497535,-4.24598260533317)(1.99445792642166,-4.27149788138716)(1.94828361883214,-4.29275523545793)(1.90016721976077,-4.30973347775265)(1.85015669268057,-4.32241568399016)(1.79830188917254,-4.33078921227148)(1.74465449923254,-4.3348457156815)(1.68926799974556,-4.33458115060941)(1.63219760117882,-4.32999578077944)(1.57350019254676,-4.32109417698793)(1.51323428470284,-4.30788521254716)(1.45145995201463,-4.29038205444012)(1.3882387724804,-4.26860215019548)(1.32363376634684,-4.24256721049545)(1.25770933328905,-4.21230318753412)(1.19053118821561,-4.17784024914775)(1.1221662957625,-4.13921274874281)(1.05268280354129,-4.09645919105177)(0.982149974208136,-4.04962219375071)(0.910638116421232,-3.99874844497715)(0.838218514755638,-3.94388865679024)(0.764963358645251,-3.88509751461992)(0.690945670422808,-3.82243362275529)(0.616239232529641,-3.75595944592652)(0.540918513967733,-3.68574124703876)(0.465058596067394,-3.61184902111974)(0.388735097644562,-3.53435642554722)(0.312024099622322,-3.45334070662576)(0.235002069191786,-3.36888262258588)(0.157745783587939,-3.28106636308252)(0.0803322535564079,-3.18997946527295)(0.00283864658749633,-3.09571272655784)(-0.0746577900060696,-2.9983601140724)(-0.152079806090926,-2.89801867101796)(-0.22935022571769,-2.79478841992715)(-0.306392024051631,-2.68877226295927)(-0.383128404152689,-2.58007587932518)(-0.459482873528346,-2.46880761994399)(-0.535379320382996,-2.35507839943647)(-0.610742089487843,-2.23900158556297)(-0.685496057595683,-2.12069288621595)(-0.75956670832538,-2.00027023407985)(-0.832880206441428,-1.87785366907325)(-0.905363471454504,-1.7535652186904)(-0.976944250469706,-1.62752877636163)(-1.04755119020979,-1.49986997795366)(-1.1171139081417,-1.37071607653301)(-1.18556306263537,-1.24019581551742)(-1.25283042208499,-1.10843930034157)(-1.31884893292375,-0.975577868765188)(-1.38355278646431,-0.841743959952692)(-1.4468774844983,-0.707070982454963)(-1.50875990358954,-0.571693181224785)(-1.56913835799691,-0.435745503798581)(-1.62795266116394,-0.299363465777746)(-1.68514418571419,-0.16268301574377)(-1.74065592189217,-0.0258403997417318)(-1.79443253439204,0.111027974532741)(-1.84642041751693,0.247785673707599)(-1.89656774861433,0.384296374734151)(-1.94482453973402,0.520424000776825)(-1.99114268745713,0.65603285685752)(-2.0354760208467,0.790987765119328)(-2.07778034747187,0.925154199574736)(-2.11801349745984,1.05839842020408)(-2.15613536553171,1.19058760627048)(-2.19210795098034,1.32158998871846)(-2.22589539555023,1.45127498152421)(-2.25746401918184,1.57951331186656)(-2.28678235358458,1.70617714898893)(-2.31382117360512,1.83114023162383)(-2.33855352635964,1.95427799385286)(-2.36095475810103,2.07546768927665)(-2.38100253879432,2.19458851337122)(-2.39867688437572,2.31152172390852)(-2.41396017667319,2.42615075932125)(-2.42683718096858,2.53836135489401)(-2.43729506118397,2.6480416566648)(-2.44532339267693,2.75508233292355)(-2.45091417263203,2.85937668319626)(-2.45406182803821,2.96082074460644)(-2.45476322124412,3.05931339550749)(-2.45301765308576,3.15475645628301)(-2.44882686358343,3.24705478721436)(-2.44219503020724,3.336116383318)(-2.43312876371294,3.42185246605805)(-2.42163710155212,3.50417757184267)(-2.40773149886356,3.58300963721604)(-2.39142581705442,3.65827008066099)(-2.37273630998294,3.72988388093075)(-2.35168160775623,3.79777965183178)(-2.32828269815935,3.86188971338307)(-2.30256290573426,3.92215015928103)(-2.2745478685294,3.97850092060265)(-2.24426551254312,4.03088582568357)(-2.21174602388642,4.07925265611114)(-2.17702181869283,4.12355319877692)(-2.14012751080525,4.16374329393657)(-2.10109987727216,4.19978287922917)(-2.05997782168741,4.23163602961235)(-2.01680233541031,4.25927099317305)(-1.97161645670457,4.28266022277862) 
};
\addplot [
color=blue,
solid,
forget plot
]
coordinates{
 (-0.484653675426988,1.30087936733815)(-0.459422858294906,1.30954095649817)(-0.433734078466306,1.3168971667533)(-0.407612943075593,1.3229406652732)(-0.381085490238597,1.3276654277671)(-0.354178163097217,1.33106674448899)(-0.326917783460319,1.3331412249324)(-0.299331525067172,1.33388680121011)(-0.27144688650008,1.33330273011546)(-0.243291663773193,1.33138959386323)(-0.214893922624834,1.32814929950924)(-0.186281970540965,1.32358507704937)(-0.157484328537664,1.31770147619982)(-0.128529702730763,1.31050436186189)(-0.09944695572096,1.30200090827566)(-0.0702650778229568,1.2921995918686)(-0.0410131581672792,1.28111018280605)(-0.0117203557036006,1.26874373525215)(0.0175841298655335,1.25511257635074)(0.0468710871916043,1.24023029393748)(0.0761113223986262,1.22411172299513)(0.105275688184239,1.20677293086573)(0.13433511287437,1.18823120123438)(0.163260629402515,1.16850501690039)(0.192023404184736,1.14761404135331)(0.220594765861607,1.12557909917191)(0.248946233878449,1.10242215526574)(0.277049546875365,1.07816629298011)(0.304876690858778,1.05283569108606)(0.332399927126391,1.02645559967842)(0.359591819917727,0.999052315006025)(0.38642526376269,0.970653153258989)(0.412873510500892,0.941286423339358)(0.438910195944798,0.910981398642172)(0.464509366160119,0.879768287875112)(0.489645503337264,0.847678204945804)(0.514293551228042,0.814743137946795)(0.538428940122278,0.78099591726913)(0.562027611339435,0.746470182876303)(0.585066041210827,0.711200350771211)(0.607521264528528,0.675221578689531)(0.629370897437585,0.638569731053731)(0.650593159748738,0.601281343222623)(0.671166896649378,0.563393585072133)(0.691071599791134,0.524944223943555)(0.710287427733033,0.485971586996246)(0.728795225719884,0.446514523002278)(0.746576544776152,0.406612363621138)(0.7636136600963,0.366304884193077)(0.779889588713259,0.325632264090181)(0.795388106427422,0.284635046664702)(0.810093763979273,0.243354098834564)(0.823991902449552,0.201830570346326)(0.83706866787158,0.160105852756227)(0.849311025041195,0.118221538170174)(0.860706770510528,0.0762193777838321)(0.871244544752664,0.0341412402641225)(0.880913843485067,-0.00797092998637394)(0.889705028140476,-0.0500751546405114)(0.897609335474839,-0.0921294632914856)(0.904618886302705,-0.134091935289852)(0.910726693351367,-0.175920741530936)(0.915926668225929,-0.217574186150999)(0.920213627478349,-0.259010748090579)(0.923583297774412,-0.300189122483586)(0.926032320153484,-0.341068261830894)(0.927558253376799,-0.381607416917374)(0.928159576360933,-0.421766177431605)(0.927835689694059,-0.461504512247749)(0.926586916233449,-0.500782809329443)(0.924414500783648,-0.539561915215948)(0.92132060885562,-0.577803174051161)(0.917308324508125,-0.615468466116617)(0.912381647273457,-0.652520245830053)(0.906545488170628,-0.688921579171663)(0.899805664809955,-0.724636180500727)(0.892168895593938,-0.759628448725932)(0.883642793020213,-0.793863502793312)(0.87423585609325,-0.827307216456439)(0.863957461852356,-0.859926252294214)(0.85281785602444,-0.891688094942324)(0.840828142810853,-0.922561083505273)(0.828000273818474,-0.952514443116645)(0.814347036146091,-0.981518315616167)(0.799882039637941,-1.00954378931296)(0.784619703317123,-1.03656292780536)(0.768575241012402,-1.06254879782852)(0.751764646192732,-1.08747549610205)(0.734204676024621,-1.11131817515104)(0.715912834668221,-1.13405306807447)(0.6969073558288,-1.15565751223665)(0.67720718458099,-1.1761099718578)(0.656831958483923,-1.19539005948137)(0.635801988006086,-1.21347855629672)(0.614138236279404,-1.23035743129684)(0.591862298202734,-1.24600985925206)(0.5689963789156,-1.26042023748179)(0.545563271663627,-1.27357420140762)(0.521586335077739,-1.28545863887223)(0.497089469889768,-1.29606170320991)(0.472097095107681,-1.30537282505553)(0.446634123674187,-1.31338272288033)(0.420725937632972,-1.32008341224398)(0.394398362827322,-1.3254682137536)(0.367677643156368,-1.32953175972191)(0.340590414414589,-1.33226999951795)(0.313163677740681,-1.33368020360472)(0.285424772702225,-1.33376096626012)(0.257401350043022,-1.33251220697818)(0.22912134412022,-1.32993517054932)(0.200612945058747,-1.32603242581948)(0.17190457065078,-1.3208078631295)(0.143024838028267,-1.31426669043708)(0.114002535136753,-1.30641542812541)(0.0848665920389273,-1.29726190250352)(0.0556460520765077,-1.28681523800482)(0.0263700429192075,-1.27508584809166)(-0.00293225247036111,-1.262085424875)(-0.0322316249268976,-1.24782692745942)(-0.0614988681987447,-1.23232456902525)(-0.0907048080613154,-1.21559380266051)(-0.119820331398594,-1.19765130595697)(-0.148816415223724,-1.17851496438554)(-0.177664155609751,-1.15820385346768)(-0.206334796501687,-1.13673821976047)(-0.234799758381174,-1.11413946067441)(-0.263030666755163,-1.09043010314404)(-0.290999380440229,-1.06563378117256)(-0.318678019614321,-1.03977521227297)(-0.346038993607961,-1.01288017282911)(-0.373055028407238,-0.984975472401219)(-0.399699193841128,-0.95608892700153)(-0.425944930426077,-0.926249331366716)(-0.451766075841075,-0.895486430254648)(-0.477136891006823,-0.863830888794174)(-0.502032085743009,-0.831314261917456)(-0.526426843978106,-0.797968962905324)(-0.550296848486578,-0.763828231077018)(-0.573618305128814,-0.728926098656502)(-0.596367966569645,-0.693297356848415)(-0.618523155451798,-0.656977521157431)(-0.640061787001168,-0.620002795985639)(-0.660962391041416,-0.582410038543202)(-0.681204133395892,-0.544236722108295)(-0.700766836655609,-0.505520898672919)(-0.719631000292514,-0.466301161011853)(-0.737777820098042,-0.426616604212535)(-0.755189206927561,-0.386506786704228)(-0.771847804732022,-0.346011690825319)(-0.787737007858849,-0.305171682968054)(-0.802840977604811,-0.264027473340437)(-0.81714465800439,-0.222620075385419)(-0.830633790837892,-0.180990764897791)(-0.843294929844352,-0.139181038879588)(-0.855115454125058,-0.0972325741749711)(-0.866083580724339,-0.0551871859258348)(-0.876188376375068,-0.0130867858895771)(-0.885419768397188,0.0290266593394634)(-0.893768554738367,0.0711111701632126)(-0.901226413146815,0.113124795826041)(-0.907785909467079,0.155025656232192)(-0.913440505050574,0.196771983692766)(-0.918184563273448,0.238322164560668)(-0.922013355155292,0.279634780711986)(-0.924923064073092,0.320668650832492)(-0.926910789565718,0.361382871468057)(-0.927974550225172,0.401736857798115)(-0.928113285671692,0.441690384091484)(-0.92732685761077,0.481203623804263)(-0.925616049971,0.520237189279784)(-0.922982568122642,0.558752171011094)(-0.919429037177675,0.596710176426792)(-0.914958999373027,0.634073368161582)(-0.909576910539593,0.670804501773381)(-0.903288135660571,0.70686696286939)(-0.896098943523526,0.742224803604112)(-0.888016500471528,0.776842778512957)(-0.879048863259586,0.810686379645672)(-0.869204971023497,0.843721870964631)(-0.858494636369125,0.875916321973642)(-0.846928535590977,0.907237640543786)(-0.834518198029844,0.937654604903546)(-0.821275994580104,0.967136894761354)(-0.807215125358141,0.995655121529505)(-0.792349606544187,1.02318085761935)(-0.776694256410687,1.04968666477855)(-0.760264680551119,1.07514612144207)(-0.743077256324005,1.09953384906983)(-0.725149116527602,1.12282553744456)(-0.706498132321554,1.14499796890475)(-0.687142895412531,1.16602904148851)(-0.667102699521616,1.18589779096532)(-0.646397521151901,1.20458441173361)(-0.625047999675473,1.2220702765634)(-0.603075416759641,1.23833795516435)(-0.580501675152909,1.25337123156064)(-0.557349276851835,1.26715512025544)(-0.533641300670558,1.27967588116872)(-0.509401379235326,1.2909210333337)(-0.484653675426989,1.30087936733815) 
};
\end{axis}
\end{tikzpicture}%
