%!PS-Adobe-3.0 EPSF-3.0
%%Creator: MATLAB, The Mathworks, Inc. Version 7.9.0.529 (R2009b). Operating System: Linux 2.6.32-30-generic #59-Ubuntu SMP Tue Mar 1 21:30:21 UTC 2011 i686.
%%Title: /home/yilin/yilin/journal10sensor/firstrevision/figure8.eps
%%CreationDate: 04/01/2011  22:16:56
%%DocumentNeededFonts: Helvetica
%%DocumentProcessColors: Cyan Magenta Yellow Black
%%LanguageLevel: 2
%%Pages: 1
%%BoundingBox:    68   218   542   574
%%EndComments

%%BeginProlog
% MathWorks dictionary
/MathWorks 160 dict begin
% definition operators
/bdef {bind def} bind def
/ldef {load def} bind def
/xdef {exch def} bdef
/xstore {exch store} bdef
% operator abbreviations
/c  /clip ldef
/cc /concat ldef
/cp /closepath ldef
/gr /grestore ldef
/gs /gsave ldef
/mt /moveto ldef
/np /newpath ldef
/cm /currentmatrix ldef
/sm /setmatrix ldef
/rm /rmoveto ldef
/rl /rlineto ldef
/s {show newpath} bdef
/sc {setcmykcolor} bdef
/sr /setrgbcolor ldef
/sg /setgray ldef
/w /setlinewidth ldef
/j /setlinejoin ldef
/cap /setlinecap ldef
/rc {rectclip} bdef
/rf {rectfill} bdef
% page state control
/pgsv () def
/bpage {/pgsv save def} bdef
/epage {pgsv restore} bdef
/bplot /gsave ldef
/eplot {stroke grestore} bdef
% orientation switch
/portraitMode 0 def /landscapeMode 1 def /rotateMode 2 def
% coordinate system mappings
/dpi2point 0 def
% font control
/FontSize 0 def
/FMS {/FontSize xstore findfont [FontSize 0 0 FontSize neg 0 0]
  makefont setfont} bdef
/reencode {exch dup where {pop load} {pop StandardEncoding} ifelse
  exch dup 3 1 roll findfont dup length dict begin
  { 1 index /FID ne {def}{pop pop} ifelse } forall
  /Encoding exch def currentdict end definefont pop} bdef
/isroman {findfont /CharStrings get /Agrave known} bdef
/FMSR {3 1 roll 1 index dup isroman {reencode} {pop pop} ifelse
  exch FMS} bdef
/csm {1 dpi2point div -1 dpi2point div scale neg translate
 dup landscapeMode eq {pop -90 rotate}
  {rotateMode eq {90 rotate} if} ifelse} bdef
% line types: solid, dotted, dashed, dotdash
/SO { [] 0 setdash } bdef
/DO { [.5 dpi2point mul 4 dpi2point mul] 0 setdash } bdef
/DA { [6 dpi2point mul] 0 setdash } bdef
/DD { [.5 dpi2point mul 4 dpi2point mul 6 dpi2point mul 4
  dpi2point mul] 0 setdash } bdef
% macros for lines and objects
/L {lineto stroke} bdef
/MP {3 1 roll moveto 1 sub {rlineto} repeat} bdef
/AP {{rlineto} repeat} bdef
/PDlw -1 def
/W {/PDlw currentlinewidth def setlinewidth} def
/PP {closepath eofill} bdef
/DP {closepath stroke} bdef
/MR {4 -2 roll moveto dup  0 exch rlineto exch 0 rlineto
  neg 0 exch rlineto closepath} bdef
/FR {MR stroke} bdef
/PR {MR fill} bdef
/L1i {{currentfile picstr readhexstring pop} image} bdef
/tMatrix matrix def
/MakeOval {newpath tMatrix currentmatrix pop translate scale
0 0 1 0 360 arc tMatrix setmatrix} bdef
/FO {MakeOval stroke} bdef
/PO {MakeOval fill} bdef
/PD {currentlinewidth 2 div 0 360 arc fill
   PDlw -1 eq not {PDlw w /PDlw -1 def} if} def
/FA {newpath tMatrix currentmatrix pop translate scale
  0 0 1 5 -2 roll arc tMatrix setmatrix stroke} bdef
/PA {newpath tMatrix currentmatrix pop	translate 0 0 moveto scale
  0 0 1 5 -2 roll arc closepath tMatrix setmatrix fill} bdef
/FAn {newpath tMatrix currentmatrix pop translate scale
  0 0 1 5 -2 roll arcn tMatrix setmatrix stroke} bdef
/PAn {newpath tMatrix currentmatrix pop translate 0 0 moveto scale
  0 0 1 5 -2 roll arcn closepath tMatrix setmatrix fill} bdef
/vradius 0 def /hradius 0 def /lry 0 def
/lrx 0 def /uly 0 def /ulx 0 def /rad 0 def
/MRR {/vradius xdef /hradius xdef /lry xdef /lrx xdef /uly xdef
  /ulx xdef newpath tMatrix currentmatrix pop ulx hradius add uly
  vradius add translate hradius vradius scale 0 0 1 180 270 arc 
  tMatrix setmatrix lrx hradius sub uly vradius add translate
  hradius vradius scale 0 0 1 270 360 arc tMatrix setmatrix
  lrx hradius sub lry vradius sub translate hradius vradius scale
  0 0 1 0 90 arc tMatrix setmatrix ulx hradius add lry vradius sub
  translate hradius vradius scale 0 0 1 90 180 arc tMatrix setmatrix
  closepath} bdef
/FRR {MRR stroke } bdef
/PRR {MRR fill } bdef
/MlrRR {/lry xdef /lrx xdef /uly xdef /ulx xdef /rad lry uly sub 2 div def
  newpath tMatrix currentmatrix pop ulx rad add uly rad add translate
  rad rad scale 0 0 1 90 270 arc tMatrix setmatrix lrx rad sub lry rad
  sub translate rad rad scale 0 0 1 270 90 arc tMatrix setmatrix
  closepath} bdef
/FlrRR {MlrRR stroke } bdef
/PlrRR {MlrRR fill } bdef
/MtbRR {/lry xdef /lrx xdef /uly xdef /ulx xdef /rad lrx ulx sub 2 div def
  newpath tMatrix currentmatrix pop ulx rad add uly rad add translate
  rad rad scale 0 0 1 180 360 arc tMatrix setmatrix lrx rad sub lry rad
  sub translate rad rad scale 0 0 1 0 180 arc tMatrix setmatrix
  closepath} bdef
/FtbRR {MtbRR stroke } bdef
/PtbRR {MtbRR fill } bdef
/stri 6 array def /dtri 6 array def
/smat 6 array def /dmat 6 array def
/tmat1 6 array def /tmat2 6 array def /dif 3 array def
/asub {/ind2 exch def /ind1 exch def dup dup
  ind1 get exch ind2 get sub exch } bdef
/tri_to_matrix {
  2 0 asub 3 1 asub 4 0 asub 5 1 asub
  dup 0 get exch 1 get 7 -1 roll astore } bdef
/compute_transform {
  dmat dtri tri_to_matrix tmat1 invertmatrix 
  smat stri tri_to_matrix tmat2 concatmatrix } bdef
/ds {stri astore pop} bdef
/dt {dtri astore pop} bdef
/db {2 copy /cols xdef /rows xdef mul dup 3 mul string
  currentfile 
  3 index 0 eq {/ASCIIHexDecode filter}
  {/ASCII85Decode filter 3 index 2 eq {/RunLengthDecode filter} if }
  ifelse exch readstring pop
  dup 0 3 index getinterval /rbmap xdef
  dup 2 index dup getinterval /gbmap xdef
  1 index dup 2 mul exch getinterval /bbmap xdef pop pop}bdef
/it {gs np dtri aload pop moveto lineto lineto cp c
  cols rows 8 compute_transform 
  rbmap gbmap bbmap true 3 colorimage gr}bdef
/il {newpath moveto lineto stroke}bdef
currentdict end def
%%EndProlog

%%BeginSetup
MathWorks begin

0 cap

end
%%EndSetup

%%Page: 1 1
%%BeginPageSetup
%%PageBoundingBox:    68   218   542   574
MathWorks begin
bpage
%%EndPageSetup

%%BeginObject: obj1
bplot

/dpi2point 12 def
portraitMode 0816 6888 csm

    0     0  5697  4269 rc
85 dict begin %Colortable dictionary
/c0 { 0.000000 0.000000 0.000000 sr} bdef
/c1 { 1.000000 1.000000 1.000000 sr} bdef
/c2 { 0.900000 0.000000 0.000000 sr} bdef
/c3 { 0.000000 0.820000 0.000000 sr} bdef
/c4 { 0.000000 0.000000 0.800000 sr} bdef
/c5 { 0.910000 0.820000 0.320000 sr} bdef
/c6 { 1.000000 0.260000 0.820000 sr} bdef
/c7 { 0.000000 0.820000 0.820000 sr} bdef
c0
1 j
1 sg
   0    0 5698 4270 rf
6 w
0 3479 4416 0 0 -3479 740 3799 4 MP
PP
-4416 0 0 3479 4416 0 0 -3479 740 3799 5 MP stroke
4 w
DO
SO
6 w
0 sg
 740 3799 mt 5156 3799 L
 740  320 mt 5156  320 L
 740 3799 mt  740  320 L
5156 3799 mt 5156  320 L
 740 3799 mt 5156 3799 L
 740 3799 mt  740  320 L
 740 3799 mt  740 3754 L
 740  320 mt  740  364 L
%%IncludeResource: font Helvetica
/Helvetica /ISOLatin1Encoding 144 FMSR

 640 3967 mt 
(0.9) s
1231 3799 mt 1231 3754 L
1231  320 mt 1231  364 L
1191 3967 mt 
(1) s
1722 3799 mt 1722 3754 L
1722  320 mt 1722  364 L
1622 3967 mt 
(1.1) s
2212 3799 mt 2212 3754 L
2212  320 mt 2212  364 L
2112 3967 mt 
(1.2) s
2703 3799 mt 2703 3754 L
2703  320 mt 2703  364 L
2603 3967 mt 
(1.3) s
3193 3799 mt 3193 3754 L
3193  320 mt 3193  364 L
3093 3967 mt 
(1.4) s
3684 3799 mt 3684 3754 L
3684  320 mt 3684  364 L
3584 3967 mt 
(1.5) s
4174 3799 mt 4174 3754 L
4174  320 mt 4174  364 L
4074 3967 mt 
(1.6) s
4665 3799 mt 4665 3754 L
4665  320 mt 4665  364 L
4565 3967 mt 
(1.7) s
5156 3799 mt 5156 3754 L
5156  320 mt 5156  364 L
5056 3967 mt 
(1.8) s
 740 3799 mt  785 3799 L
5156 3799 mt 5111 3799 L
 626 3852 mt 
(0) s
 740 3103 mt  785 3103 L
5156 3103 mt 5111 3103 L
 626 3156 mt 
(5) s
 740 2407 mt  785 2407 L
5156 2407 mt 5111 2407 L
 546 2460 mt 
(10) s
 740 1711 mt  785 1711 L
5156 1711 mt 5111 1711 L
 546 1764 mt 
(15) s
 740 1015 mt  785 1015 L
5156 1015 mt 5111 1015 L
 546 1068 mt 
(20) s
 740  320 mt  785  320 L
5156  320 mt 5111  320 L
 546  373 mt 
(25) s
 740 3799 mt 5156 3799 L
 740  320 mt 5156  320 L
 740 3799 mt  740  320 L
5156 3799 mt 5156  320 L
gs 740 320 4417 3480 rc
/c8 { 1.000000 0.000000 0.000000 sr} bdef
c8
0 0 196 0 0 0 1133 3799 4 MP
PP
0 sg
-196 0 0 0 196 0 0 0 1133 3799 5 MP stroke
c8
0 0 196 0 0 0 1329 3799 4 MP
PP
0 sg
-196 0 0 0 196 0 0 0 1329 3799 5 MP stroke
c8
0 0 197 0 0 0 1525 3799 4 MP
PP
0 sg
-197 0 0 0 197 0 0 0 1525 3799 5 MP stroke
c8
0 140 196 0 0 -140 1722 3799 4 MP
PP
0 sg
-196 0 0 140 196 0 0 -140 1722 3799 5 MP stroke
c8
0 0 196 0 0 0 1918 3799 4 MP
PP
0 sg
-196 0 0 0 196 0 0 0 1918 3799 5 MP stroke
c8
0 418 196 0 0 -418 2114 3799 4 MP
PP
0 sg
-196 0 0 418 196 0 0 -418 2114 3799 5 MP stroke
c8
0 1253 196 0 0 -1253 2310 3799 4 MP
PP
0 sg
-196 0 0 1253 196 0 0 -1253 2310 3799 5 MP stroke
c8
0 975 197 0 0 -975 2506 3799 4 MP
PP
0 sg
-197 0 0 975 197 0 0 -975 2506 3799 5 MP stroke
c8
0 2227 196 0 0 -2227 2703 3799 4 MP
PP
0 sg
-196 0 0 2227 196 0 0 -2227 2703 3799 5 MP stroke
c8
0 3201 196 0 0 -3201 2899 3799 4 MP
PP
0 sg
-196 0 0 3201 196 0 0 -3201 2899 3799 5 MP stroke
c8
0 2505 196 0 0 -2505 3095 3799 4 MP
PP
0 sg
-196 0 0 2505 196 0 0 -2505 3095 3799 5 MP stroke
c8
0 1531 197 0 0 -1531 3291 3799 4 MP
PP
0 sg
-197 0 0 1531 197 0 0 -1531 3291 3799 5 MP stroke
c8
0 835 196 0 0 -835 3488 3799 4 MP
PP
0 sg
-196 0 0 835 196 0 0 -835 3488 3799 5 MP stroke
c8
0 557 196 0 0 -557 3684 3799 4 MP
PP
0 sg
-196 0 0 557 196 0 0 -557 3684 3799 5 MP stroke
c8
0 140 196 0 0 -140 3880 3799 4 MP
PP
0 sg
-196 0 0 140 196 0 0 -140 3880 3799 5 MP stroke
c8
0 140 197 0 0 -140 4076 3799 4 MP
PP
0 sg
-197 0 0 140 197 0 0 -140 4076 3799 5 MP stroke
DA
24 w
/c9 { 0.000000 0.000000 1.000000 sr} bdef
c9
0 -3479 2997 3799 2 MP stroke
gr

24 w
c9
DA
0 sg
2779 4128 mt 
(Ratio) s
SO
6 w

end %%Color Dict

eplot
%%EndObject

epage
end

showpage

%%Trailer
%%EOF
