%!PS-Adobe-3.0 EPSF-3.0
%%Creator: MATLAB, The MathWorks, Inc. Version 7.13.0.564 (R2011b). Operating System: Darwin 11.3.0 Darwin Kernel Version 11.3.0: Thu Jan 12 18:47:41 PST 2012; root:xnu-1699.24.23~1/RELEASE_X86_64 x86_64.
%%Title: /Users/bruno/Work/CMU/students/yilin/cdc2012/networkedcontrol/codes/tcp.eps
%%CreationDate: 03/08/2012  02:29:03
%%DocumentNeededFonts: Helvetica
%%DocumentProcessColors: Cyan Magenta Yellow Black
%%LanguageLevel: 2
%%Pages: 1
%%BoundingBox:    -9   188   621   603
%%EndComments

%%BeginProlog
% MathWorks dictionary
/MathWorks 160 dict begin
% definition operators
/bdef {bind def} bind def
/ldef {load def} bind def
/xdef {exch def} bdef
/xstore {exch store} bdef
% operator abbreviations
/c  /clip ldef
/cc /concat ldef
/cp /closepath ldef
/gr /grestore ldef
/gs /gsave ldef
/mt /moveto ldef
/np /newpath ldef
/cm /currentmatrix ldef
/sm /setmatrix ldef
/rm /rmoveto ldef
/rl /rlineto ldef
/s {show newpath} bdef
/sc {setcmykcolor} bdef
/sr /setrgbcolor ldef
/sg /setgray ldef
/w /setlinewidth ldef
/j /setlinejoin ldef
/cap /setlinecap ldef
/rc {rectclip} bdef
/rf {rectfill} bdef
% page state control
/pgsv () def
/bpage {/pgsv save def} bdef
/epage {pgsv restore} bdef
/bplot /gsave ldef
/eplot {stroke grestore} bdef
% orientation switch
/portraitMode 0 def /landscapeMode 1 def /rotateMode 2 def
% coordinate system mappings
/dpi2point 0 def
% font control
/FontSize 0 def
/FMS {/FontSize xstore findfont [FontSize 0 0 FontSize neg 0 0]
  makefont setfont} bdef
/reencode {exch dup where {pop load} {pop StandardEncoding} ifelse
  exch dup 3 1 roll findfont dup length dict begin
  { 1 index /FID ne {def}{pop pop} ifelse } forall
  /Encoding exch def currentdict end definefont pop} bdef
/isroman {findfont /CharStrings get /Agrave known} bdef
/FMSR {3 1 roll 1 index dup isroman {reencode} {pop pop} ifelse
  exch FMS} bdef
/csm {1 dpi2point div -1 dpi2point div scale neg translate
 dup landscapeMode eq {pop -90 rotate}
  {rotateMode eq {90 rotate} if} ifelse} bdef
% line types: solid, dotted, dashed, dotdash
/SO { [] 0 setdash } bdef
/DO { [.5 dpi2point mul 4 dpi2point mul] 0 setdash } bdef
/DA { [6 dpi2point mul] 0 setdash } bdef
/DD { [.5 dpi2point mul 4 dpi2point mul 6 dpi2point mul 4
  dpi2point mul] 0 setdash } bdef
% macros for lines and objects
/L {lineto stroke} bdef
/MP {3 1 roll moveto 1 sub {rlineto} repeat} bdef
/AP {{rlineto} repeat} bdef
/PDlw -1 def
/W {/PDlw currentlinewidth def setlinewidth} def
/PP {closepath eofill} bdef
/DP {closepath stroke} bdef
/MR {4 -2 roll moveto dup  0 exch rlineto exch 0 rlineto
  neg 0 exch rlineto closepath} bdef
/FR {MR stroke} bdef
/PR {MR fill} bdef
/L1i {{currentfile picstr readhexstring pop} image} bdef
/tMatrix matrix def
/MakeOval {newpath tMatrix currentmatrix pop translate scale
0 0 1 0 360 arc tMatrix setmatrix} bdef
/FO {MakeOval stroke} bdef
/PO {MakeOval fill} bdef
/PD {currentlinewidth 2 div 0 360 arc fill
   PDlw -1 eq not {PDlw w /PDlw -1 def} if} def
/FA {newpath tMatrix currentmatrix pop translate scale
  0 0 1 5 -2 roll arc tMatrix setmatrix stroke} bdef
/PA {newpath tMatrix currentmatrix pop	translate 0 0 moveto scale
  0 0 1 5 -2 roll arc closepath tMatrix setmatrix fill} bdef
/FAn {newpath tMatrix currentmatrix pop translate scale
  0 0 1 5 -2 roll arcn tMatrix setmatrix stroke} bdef
/PAn {newpath tMatrix currentmatrix pop translate 0 0 moveto scale
  0 0 1 5 -2 roll arcn closepath tMatrix setmatrix fill} bdef
/vradius 0 def /hradius 0 def /lry 0 def
/lrx 0 def /uly 0 def /ulx 0 def /rad 0 def
/MRR {/vradius xdef /hradius xdef /lry xdef /lrx xdef /uly xdef
  /ulx xdef newpath tMatrix currentmatrix pop ulx hradius add uly
  vradius add translate hradius vradius scale 0 0 1 180 270 arc 
  tMatrix setmatrix lrx hradius sub uly vradius add translate
  hradius vradius scale 0 0 1 270 360 arc tMatrix setmatrix
  lrx hradius sub lry vradius sub translate hradius vradius scale
  0 0 1 0 90 arc tMatrix setmatrix ulx hradius add lry vradius sub
  translate hradius vradius scale 0 0 1 90 180 arc tMatrix setmatrix
  closepath} bdef
/FRR {MRR stroke } bdef
/PRR {MRR fill } bdef
/MlrRR {/lry xdef /lrx xdef /uly xdef /ulx xdef /rad lry uly sub 2 div def
  newpath tMatrix currentmatrix pop ulx rad add uly rad add translate
  rad rad scale 0 0 1 90 270 arc tMatrix setmatrix lrx rad sub lry rad
  sub translate rad rad scale 0 0 1 270 90 arc tMatrix setmatrix
  closepath} bdef
/FlrRR {MlrRR stroke } bdef
/PlrRR {MlrRR fill } bdef
/MtbRR {/lry xdef /lrx xdef /uly xdef /ulx xdef /rad lrx ulx sub 2 div def
  newpath tMatrix currentmatrix pop ulx rad add uly rad add translate
  rad rad scale 0 0 1 180 360 arc tMatrix setmatrix lrx rad sub lry rad
  sub translate rad rad scale 0 0 1 0 180 arc tMatrix setmatrix
  closepath} bdef
/FtbRR {MtbRR stroke } bdef
/PtbRR {MtbRR fill } bdef
/stri 6 array def /dtri 6 array def
/smat 6 array def /dmat 6 array def
/tmat1 6 array def /tmat2 6 array def /dif 3 array def
/asub {/ind2 exch def /ind1 exch def dup dup
  ind1 get exch ind2 get sub exch } bdef
/tri_to_matrix {
  2 0 asub 3 1 asub 4 0 asub 5 1 asub
  dup 0 get exch 1 get 7 -1 roll astore } bdef
/compute_transform {
  dmat dtri tri_to_matrix tmat1 invertmatrix 
  smat stri tri_to_matrix tmat2 concatmatrix } bdef
/ds {stri astore pop} bdef
/dt {dtri astore pop} bdef
/db {2 copy /cols xdef /rows xdef mul dup 3 mul string
  currentfile 
  3 index 0 eq {/ASCIIHexDecode filter}
  {/ASCII85Decode filter 3 index 2 eq {/RunLengthDecode filter} if }
  ifelse exch readstring pop
  dup 0 3 index getinterval /rbmap xdef
  dup 2 index dup getinterval /gbmap xdef
  1 index dup 2 mul exch getinterval /bbmap xdef pop pop}bdef
/it {gs np dtri aload pop moveto lineto lineto cp c
  cols rows 8 compute_transform 
  rbmap gbmap bbmap true 3 colorimage gr}bdef
/il {newpath moveto lineto stroke}bdef
currentdict end def
%%EndProlog

%%BeginSetup
MathWorks begin

0 cap

end
%%EndSetup

%%Page: 1 1
%%BeginPageSetup
%%PageBoundingBox:    -9   188   621   603
MathWorks begin
bpage
%%EndPageSetup

%%BeginObject: obj1
bplot

/dpi2point 12 def
portraitMode -0108 7236 csm

    0     0  7560  4980 rc
86 dict begin %Colortable dictionary
/c0 { 0.000000 0.000000 0.000000 sr} bdef
/c1 { 1.000000 1.000000 1.000000 sr} bdef
/c2 { 0.900000 0.000000 0.000000 sr} bdef
/c3 { 0.000000 0.820000 0.000000 sr} bdef
/c4 { 0.000000 0.000000 0.800000 sr} bdef
/c5 { 0.910000 0.820000 0.320000 sr} bdef
/c6 { 1.000000 0.260000 0.820000 sr} bdef
/c7 { 0.000000 0.820000 0.820000 sr} bdef
c0
1 j
1 sg
   0    0 7561 4981 rf
6 w
0 4058 5859 0 0 -4058 983 4432 4 MP
PP
-5859 0 0 4058 5859 0 0 -4058 983 4432 5 MP stroke
4 w
DO
SO
6 w
0 sg
 983 4432 mt 6842 4432 L
 983  374 mt 6842  374 L
 983 4432 mt  983  374 L
6842 4432 mt 6842  374 L
 983 4432 mt 6842 4432 L
 983 4432 mt  983  374 L
1327 4432 mt 1327 4373 L
1327  374 mt 1327  432 L
%%IncludeResource: font Helvetica
/Helvetica /ISOLatin1Encoding 192 FMSR

1194 4644 mt 
(0.2) s
2016 4432 mt 2016 4373 L
2016  374 mt 2016  432 L
1883 4644 mt 
(0.3) s
2706 4432 mt 2706 4373 L
2706  374 mt 2706  432 L
2573 4644 mt 
(0.4) s
3395 4432 mt 3395 4373 L
3395  374 mt 3395  432 L
3262 4644 mt 
(0.5) s
4084 4432 mt 4084 4373 L
4084  374 mt 4084  432 L
3951 4644 mt 
(0.6) s
4774 4432 mt 4774 4373 L
4774  374 mt 4774  432 L
4641 4644 mt 
(0.7) s
5463 4432 mt 5463 4373 L
5463  374 mt 5463  432 L
5330 4644 mt 
(0.8) s
6152 4432 mt 6152 4373 L
6152  374 mt 6152  432 L
6019 4644 mt 
(0.9) s
6842 4432 mt 6842 4373 L
6842  374 mt 6842  432 L
6789 4644 mt 
(1) s
 983 4432 mt 1041 4432 L
6842 4432 mt 6783 4432 L
 842 4503 mt 
(0) s
 983 3272 mt 1041 3272 L
6842 3272 mt 6783 3272 L
 735 3343 mt 
(10) s
 983 2113 mt 1041 2113 L
6842 2113 mt 6783 2113 L
 735 2184 mt 
(20) s
 983  953 mt 1041  953 L
6842  953 mt 6783  953 L
 735 1024 mt 
(30) s
 983 4432 mt 6842 4432 L
 983  374 mt 6842  374 L
 983 4432 mt  983  374 L
6842 4432 mt 6842  374 L
gs 983 374 5860 4059 rc
gr

/c8 { 0.847059 0.160784 0.000000 sr} bdef
c8
4024 3568 mt 4144 3568 L
4084 3508 mt 4084 3628 L
4714 3980 mt 4834 3980 L
4774 3920 mt 4774 4040 L
5403 4119 mt 5523 4119 L
5463 4059 mt 5463 4179 L
6092 4191 mt 6212 4191 L
6152 4131 mt 6152 4251 L
4042 3526 mt 4126 3610 L
4126 3526 mt 4042 3610 L
4732 3938 mt 4816 4022 L
4816 3938 mt 4732 4022 L
5421 4077 mt 5505 4161 L
5505 4077 mt 5421 4161 L
6110 4149 mt 6194 4233 L
6194 4149 mt 6110 4233 L
gs 983 374 5860 4059 rc
24 w
/c9 { 0.000000 0.000000 1.000000 sr} bdef
c9
69 3 69 3 69 3 69 3 68 3 69 3 69 3 69 3 
69 3 69 3 69 3 69 3 69 3 69 3 69 3 69 3 
69 3 69 3 68 3 69 3 69 2 69 3 69 3 69 3 
69 3 69 3 69 3 69 3 69 3 69 3 69 3 69 3 
68 5 69 13 69 13 69 14 69 13 69 13 69 14 69 13 
69 13 69 14 69 13 69 14 69 13 69 13 68 14 69 13 
69 13 69 14 69 43 69 43 69 43 69 43 69 43 69 43 
69 43 69 43 69 43 69 103 68 120 69 120 69 120 69 121 
69 120 69 310 69 310 69 311 69 334 69 761 1327 777 71 MP stroke
gr

24 w
c9
0 sg
3851 4796 mt 
(r) s
%%IncludeResource: font Helvetica
/Helvetica /ISOLatin1Encoding 144 FMSR

3914 4892 mt 
(*) s
%%IncludeResource: font Helvetica
/Helvetica /ISOLatin1Encoding 192 FMSR

 624 2554 mt  -90 rotate
(J\() s
90 rotate
%%IncludeResource: font Symbol
/Symbol /ISOLatin1Encoding 192 FMSR

 624 2395 mt  -90 rotate
(g) s
90 rotate
%%IncludeResource: font Helvetica
/Helvetica /ISOLatin1Encoding 192 FMSR

 624 2317 mt  -90 rotate
(\)) s
90 rotate
%%IncludeResource: font Helvetica
/Helvetica /ISOLatin1Encoding 120 FMSR

 966 4475 mt 
( ) s
6826  416 mt 
( ) s
6 w
1 sg
0 558 1260 0 0 -558 5309 1374 4 MP
PP
-1260 0 0 558 1260 0 0 -558 5309 1374 5 MP stroke
4 w
DO
SO
6 w
0 sg
5309 1374 mt 6569 1374 L
5309  816 mt 6569  816 L
5309 1374 mt 5309  816 L
6569 1374 mt 6569  816 L
5309 1374 mt 6569 1374 L
5309 1374 mt 5309  816 L
5309 1374 mt 6569 1374 L
5309  816 mt 6569  816 L
5309 1374 mt 5309  816 L
6569 1374 mt 6569  816 L
%%IncludeResource: font Helvetica
/Helvetica /ISOLatin1Encoding 192 FMSR

5778 1034 mt 
(No-ACK) s
gs 5309 816 1261 559 rc
gs 5440 845 243 243 rc
c8
5501  966 mt 5621  966 L
5561  906 mt 5561 1026 L
5519  924 mt 5603 1008 L
5603  924 mt 5519 1008 L
gr

c8
gr

c8
0 sg
5778 1293 mt 
(ACK) s
gs 5309 816 1261 559 rc
24 w
c9
360 0 5381 1223 2 MP stroke
6 w
gr

c9

end %%Color Dict

eplot
%%EndObject

epage
end

showpage

%%Trailer
%%EOF
