%!PS-Adobe-3.0 EPSF-3.0
%%Creator: MATLAB, The Mathworks, Inc. Version 7.3.0.267 (R2006b). Operating System: Microsoft Windows XP.
%%Title: D:\cygwin\home\Yilin Mo\yilin\security\Allerton2009\simulation\fig1.eps
%%CreationDate: 07/05/2009  22:57:51
%%DocumentNeededFonts: Helvetica
%%+ Helvetica-Bold
%%DocumentProcessColors: Cyan Magenta Yellow Black
%%LanguageLevel: 2
%%Pages: 1
%%BoundingBox:    35   187   575   604
%%EndComments

%%BeginProlog
% MathWorks dictionary
/MathWorks 160 dict begin
% definition operators
/bdef {bind def} bind def
/ldef {load def} bind def
/xdef {exch def} bdef
/xstore {exch store} bdef
% operator abbreviations
/c  /clip ldef
/cc /concat ldef
/cp /closepath ldef
/gr /grestore ldef
/gs /gsave ldef
/mt /moveto ldef
/np /newpath ldef
/cm /currentmatrix ldef
/sm /setmatrix ldef
/rm /rmoveto ldef
/rl /rlineto ldef
/s {show newpath} bdef
/sc {setcmykcolor} bdef
/sr /setrgbcolor ldef
/sg /setgray ldef
/w /setlinewidth ldef
/j /setlinejoin ldef
/cap /setlinecap ldef
/rc {rectclip} bdef
/rf {rectfill} bdef
% page state control
/pgsv () def
/bpage {/pgsv save def} bdef
/epage {pgsv restore} bdef
/bplot /gsave ldef
/eplot {stroke grestore} bdef
% orientation switch
/portraitMode 0 def /landscapeMode 1 def /rotateMode 2 def
% coordinate system mappings
/dpi2point 0 def
% font control
/FontSize 0 def
/FMS {/FontSize xstore findfont [FontSize 0 0 FontSize neg 0 0]
  makefont setfont} bdef
/ISOLatin1Encoding where {pop /WindowsLatin1Encoding 256 array bdef
ISOLatin1Encoding WindowsLatin1Encoding copy pop
/.notdef/.notdef/quotesinglbase/florin/quotedblbase/ellipsis/dagger
/daggerdbl/circumflex/perthousand/Scaron/guilsinglleft/OE/.notdef/.notdef
/.notdef/.notdef/quoteleft/quoteright/quotedblleft/quotedblright/bullet
/endash/emdash/tilde/trademark/scaron/guilsinglright/oe/.notdef/.notdef
/Ydieresis WindowsLatin1Encoding 128 32 getinterval astore pop}
{/WindowsLatin1Encoding StandardEncoding bdef} ifelse
/reencode {exch dup where {pop load} {pop StandardEncoding} ifelse
  exch dup 3 1 roll findfont dup length dict begin
  { 1 index /FID ne {def}{pop pop} ifelse } forall
  /Encoding exch def currentdict end definefont pop} bdef
/isroman {findfont /CharStrings get /Agrave known} bdef
/FMSR {3 1 roll 1 index dup isroman {reencode} {pop pop} ifelse
  exch FMS} bdef
/csm {1 dpi2point div -1 dpi2point div scale neg translate
 dup landscapeMode eq {pop -90 rotate}
  {rotateMode eq {90 rotate} if} ifelse} bdef
% line types: solid, dotted, dashed, dotdash
/SO { [] 0 setdash } bdef
/DO { [.5 dpi2point mul 4 dpi2point mul] 0 setdash } bdef
/DA { [6 dpi2point mul] 0 setdash } bdef
/DD { [.5 dpi2point mul 4 dpi2point mul 6 dpi2point mul 4
  dpi2point mul] 0 setdash } bdef
% macros for lines and objects
/L {lineto stroke} bdef
/MP {3 1 roll moveto 1 sub {rlineto} repeat} bdef
/AP {{rlineto} repeat} bdef
/PDlw -1 def
/W {/PDlw currentlinewidth def setlinewidth} def
/PP {closepath eofill} bdef
/DP {closepath stroke} bdef
/MR {4 -2 roll moveto dup  0 exch rlineto exch 0 rlineto
  neg 0 exch rlineto closepath} bdef
/FR {MR stroke} bdef
/PR {MR fill} bdef
/L1i {{currentfile picstr readhexstring pop} image} bdef
/tMatrix matrix def
/MakeOval {newpath tMatrix currentmatrix pop translate scale
0 0 1 0 360 arc tMatrix setmatrix} bdef
/FO {MakeOval stroke} bdef
/PO {MakeOval fill} bdef
/PD {currentlinewidth 2 div 0 360 arc fill
   PDlw -1 eq not {PDlw w /PDlw -1 def} if} def
/FA {newpath tMatrix currentmatrix pop translate scale
  0 0 1 5 -2 roll arc tMatrix setmatrix stroke} bdef
/PA {newpath tMatrix currentmatrix pop	translate 0 0 moveto scale
  0 0 1 5 -2 roll arc closepath tMatrix setmatrix fill} bdef
/FAn {newpath tMatrix currentmatrix pop translate scale
  0 0 1 5 -2 roll arcn tMatrix setmatrix stroke} bdef
/PAn {newpath tMatrix currentmatrix pop translate 0 0 moveto scale
  0 0 1 5 -2 roll arcn closepath tMatrix setmatrix fill} bdef
/vradius 0 def /hradius 0 def /lry 0 def
/lrx 0 def /uly 0 def /ulx 0 def /rad 0 def
/MRR {/vradius xdef /hradius xdef /lry xdef /lrx xdef /uly xdef
  /ulx xdef newpath tMatrix currentmatrix pop ulx hradius add uly
  vradius add translate hradius vradius scale 0 0 1 180 270 arc 
  tMatrix setmatrix lrx hradius sub uly vradius add translate
  hradius vradius scale 0 0 1 270 360 arc tMatrix setmatrix
  lrx hradius sub lry vradius sub translate hradius vradius scale
  0 0 1 0 90 arc tMatrix setmatrix ulx hradius add lry vradius sub
  translate hradius vradius scale 0 0 1 90 180 arc tMatrix setmatrix
  closepath} bdef
/FRR {MRR stroke } bdef
/PRR {MRR fill } bdef
/MlrRR {/lry xdef /lrx xdef /uly xdef /ulx xdef /rad lry uly sub 2 div def
  newpath tMatrix currentmatrix pop ulx rad add uly rad add translate
  rad rad scale 0 0 1 90 270 arc tMatrix setmatrix lrx rad sub lry rad
  sub translate rad rad scale 0 0 1 270 90 arc tMatrix setmatrix
  closepath} bdef
/FlrRR {MlrRR stroke } bdef
/PlrRR {MlrRR fill } bdef
/MtbRR {/lry xdef /lrx xdef /uly xdef /ulx xdef /rad lrx ulx sub 2 div def
  newpath tMatrix currentmatrix pop ulx rad add uly rad add translate
  rad rad scale 0 0 1 180 360 arc tMatrix setmatrix lrx rad sub lry rad
  sub translate rad rad scale 0 0 1 0 180 arc tMatrix setmatrix
  closepath} bdef
/FtbRR {MtbRR stroke } bdef
/PtbRR {MtbRR fill } bdef
/stri 6 array def /dtri 6 array def
/smat 6 array def /dmat 6 array def
/tmat1 6 array def /tmat2 6 array def /dif 3 array def
/asub {/ind2 exch def /ind1 exch def dup dup
  ind1 get exch ind2 get sub exch } bdef
/tri_to_matrix {
  2 0 asub 3 1 asub 4 0 asub 5 1 asub
  dup 0 get exch 1 get 7 -1 roll astore } bdef
/compute_transform {
  dmat dtri tri_to_matrix tmat1 invertmatrix 
  smat stri tri_to_matrix tmat2 concatmatrix } bdef
/ds {stri astore pop} bdef
/dt {dtri astore pop} bdef
/db {2 copy /cols xdef /rows xdef mul dup 3 mul string
  currentfile 
  3 index 0 eq {/ASCIIHexDecode filter}
  {/ASCII85Decode filter 3 index 2 eq {/RunLengthDecode filter} if }
  ifelse exch readstring pop
  dup 0 3 index getinterval /rbmap xdef
  dup 2 index dup getinterval /gbmap xdef
  1 index dup 2 mul exch getinterval /bbmap xdef pop pop}bdef
/it {gs np dtri aload pop moveto lineto lineto cp c
  cols rows 8 compute_transform 
  rbmap gbmap bbmap true 3 colorimage gr}bdef
/il {newpath moveto lineto stroke}bdef
currentdict end def
%%EndProlog

%%BeginSetup
MathWorks begin

0 cap

end
%%EndSetup

%%Page: 1 1
%%BeginPageSetup
%%PageBoundingBox:    35   187   575   604
MathWorks begin
bpage
%%EndPageSetup

%%BeginObject: obj1
bplot

/dpi2point 12 def
portraitMode 0420 7248 csm

    0     0  6480  5004 rc
87 dict begin %Colortable dictionary
/c0 { 0.000000 0.000000 0.000000 sr} bdef
/c1 { 1.000000 1.000000 1.000000 sr} bdef
/c2 { 0.900000 0.000000 0.000000 sr} bdef
/c3 { 0.000000 0.820000 0.000000 sr} bdef
/c4 { 0.000000 0.000000 0.800000 sr} bdef
/c5 { 0.910000 0.820000 0.320000 sr} bdef
/c6 { 1.000000 0.260000 0.820000 sr} bdef
/c7 { 0.000000 0.820000 0.820000 sr} bdef
c0
1 j
1 sg
   0    0 6481 5005 rf
6 w
0 4079 5022 0 0 -4079 842 4454 4 MP
PP
-5022 0 0 4079 5022 0 0 -4079 842 4454 5 MP stroke
4 w
DO
0 sg
 842 4454 mt  842  375 L
 842  375 mt  842  375 L
1344 4454 mt 1344  375 L
1344  375 mt 1344  375 L
1846 4454 mt 1846  375 L
1846  375 mt 1846  375 L
2348 4454 mt 2348  375 L
2348  375 mt 2348  375 L
2850 4454 mt 2850  375 L
2850  375 mt 2850  375 L
3353 4454 mt 3353  375 L
3353  375 mt 3353  375 L
3855 4454 mt 3855  375 L
3855  375 mt 3855  375 L
4357 4454 mt 4357  375 L
4357  375 mt 4357  375 L
4859 4454 mt 4859  375 L
4859  375 mt 4859  375 L
5361 4454 mt 5361  375 L
5361  375 mt 5361  375 L
5864 4454 mt 5864  375 L
5864  375 mt 5864  375 L
 842 4454 mt 5864 4454 L
5864 4454 mt 5864 4454 L
 842 3944 mt 5864 3944 L
5864 3944 mt 5864 3944 L
 842 3434 mt 5864 3434 L
5864 3434 mt 5864 3434 L
 842 2924 mt 5864 2924 L
5864 2924 mt 5864 2924 L
 842 2414 mt 5864 2414 L
5864 2414 mt 5864 2414 L
 842 1904 mt 5864 1904 L
5864 1904 mt 5864 1904 L
 842 1394 mt 5864 1394 L
5864 1394 mt 5864 1394 L
 842  884 mt 5864  884 L
5864  884 mt 5864  884 L
 842  375 mt 5864  375 L
5864  375 mt 5864  375 L
SO
6 w
 842 4454 mt 5864 4454 L
 842 4454 mt  842  375 L
 842 4454 mt  842 4403 L
%%IncludeResource: font Helvetica-Bold
/Helvetica-Bold /WindowsLatin1Encoding 144 FMSR

 762 4626 mt 
(10) s
1344 4454 mt 1344 4403 L
1264 4626 mt 
(11) s
1846 4454 mt 1846 4403 L
1766 4626 mt 
(12) s
2348 4454 mt 2348 4403 L
2268 4626 mt 
(13) s
2850 4454 mt 2850 4403 L
2770 4626 mt 
(14) s
3353 4454 mt 3353 4403 L
3273 4626 mt 
(15) s
3855 4454 mt 3855 4403 L
3775 4626 mt 
(16) s
4357 4454 mt 4357 4403 L
4277 4626 mt 
(17) s
4859 4454 mt 4859 4403 L
4779 4626 mt 
(18) s
5361 4454 mt 5361 4403 L
5281 4626 mt 
(19) s
5864 4454 mt 5864 4403 L
5784 4626 mt 
(20) s
 842 4454 mt  892 4454 L
 727 4509 mt 
(0) s
 842 3944 mt  892 3944 L
 527 3999 mt 
(0.05) s
 842 3434 mt  892 3434 L
 607 3489 mt 
(0.1) s
 842 2924 mt  892 2924 L
 527 2979 mt 
(0.15) s
 842 2414 mt  892 2414 L
 607 2469 mt 
(0.2) s
 842 1904 mt  892 1904 L
 527 1959 mt 
(0.25) s
 842 1394 mt  892 1394 L
 607 1449 mt 
(0.3) s
 842  884 mt  892  884 L
 527  939 mt 
(0.35) s
 842  375 mt  892  375 L
 607  430 mt 
(0.4) s
gs 842 375 5023 4080 rc
DA
36 w
/c8 { 0.000000 0.000000 1.000000 sr} bdef
c8
503 -2 502 72 502 -44 502 -82 502 -258 503 -610 502 -674 502 -641 
502 -614 502 -409 842 3983 11 MP stroke
gr

36 w
c8
DA
0 sg
3096 4787 mt 
(Time\(k\)) s
 440 2919 mt  -90 rotate
(Detection Rate) s
90 rotate
gs 842 375 5023 4080 rc
DO
/c9 { 0.501961 0.250980 0.000000 sr} bdef
c9
503 44 502 -17 502 -8 502 -5 502 -114 503 -459 502 -392 502 -387 
502 -446 502 -265 842 3923 11 MP stroke
DD
/c10 { 1.000000 0.000000 0.000000 sr} bdef
c10
503 -25 502 20 502 -42 502 40 502 21 503 -176 502 -194 502 -227 
502 -154 502 -198 842 3944 11 MP stroke
SO
/c11 { 0.000000 0.250980 0.501961 sr} bdef
c11
503 -11 502 -6 502 5 502 -3 502 69 503 14 502 11 502 17 
502 -17 502 -79 842 3914 11 MP stroke
gr

c11
SO
0 sg
%%IncludeResource: font Helvetica
/Helvetica /WindowsLatin1Encoding 120 FMSR

 825 4497 mt 
( ) s
5848  417 mt 
( ) s
6 w

end %%Color Dict

eplot
%%EndObject

epage
end

showpage

%%Trailer
%%EOF
