%!PS-Adobe-3.0 EPSF-3.0
%%Creator: MATLAB, The Mathworks, Inc. Version 7.9.0.529 (R2009b). Operating System: Linux 2.6.32-33-generic #72-Ubuntu SMP Fri Jul 29 21:08:37 UTC 2011 i686.
%%Title: /home/yilin/yilin/journal10sensor/generalgraph.eps
%%CreationDate: 09/25/2011  07:20:13
%%DocumentNeededFonts: Helvetica
%%DocumentProcessColors: Cyan Magenta Yellow Black
%%LanguageLevel: 2
%%Pages: 1
%%BoundingBox:   -94   168   707   624
%%EndComments

%%BeginProlog
% MathWorks dictionary
/MathWorks 160 dict begin
% definition operators
/bdef {bind def} bind def
/ldef {load def} bind def
/xdef {exch def} bdef
/xstore {exch store} bdef
% operator abbreviations
/c  /clip ldef
/cc /concat ldef
/cp /closepath ldef
/gr /grestore ldef
/gs /gsave ldef
/mt /moveto ldef
/np /newpath ldef
/cm /currentmatrix ldef
/sm /setmatrix ldef
/rm /rmoveto ldef
/rl /rlineto ldef
/s {show newpath} bdef
/sc {setcmykcolor} bdef
/sr /setrgbcolor ldef
/sg /setgray ldef
/w /setlinewidth ldef
/j /setlinejoin ldef
/cap /setlinecap ldef
/rc {rectclip} bdef
/rf {rectfill} bdef
% page state control
/pgsv () def
/bpage {/pgsv save def} bdef
/epage {pgsv restore} bdef
/bplot /gsave ldef
/eplot {stroke grestore} bdef
% orientation switch
/portraitMode 0 def /landscapeMode 1 def /rotateMode 2 def
% coordinate system mappings
/dpi2point 0 def
% font control
/FontSize 0 def
/FMS {/FontSize xstore findfont [FontSize 0 0 FontSize neg 0 0]
  makefont setfont} bdef
/reencode {exch dup where {pop load} {pop StandardEncoding} ifelse
  exch dup 3 1 roll findfont dup length dict begin
  { 1 index /FID ne {def}{pop pop} ifelse } forall
  /Encoding exch def currentdict end definefont pop} bdef
/isroman {findfont /CharStrings get /Agrave known} bdef
/FMSR {3 1 roll 1 index dup isroman {reencode} {pop pop} ifelse
  exch FMS} bdef
/csm {1 dpi2point div -1 dpi2point div scale neg translate
 dup landscapeMode eq {pop -90 rotate}
  {rotateMode eq {90 rotate} if} ifelse} bdef
% line types: solid, dotted, dashed, dotdash
/SO { [] 0 setdash } bdef
/DO { [.5 dpi2point mul 4 dpi2point mul] 0 setdash } bdef
/DA { [6 dpi2point mul] 0 setdash } bdef
/DD { [.5 dpi2point mul 4 dpi2point mul 6 dpi2point mul 4
  dpi2point mul] 0 setdash } bdef
% macros for lines and objects
/L {lineto stroke} bdef
/MP {3 1 roll moveto 1 sub {rlineto} repeat} bdef
/AP {{rlineto} repeat} bdef
/PDlw -1 def
/W {/PDlw currentlinewidth def setlinewidth} def
/PP {closepath eofill} bdef
/DP {closepath stroke} bdef
/MR {4 -2 roll moveto dup  0 exch rlineto exch 0 rlineto
  neg 0 exch rlineto closepath} bdef
/FR {MR stroke} bdef
/PR {MR fill} bdef
/L1i {{currentfile picstr readhexstring pop} image} bdef
/tMatrix matrix def
/MakeOval {newpath tMatrix currentmatrix pop translate scale
0 0 1 0 360 arc tMatrix setmatrix} bdef
/FO {MakeOval stroke} bdef
/PO {MakeOval fill} bdef
/PD {currentlinewidth 2 div 0 360 arc fill
   PDlw -1 eq not {PDlw w /PDlw -1 def} if} def
/FA {newpath tMatrix currentmatrix pop translate scale
  0 0 1 5 -2 roll arc tMatrix setmatrix stroke} bdef
/PA {newpath tMatrix currentmatrix pop	translate 0 0 moveto scale
  0 0 1 5 -2 roll arc closepath tMatrix setmatrix fill} bdef
/FAn {newpath tMatrix currentmatrix pop translate scale
  0 0 1 5 -2 roll arcn tMatrix setmatrix stroke} bdef
/PAn {newpath tMatrix currentmatrix pop translate 0 0 moveto scale
  0 0 1 5 -2 roll arcn closepath tMatrix setmatrix fill} bdef
/vradius 0 def /hradius 0 def /lry 0 def
/lrx 0 def /uly 0 def /ulx 0 def /rad 0 def
/MRR {/vradius xdef /hradius xdef /lry xdef /lrx xdef /uly xdef
  /ulx xdef newpath tMatrix currentmatrix pop ulx hradius add uly
  vradius add translate hradius vradius scale 0 0 1 180 270 arc 
  tMatrix setmatrix lrx hradius sub uly vradius add translate
  hradius vradius scale 0 0 1 270 360 arc tMatrix setmatrix
  lrx hradius sub lry vradius sub translate hradius vradius scale
  0 0 1 0 90 arc tMatrix setmatrix ulx hradius add lry vradius sub
  translate hradius vradius scale 0 0 1 90 180 arc tMatrix setmatrix
  closepath} bdef
/FRR {MRR stroke } bdef
/PRR {MRR fill } bdef
/MlrRR {/lry xdef /lrx xdef /uly xdef /ulx xdef /rad lry uly sub 2 div def
  newpath tMatrix currentmatrix pop ulx rad add uly rad add translate
  rad rad scale 0 0 1 90 270 arc tMatrix setmatrix lrx rad sub lry rad
  sub translate rad rad scale 0 0 1 270 90 arc tMatrix setmatrix
  closepath} bdef
/FlrRR {MlrRR stroke } bdef
/PlrRR {MlrRR fill } bdef
/MtbRR {/lry xdef /lrx xdef /uly xdef /ulx xdef /rad lrx ulx sub 2 div def
  newpath tMatrix currentmatrix pop ulx rad add uly rad add translate
  rad rad scale 0 0 1 180 360 arc tMatrix setmatrix lrx rad sub lry rad
  sub translate rad rad scale 0 0 1 0 180 arc tMatrix setmatrix
  closepath} bdef
/FtbRR {MtbRR stroke } bdef
/PtbRR {MtbRR fill } bdef
/stri 6 array def /dtri 6 array def
/smat 6 array def /dmat 6 array def
/tmat1 6 array def /tmat2 6 array def /dif 3 array def
/asub {/ind2 exch def /ind1 exch def dup dup
  ind1 get exch ind2 get sub exch } bdef
/tri_to_matrix {
  2 0 asub 3 1 asub 4 0 asub 5 1 asub
  dup 0 get exch 1 get 7 -1 roll astore } bdef
/compute_transform {
  dmat dtri tri_to_matrix tmat1 invertmatrix 
  smat stri tri_to_matrix tmat2 concatmatrix } bdef
/ds {stri astore pop} bdef
/dt {dtri astore pop} bdef
/db {2 copy /cols xdef /rows xdef mul dup 3 mul string
  currentfile 
  3 index 0 eq {/ASCIIHexDecode filter}
  {/ASCII85Decode filter 3 index 2 eq {/RunLengthDecode filter} if }
  ifelse exch readstring pop
  dup 0 3 index getinterval /rbmap xdef
  dup 2 index dup getinterval /gbmap xdef
  1 index dup 2 mul exch getinterval /bbmap xdef pop pop}bdef
/it {gs np dtri aload pop moveto lineto lineto cp c
  cols rows 8 compute_transform 
  rbmap gbmap bbmap true 3 colorimage gr}bdef
/il {newpath moveto lineto stroke}bdef
currentdict end def
%%EndProlog

%%BeginSetup
MathWorks begin

0 cap

end
%%EndSetup

%%Page: 1 1
%%BeginPageSetup
%%PageBoundingBox:   -94   168   707   624
MathWorks begin
bpage
%%EndPageSetup

%%BeginObject: obj1
bplot

/dpi2point 12 def
portraitMode -1128 7488 csm

    0     0  9622  5469 rc
85 dict begin %Colortable dictionary
/c0 { 0.000000 0.000000 0.000000 sr} bdef
/c1 { 1.000000 1.000000 1.000000 sr} bdef
/c2 { 0.900000 0.000000 0.000000 sr} bdef
/c3 { 0.000000 0.820000 0.000000 sr} bdef
/c4 { 0.000000 0.000000 0.800000 sr} bdef
/c5 { 0.910000 0.820000 0.320000 sr} bdef
/c6 { 1.000000 0.260000 0.820000 sr} bdef
/c7 { 0.000000 0.820000 0.820000 sr} bdef
c0
1 j
1 sg
   0    0 9623 5470 rf
6 w
0 4457 7457 0 0 -4457 1251 4867 4 MP
PP
-7457 0 0 4457 7457 0 0 -4457 1251 4867 5 MP stroke
4 w
DO
SO
6 w
0 sg
1251 4867 mt 8708 4867 L
1251  410 mt 8708  410 L
1251 4867 mt 1251  410 L
8708 4867 mt 8708  410 L
1251 4867 mt 8708 4867 L
1251 4867 mt 1251  410 L
1251 4867 mt 1251 4792 L
1251  410 mt 1251  484 L
%%IncludeResource: font Helvetica
/Helvetica /ISOLatin1Encoding 192 FMSR

1198 5079 mt 
(0) s
1996 4867 mt 1996 4792 L
1996  410 mt 1996  484 L
1943 5079 mt 
(1) s
2742 4867 mt 2742 4792 L
2742  410 mt 2742  484 L
2689 5079 mt 
(2) s
3488 4867 mt 3488 4792 L
3488  410 mt 3488  484 L
3435 5079 mt 
(3) s
4233 4867 mt 4233 4792 L
4233  410 mt 4233  484 L
4180 5079 mt 
(4) s
4979 4867 mt 4979 4792 L
4979  410 mt 4979  484 L
4926 5079 mt 
(5) s
5725 4867 mt 5725 4792 L
5725  410 mt 5725  484 L
5672 5079 mt 
(6) s
6470 4867 mt 6470 4792 L
6470  410 mt 6470  484 L
6417 5079 mt 
(7) s
7216 4867 mt 7216 4792 L
7216  410 mt 7216  484 L
7163 5079 mt 
(8) s
7962 4867 mt 7962 4792 L
7962  410 mt 7962  484 L
7909 5079 mt 
(9) s
8708 4867 mt 8708 4792 L
8708  410 mt 8708  484 L
8602 5079 mt 
(10) s
1251 4867 mt 1325 4867 L
8708 4867 mt 8633 4867 L
1003 4938 mt 
(25) s
1251 4309 mt 1325 4309 L
8708 4309 mt 8633 4309 L
1003 4380 mt 
(30) s
1251 3752 mt 1325 3752 L
8708 3752 mt 8633 3752 L
1003 3823 mt 
(35) s
1251 3195 mt 1325 3195 L
8708 3195 mt 8633 3195 L
1003 3266 mt 
(40) s
1251 2638 mt 1325 2638 L
8708 2638 mt 8633 2638 L
1003 2709 mt 
(45) s
1251 2081 mt 1325 2081 L
8708 2081 mt 8633 2081 L
1003 2152 mt 
(50) s
1251 1524 mt 1325 1524 L
8708 1524 mt 8633 1524 L
1003 1595 mt 
(55) s
1251  967 mt 1325  967 L
8708  967 mt 8633  967 L
1003 1038 mt 
(60) s
1251  410 mt 1325  410 L
8708  410 mt 8633  410 L
1003  481 mt 
(65) s
1251 4867 mt 8708 4867 L
1251  410 mt 8708  410 L
1251 4867 mt 1251  410 L
8708 4867 mt 8708  410 L
gs 1251 410 7458 4458 rc
24 w
/c8 { 0.000000 0.000000 1.000000 sr} bdef
c8
746 3 746 -2 746 9 745 14 746 36 746 52 745 130 746 294 
746 776 745 2746 1251 521 11 MP stroke
gr

24 w
c8
0 sg
4765 5275 mt 
(Time) s
 905 2872 mt  -90 rotate
(Trace) s
90 rotate
gs 1251 410 7458 4458 rc
DA
/c9 { 1.000000 0.000000 0.000000 sr} bdef
c9
746 -57 746 -39 746 39 745 -50 746 -48 746 80 745 -13 746 160 
746 926 745 2794 1251 521 11 MP stroke
gr

c9
DA
0 sg
%%IncludeResource: font Helvetica
/Helvetica /ISOLatin1Encoding 120 FMSR

1234 4910 mt 
( ) s
8692  452 mt 
( ) s
SO
6 w
1 sg
0 644 3911 0 0 -644 4512 2021 4 MP
PP
-3911 0 0 644 3911 0 0 -644 4512 2021 5 MP stroke
4 w
DO
SO
6 w
0 sg
4512 2021 mt 8423 2021 L
4512 1377 mt 8423 1377 L
4512 2021 mt 4512 1377 L
8423 2021 mt 8423 1377 L
4512 2021 mt 8423 2021 L
4512 2021 mt 4512 1377 L
4512 2021 mt 8423 2021 L
4512 1377 mt 8423 1377 L
4512 2021 mt 4512 1377 L
8423 2021 mt 8423 1377 L
%%IncludeResource: font Helvetica
/Helvetica /ISOLatin1Encoding 192 FMSR

4983 1617 mt 
(Expected Trace of Random Schedule) s
gs 4512 1377 3912 645 rc
24 w
c8
362 0 4584 1548 2 MP stroke
gr

24 w
c8
0 sg
4983 1918 mt 
(Optimal Trace of Deterministic Schedule) s
gs 4512 1377 3912 645 rc
DA
c9
362 0 4584 1849 2 MP stroke
SO
6 w
gr

6 w
c9

end %%Color Dict

eplot
%%EndObject

epage
end

showpage

%%Trailer
%%EOF
