% This file was created by matlab2tikz v0.4.2.
% Copyright (c) 2008--2013, Nico Schlömer <nico.schloemer@gmail.com>
% All rights reserved.
% 
% The latest updates can be retrieved from
%   http://www.mathworks.com/matlabcentral/fileexchange/22022-matlab2tikz
% where you can also make suggestions and rate matlab2tikz.
% 
% 
% 
\begin{tikzpicture}

\begin{axis}[%
width=\figurewidth,
height=\figureheight,
scale only axis,
xmin=0,
xmax=1,
xlabel={$\alpha$},
ymin=0,
ymax=1,
ylabel={Asymptotic $\beta_k$},
legend style={at={(0.95,0.1)},anchor=south east,draw=black,fill=white,legend cell align=left}
]


\addplot [
color=red,
solid,
mark=asterisk,
mark options={solid}
]
table[row sep=crcr]{
0 0\\
0.0200969696969697 0.172888888888889\\
0.040630303030303 0.231886868686869\\
0.0602141414141414 0.274266666666667\\
0.0798080808080808 0.307485858585858\\
0.0998767676767678 0.34150303030303\\
0.119509764309764 0.369123232323233\\
0.140059259259259 0.395057239057239\\
0.159437037037037 0.419170370370371\\
0.180261279461279 0.44170505050505\\
0.200258585858586 0.461855892255892\\
0.221473400673401 0.486448484848485\\
0.238076767676768 0.502801346801347\\
0.25946936026936 0.524791919191919\\
0.280102356902357 0.543997306397307\\
0.300926599326599 0.562882154882155\\
0.320036075036075 0.578979076479076\\
0.339599567099567 0.596111111111111\\
0.360559163059163 0.614112554112554\\
0.377229437229437 0.628430735930735\\
0.399772727272727 0.645566378066378\\
0.41950937950938 0.662117604617605\\
0.440082972582973 0.678174603174603\\
0.45761544011544 0.691046176046176\\
0.48060606060606 0.707712842712842\\
0.499386724386724 0.721277056277056\\
0.521919191919191 0.740331890331891\\
0.538358585858586 0.754758297258298\\
0.561702741702742 0.769292929292929\\
0.579789734075449 0.78547928262214\\
0.600585446299732 0.799031127602556\\
0.621125541125541 0.811053391053391\\
0.640639043496186 0.826497629354772\\
0.664184704184704 0.842304679447537\\
0.680053597196454 0.855056689342404\\
0.700255617398474 0.86757781900639\\
0.719600082457226 0.882275819418677\\
0.739187796330653 0.893205524634096\\
0.76212739641311 0.906147186147187\\
0.779806225520512 0.916252319109462\\
0.798412698412698 0.926365697794269\\
0.82123273551845 0.937485054627911\\
0.840387548958977 0.947528344671201\\
0.858977530406102 0.956322407750979\\
0.880874046588332 0.967297464440321\\
0.899905174190888 0.974594928880643\\
0.917699443413728 0.981104926819213\\
0.939059987631416 0.98792413935271\\
0.958635332921047 0.993725005153578\\
0.979550608122037 0.997715934858793\\
1 1\\
};
\addlegendentry{Stationary Watermark $\rho = 0.6$};

\addplot [
color=blue,
solid,
mark=triangle,
mark options={solid}
]
table[row sep=crcr]{
0 0\\
0.0197936507936515 0.122673015873017\\
0.0402000000000004 0.1769\\
0.0602777777777776 0.2159\\
0.0788380952380959 0.246746031746032\\
0.102088888888889 0.2837\\
0.116034722222223 0.30304513888889\\
0.141940972222223 0.339944444444446\\
0.160520833333334 0.362225694444444\\
0.184590277777779 0.391572916666665\\
0.205920138888889 0.416197916666666\\
0.219055555555556 0.427100694444443\\
0.239798611111112 0.448826388888887\\
0.262152777777778 0.472753472222222\\
0.275208333333333 0.484413194444444\\
0.292565972222223 0.499079861111111\\
0.321895833333335 0.534965277777779\\
0.337479166666667 0.541069444444447\\
0.357704861111113 0.561364583333336\\
0.379798611111112 0.581440972222225\\
0.398260416666666 0.599750000000004\\
0.420475694444443 0.621503472222227\\
0.443975694444444 0.641559027777783\\
0.455354166666665 0.646493055555561\\
0.480472222222221 0.667690972222225\\
0.497593749999999 0.681482638888893\\
0.520645833333334 0.704020833333336\\
0.53835763888889 0.718479166666667\\
0.561125000000002 0.735819444444447\\
0.579638888888891 0.750048611111111\\
0.600250000000003 0.768100694444443\\
0.616583333333337 0.782291666666667\\
0.636826388888891 0.797857638888888\\
0.662118055555559 0.815298611111108\\
0.676756944444448 0.825413194444441\\
0.69605902777778 0.839652777777775\\
0.717836805555556 0.856315972222216\\
0.739329861111112 0.869975694444437\\
0.755156250000001 0.882847222222215\\
0.775954861111109 0.896059027777779\\
0.798406249999997 0.911302083333338\\
0.820687499999993 0.924236111111118\\
0.839468749999997 0.934149305555565\\
0.856947916666663 0.945454861111123\\
0.878881944444439 0.957538194444452\\
0.899076388888889 0.966343750000014\\
0.915642361111118 0.975468750000011\\
0.936656250000007 0.983416666666679\\
0.957711805555566 0.990690972222235\\
0.973437500000012 0.994784722222233\\
1 1\\
};
\addlegendentry{IID Watermark};

\end{axis}
\end{tikzpicture}%
