% This file was created by matlab2tikz v0.4.2.
% Copyright (c) 2008--2013, Nico Schlömer <nico.schloemer@gmail.com>
% All rights reserved.
% 
% The latest updates can be retrieved from
%   http://www.mathworks.com/matlabcentral/fileexchange/22022-matlab2tikz
% where you can also make suggestions and rate matlab2tikz.
% 
% 
% 
\begin{tikzpicture}

\begin{axis}[%
width=\figurewidth,
height=\figureheight,
unbounded coords=jump,
scale only axis,
xmin=0.0,
xmax=0.11,
xlabel={$\alpha$},
xtick={0,0.02,0.04,0.06,0.08,0.1},
xticklabels={0,0.02,0.04,0.06,0.08,0.1},
ytick={0.2,0.5,1,1.5},
yticklabels={20\%,50\%,100\%,150\%},
ymin=0.2,
ymax=1.6,
ylabel={Improvement of the Asymptotic $\beta_k^c$},
legend style={at={(0.9,0.9)},anchor=north east,draw=black,fill=white,legend cell align=left}
]
\addplot [
color=red,
solid,
mark=o,
line width=1pt
]
coordinates{
 (0.00586700000000055,1.33924360558618)(0.0112834999999998,1.02833358893662)(0.0166054999999978,0.921787596747471)(0.0216369999999961,0.816178866447968)(0.0269274999999951,0.754968123183088)(0.0321900000000006,0.692006528674432)(0.0374100000000007,0.637685321164347)(0.0425860000000008,0.602484732430674)(0.0476980000000011,0.570980037110981)(0.0526940000000011,0.540303826292533)(0.0572540000000009,0.517144812997797)(0.0625240000000006,0.490884838270702)(0.0679060000000006,0.466017957808006)(0.0733380000000003,0.448414007924389)(0.0773680000000002,0.440876909577426)(0.083002,0.417457432789773)(0.0884699999999999,0.405014375027974)(0.093616,0.393919374039864)(0.0980819999999996,0.370016824828423)(0.10356,0.359814027369837) 
};
\addlegendentry{Optimal};

\addplot [
color=green,
solid,
mark=x,
line width=1pt
]
coordinates{
 (0.00653000000000018,1.06140178440156)(0.0120020000000001,0.850679565470103)(0.0174820000000005,0.763028645609878)(0.0230880000000005,0.673183896137272)(0.0282100000000006,0.628178925239302)(0.0331240000000006,0.578485191686247)(0.0384860000000008,0.535724139373938)(0.0434980000000008,0.5102968299391)(0.0487700000000009,0.484074904736962)(0.0538000000000008,0.459957589190355)(0.0584920000000007,0.441015387926058)(0.0642160000000007,0.417431600622987)(0.0697100000000005,0.396983286590344)(0.0744180000000004,0.387359574596989)(0.079098,0.377507539061951)(0.0849279999999999,0.357302757473485)(0.0906559999999999,0.350422599001039)(0.0935399999999996,0.344688295273867)(0.0996860000000003,0.318784009361732)(0.1046,0.326948497592852) 
};
\addlegendentry{$\text{Sub-Optimal, }\rho\text{ = 0.9}$};

\end{axis}
\end{tikzpicture}%
