\begin{tikzpicture}[>=stealth',
box/.style={rectangle, draw=blue!50,fill=blue!20,rounded corners, semithick},
point/.style={coordinate},
every node/.append style={font=\small}
]
\matrix[row sep = 10mm, column sep = 7mm]{
%first row
\node (p1) [point] {};&
%\node (p2) [point] {};&
\node (plant) [box] {Plant};&
\node (sensor) [box] {Sensor};&
\node (p3) [point] {};\\
%second row
\node (p5) [point] {};&
%&
\node (delay) [box] {$z^{-1}$};&
\node (p6) [point] {};&\\
%third row
\node (p7) [circle,semithick,draw=blue!50,fill=blue!20] {};&
\node (controller) [box] {LQG Controller};&
%&
\node (estimator) [box] {Estimator};&
\node (p8) [point] {};\\
%fourth row
\node (auth)[rectangle,semithick]{Authentication Signal};&
%&
\node (detector) [box] {Failure Detector};
&
\node (p9) [point] {};&\\
};
\draw [semithick] (p7.east)--(p7.west);
\draw [semithick] (p7.north)--(p7.south);
\draw [semithick,->] (plant) -- (sensor);
\draw [semithick,->](sensor) -- (p3) -- node[midway,right]{$y_k$} (p8) -- (estimator);
\draw [semithick,->](estimator)-- node[midway,above]{$\hat x_k$}(controller);
\draw [semithick,->] (auth) -- node[midway,right]{$\zeta_k$}(p7);
\draw [semithick,->](controller)-- node[midway,above]{$u_k^*$} (p7);
\draw [semithick,->](p7)--node[midway,left]{$u_k$}(p1)--(plant);
\draw [semithick,->](p5)--(delay)-- node[midway,above]{$u_{k-1}$}(p6)--(estimator);
\draw [semithick,->](estimator)--(p9) --node[midway,below]{$z_k$}(detector);

\draw [semithick,->](auth)--node[midway,below]{$\zeta_k$}(detector);
\end{tikzpicture}
