% This file was created by matlab2tikz v0.4.2.
% Copyright (c) 2008--2013, Nico Schlömer <nico.schloemer@gmail.com>
% All rights reserved.
% 
% The latest updates can be retrieved from
%   http://www.mathworks.com/matlabcentral/fileexchange/22022-matlab2tikz
% where you can also make suggestions and rate matlab2tikz.
% 
% 
% 
\begin{tikzpicture}

\begin{axis}[%
width=\figurewidth,
height=\figureheight,
scale only axis,
xlabel={$k$},
ylabel={$x_i(k)$},
every axis y label/.style={at={(ticklabel cs:0.5)},rotate=90,anchor=near ticklabel},
legend style={draw=black,fill=white,align=left},
xmin=0,
xmax=50,
xtick={0,10,20,30,40,50},
ytick={-2,-1,0,1,2},
ymin=-2,
ymax=2.5
]
\addplot [
line width=1pt,
color=blue,
solid,
]
table[row sep=crcr]{
0 -0.911818876809533\\
1 -0.384039177068368\\
2 -0.985227759535976\\
3 -0.0591660683713577\\
4 0.412338350238061\\
5 0.0885021614060442\\
6 0.129742174004881\\
7 0.433264277234956\\
8 1.45108554225164\\
9 -1.07679040552608\\
10 -0.494973142917604\\
11 0.682007824841725\\
12 -0.478168375929875\\
13 0.904562608196633\\
14 0.140642347554974\\
15 0.262786897866061\\
16 0.138581390267546\\
17 -0.225299769433406\\
18 0.18794249545501\\
19 0.12730033322472\\
20 0.181156536706042\\
21 -0.0119087328375278\\
22 0.0554335877000921\\
23 0.249196190683845\\
24 0.244306808644818\\
25 0.0809128199099182\\
26 0.122631801798131\\
27 0.209481939491647\\
28 -0.0217454140205592\\
29 0.122285095408432\\
30 0.212743325645339\\
31 0.069355494666734\\
32 0.0963481946455238\\
33 0.182636182369498\\
34 0.148506818714681\\
35 0.1312707439066\\
36 0.133914689658559\\
37 0.120403510355492\\
38 0.158645689626708\\
39 0.165774542976838\\
40 0.0572585891321611\\
41 0.155101173327688\\
42 0.11801137429238\\
43 0.123616091611016\\
44 0.13644634063167\\
45 0.127356079206581\\
46 0.128614022630586\\
47 0.137757096842355\\
48 0.121050249150007\\
49 0.140058335439775\\
50 0.125995087606764\\
};
\addlegendentry{\scriptsize $x_1(k)$};

\addplot [
color=red,
line width=1pt,
solid,
]
table[row sep=crcr]{
0 0.0494346475387195\\
1 -0.30087286278759\\
2 -0.421119126103863\\
3 0.444746102051265\\
4 0.353491034654855\\
5 -0.399210864518538\\
6 0.269947186624101\\
7 0.252495264475437\\
8 -0.0350332653964146\\
9 0.536740664719034\\
10 0.00903596799256925\\
11 0.0589914582039432\\
12 0.340486518720853\\
13 -0.269390461724551\\
14 0.623121816782276\\
15 -0.368946356178484\\
16 0.178596154816147\\
17 0.274400926466938\\
18 0.391767088473719\\
19 -0.244657394283823\\
20 0.0400412567768425\\
21 0.285825580029937\\
22 0.065786838818173\\
23 0.107499474008523\\
24 0.141705489098702\\
25 0.202006732716809\\
26 0.160355108180641\\
27 0.0544127987109676\\
28 0.136721655239323\\
29 0.135063118376046\\
30 0.055635725672579\\
31 0.0296401759943833\\
32 0.212855161632198\\
33 0.0705039580654447\\
34 0.155845069327502\\
35 0.172975686734284\\
36 0.177781184437278\\
37 0.120832864804444\\
38 0.130177572498011\\
39 0.0945402393086104\\
40 0.149583318183941\\
41 0.107861211904492\\
42 0.124777965036441\\
43 0.15144938324955\\
44 0.132354144776257\\
45 0.128251574748002\\
46 0.134135234351936\\
47 0.124893597951543\\
48 0.12561527365629\\
49 0.137615520191288\\
50 0.132715802575291\\
};
\addlegendentry{\scriptsize $x_2(k)$};

\addplot [
color=green,
line width=1pt,
solid,
]
table[row sep=crcr]{
0 1.07804587481937\\
1 -0.368818066051721\\
2 0.250227205508941\\
3 -0.533326257868729\\
4 -0.867724495764177\\
5 2.35240938445864\\
6 -0.170923804073583\\
7 -0.208209405773209\\
8 0.629863207844395\\
9 0.0587567364383292\\
10 -0.0379218129622914\\
11 0.570137850897261\\
12 -0.225453435911191\\
13 0.0996434884938732\\
14 -0.0713740129995073\\
15 0.503070364539553\\
16 -0.370147295622552\\
17 0.474986955800836\\
18 0.0821616993834179\\
19 0.150844615047796\\
20 0.127895933133214\\
21 -0.0237463948077871\\
22 0.329089559203609\\
23 0.147577584049396\\
24 -0.0220231705555911\\
25 0.153141864259126\\
26 0.116617228832876\\
27 0.139135820782329\\
28 0.109435007251332\\
29 0.200119661823836\\
30 0.101408615670994\\
31 0.127728537684281\\
32 0.0523719126863228\\
33 0.19503336627925\\
34 0.062723788071563\\
35 0.150668028428529\\
36 0.164552885802401\\
37 0.126851635255292\\
38 0.15490368922912\\
39 0.102143572069102\\
40 0.129574079742197\\
41 0.135667520512621\\
42 0.133002779051492\\
43 0.131019358508559\\
44 0.127008002527299\\
45 0.134940988404297\\
46 0.127694200807199\\
47 0.134433331688803\\
48 0.139129839337474\\
49 0.132759991154587\\
50 0.129847879522047\\
};
\addlegendentry{\scriptsize $x_3(k)$};

\addplot [
color=black,
line width=1pt,
solid,
]
table[row sep=crcr]{
0 0.308178759981126\\
1 1.49537329579182\\
2 -1.5164298207118\\
3 -0.988513526538033\\
4 1.44975169334611\\
5 -0.112483033684385\\
6 -0.449575541866964\\
7 0.264392583335761\\
8 -0.128423484364602\\
9 0.527036579580833\\
10 0.289851254351066\\
11 -0.65171669167948\\
12 0.367645981914884\\
13 0.260095134127499\\
14 -0.0958513551904759\\
15 0.296199414035549\\
16 0.685900369061376\\
17 -0.0721283154257451\\
18 0.0540135231151654\\
19 0.396350359175398\\
20 0.0647428340892597\\
21 0.0121887021328368\\
22 -0.0671450604657471\\
23 0.193666977093847\\
24 0.180804050820097\\
25 0.0706261812670218\\
26 0.121380956021026\\
27 0.119755689162764\\
28 0.222405766882906\\
29 0.00283109360224731\\
30 0.20073792514779\\
31 0.146793636811277\\
32 0.154732556558694\\
33 0.0918367166024744\\
34 0.14989171019069\\
35 0.10413051446136\\
36 0.137366685447499\\
37 0.148533794024318\\
38 0.154496236544576\\
39 0.111240455948209\\
40 0.147335348147742\\
41 0.119003732174912\\
42 0.127579145009433\\
43 0.12093397202878\\
44 0.116370745701923\\
45 0.137683561962444\\
46 0.140662686296489\\
47 0.118043476133584\\
48 0.135899182805034\\
49 0.13934035727522\\
50 0.133137831374091\\
};
\addlegendentry{\scriptsize $x_4(k)$};

\addplot [
color=black,
dashed,
]
table[row sep=crcr]{
0 0.13096010138242\\
50 0.13096010138242\\
};
\end{axis}
\end{tikzpicture}%
