%!PS-Adobe-3.0 EPSF-3.0
%%Creator: MATLAB, The Mathworks, Inc. Version 7.3.0.267 (R2006b). Operating System: Microsoft Windows XP.
%%Title: D:\cygwin\home\Yilin Mo\yilin\journal10sensor\figure7.eps
%%CreationDate: 04/08/2010  15:08:27
%%DocumentNeededFonts: Helvetica
%%DocumentProcessColors: Cyan Magenta Yellow Black
%%LanguageLevel: 2
%%Pages: 1
%%BoundingBox:    96   238   515   553
%%EndComments

%%BeginProlog
% MathWorks dictionary
/MathWorks 160 dict begin
% definition operators
/bdef {bind def} bind def
/ldef {load def} bind def
/xdef {exch def} bdef
/xstore {exch store} bdef
% operator abbreviations
/c  /clip ldef
/cc /concat ldef
/cp /closepath ldef
/gr /grestore ldef
/gs /gsave ldef
/mt /moveto ldef
/np /newpath ldef
/cm /currentmatrix ldef
/sm /setmatrix ldef
/rm /rmoveto ldef
/rl /rlineto ldef
/s {show newpath} bdef
/sc {setcmykcolor} bdef
/sr /setrgbcolor ldef
/sg /setgray ldef
/w /setlinewidth ldef
/j /setlinejoin ldef
/cap /setlinecap ldef
/rc {rectclip} bdef
/rf {rectfill} bdef
% page state control
/pgsv () def
/bpage {/pgsv save def} bdef
/epage {pgsv restore} bdef
/bplot /gsave ldef
/eplot {stroke grestore} bdef
% orientation switch
/portraitMode 0 def /landscapeMode 1 def /rotateMode 2 def
% coordinate system mappings
/dpi2point 0 def
% font control
/FontSize 0 def
/FMS {/FontSize xstore findfont [FontSize 0 0 FontSize neg 0 0]
  makefont setfont} bdef
/ISOLatin1Encoding where {pop /WindowsLatin1Encoding 256 array bdef
ISOLatin1Encoding WindowsLatin1Encoding copy pop
/.notdef/.notdef/quotesinglbase/florin/quotedblbase/ellipsis/dagger
/daggerdbl/circumflex/perthousand/Scaron/guilsinglleft/OE/.notdef/.notdef
/.notdef/.notdef/quoteleft/quoteright/quotedblleft/quotedblright/bullet
/endash/emdash/tilde/trademark/scaron/guilsinglright/oe/.notdef/.notdef
/Ydieresis WindowsLatin1Encoding 128 32 getinterval astore pop}
{/WindowsLatin1Encoding StandardEncoding bdef} ifelse
/reencode {exch dup where {pop load} {pop StandardEncoding} ifelse
  exch dup 3 1 roll findfont dup length dict begin
  { 1 index /FID ne {def}{pop pop} ifelse } forall
  /Encoding exch def currentdict end definefont pop} bdef
/isroman {findfont /CharStrings get /Agrave known} bdef
/FMSR {3 1 roll 1 index dup isroman {reencode} {pop pop} ifelse
  exch FMS} bdef
/csm {1 dpi2point div -1 dpi2point div scale neg translate
 dup landscapeMode eq {pop -90 rotate}
  {rotateMode eq {90 rotate} if} ifelse} bdef
% line types: solid, dotted, dashed, dotdash
/SO { [] 0 setdash } bdef
/DO { [.5 dpi2point mul 4 dpi2point mul] 0 setdash } bdef
/DA { [6 dpi2point mul] 0 setdash } bdef
/DD { [.5 dpi2point mul 4 dpi2point mul 6 dpi2point mul 4
  dpi2point mul] 0 setdash } bdef
% macros for lines and objects
/L {lineto stroke} bdef
/MP {3 1 roll moveto 1 sub {rlineto} repeat} bdef
/AP {{rlineto} repeat} bdef
/PDlw -1 def
/W {/PDlw currentlinewidth def setlinewidth} def
/PP {closepath eofill} bdef
/DP {closepath stroke} bdef
/MR {4 -2 roll moveto dup  0 exch rlineto exch 0 rlineto
  neg 0 exch rlineto closepath} bdef
/FR {MR stroke} bdef
/PR {MR fill} bdef
/L1i {{currentfile picstr readhexstring pop} image} bdef
/tMatrix matrix def
/MakeOval {newpath tMatrix currentmatrix pop translate scale
0 0 1 0 360 arc tMatrix setmatrix} bdef
/FO {MakeOval stroke} bdef
/PO {MakeOval fill} bdef
/PD {currentlinewidth 2 div 0 360 arc fill
   PDlw -1 eq not {PDlw w /PDlw -1 def} if} def
/FA {newpath tMatrix currentmatrix pop translate scale
  0 0 1 5 -2 roll arc tMatrix setmatrix stroke} bdef
/PA {newpath tMatrix currentmatrix pop	translate 0 0 moveto scale
  0 0 1 5 -2 roll arc closepath tMatrix setmatrix fill} bdef
/FAn {newpath tMatrix currentmatrix pop translate scale
  0 0 1 5 -2 roll arcn tMatrix setmatrix stroke} bdef
/PAn {newpath tMatrix currentmatrix pop translate 0 0 moveto scale
  0 0 1 5 -2 roll arcn closepath tMatrix setmatrix fill} bdef
/vradius 0 def /hradius 0 def /lry 0 def
/lrx 0 def /uly 0 def /ulx 0 def /rad 0 def
/MRR {/vradius xdef /hradius xdef /lry xdef /lrx xdef /uly xdef
  /ulx xdef newpath tMatrix currentmatrix pop ulx hradius add uly
  vradius add translate hradius vradius scale 0 0 1 180 270 arc 
  tMatrix setmatrix lrx hradius sub uly vradius add translate
  hradius vradius scale 0 0 1 270 360 arc tMatrix setmatrix
  lrx hradius sub lry vradius sub translate hradius vradius scale
  0 0 1 0 90 arc tMatrix setmatrix ulx hradius add lry vradius sub
  translate hradius vradius scale 0 0 1 90 180 arc tMatrix setmatrix
  closepath} bdef
/FRR {MRR stroke } bdef
/PRR {MRR fill } bdef
/MlrRR {/lry xdef /lrx xdef /uly xdef /ulx xdef /rad lry uly sub 2 div def
  newpath tMatrix currentmatrix pop ulx rad add uly rad add translate
  rad rad scale 0 0 1 90 270 arc tMatrix setmatrix lrx rad sub lry rad
  sub translate rad rad scale 0 0 1 270 90 arc tMatrix setmatrix
  closepath} bdef
/FlrRR {MlrRR stroke } bdef
/PlrRR {MlrRR fill } bdef
/MtbRR {/lry xdef /lrx xdef /uly xdef /ulx xdef /rad lrx ulx sub 2 div def
  newpath tMatrix currentmatrix pop ulx rad add uly rad add translate
  rad rad scale 0 0 1 180 360 arc tMatrix setmatrix lrx rad sub lry rad
  sub translate rad rad scale 0 0 1 0 180 arc tMatrix setmatrix
  closepath} bdef
/FtbRR {MtbRR stroke } bdef
/PtbRR {MtbRR fill } bdef
/stri 6 array def /dtri 6 array def
/smat 6 array def /dmat 6 array def
/tmat1 6 array def /tmat2 6 array def /dif 3 array def
/asub {/ind2 exch def /ind1 exch def dup dup
  ind1 get exch ind2 get sub exch } bdef
/tri_to_matrix {
  2 0 asub 3 1 asub 4 0 asub 5 1 asub
  dup 0 get exch 1 get 7 -1 roll astore } bdef
/compute_transform {
  dmat dtri tri_to_matrix tmat1 invertmatrix 
  smat stri tri_to_matrix tmat2 concatmatrix } bdef
/ds {stri astore pop} bdef
/dt {dtri astore pop} bdef
/db {2 copy /cols xdef /rows xdef mul dup 3 mul string
  currentfile 
  3 index 0 eq {/ASCIIHexDecode filter}
  {/ASCII85Decode filter 3 index 2 eq {/RunLengthDecode filter} if }
  ifelse exch readstring pop
  dup 0 3 index getinterval /rbmap xdef
  dup 2 index dup getinterval /gbmap xdef
  1 index dup 2 mul exch getinterval /bbmap xdef pop pop}bdef
/it {gs np dtri aload pop moveto lineto lineto cp c
  cols rows 8 compute_transform 
  rbmap gbmap bbmap true 3 colorimage gr}bdef
/il {newpath moveto lineto stroke}bdef
currentdict end def
%%EndProlog

%%BeginSetup
MathWorks begin

0 cap

end
%%EndSetup

%%Page: 1 1
%%BeginPageSetup
%%PageBoundingBox:    96   238   515   553
MathWorks begin
bpage
%%EndPageSetup

%%BeginObject: obj1
bplot

/dpi2point 12 def
portraitMode 1152 6636 csm

    0     0  5039  3780 rc
85 dict begin %Colortable dictionary
/c0 { 0.000000 0.000000 0.000000 sr} bdef
/c1 { 1.000000 1.000000 1.000000 sr} bdef
/c2 { 0.900000 0.000000 0.000000 sr} bdef
/c3 { 0.000000 0.820000 0.000000 sr} bdef
/c4 { 0.000000 0.000000 0.800000 sr} bdef
/c5 { 0.910000 0.820000 0.320000 sr} bdef
/c6 { 1.000000 0.260000 0.820000 sr} bdef
/c7 { 0.000000 0.820000 0.820000 sr} bdef
c0
1 j
1 sg
   0    0 5040 3781 rf
6 w
0 3081 3905 0 0 -3081 655 3364 4 MP
PP
-3905 0 0 3081 3905 0 0 -3081 655 3364 5 MP stroke
4 w
DO
SO
6 w
0 sg
 655  283 mt 4560  283 L
 655 3364 mt 4560 3364 L
4560 3364 mt 4560  283 L
 655 3364 mt  655  283 L
 655 3364 mt 4560 3364 L
 655 3364 mt  655  283 L
 655 3364 mt  655 3324 L
 655  283 mt  655  322 L
%%IncludeResource: font Helvetica
/Helvetica /WindowsLatin1Encoding 144 FMSR

 575 3532 mt 
(15) s
1143 3364 mt 1143 3324 L
1143  283 mt 1143  322 L
1063 3532 mt 
(20) s
1631 3364 mt 1631 3324 L
1631  283 mt 1631  322 L
1551 3532 mt 
(25) s
2119 3364 mt 2119 3324 L
2119  283 mt 2119  322 L
2039 3532 mt 
(30) s
2607 3364 mt 2607 3324 L
2607  283 mt 2607  322 L
2527 3532 mt 
(35) s
3095 3364 mt 3095 3324 L
3095  283 mt 3095  322 L
3015 3532 mt 
(40) s
3583 3364 mt 3583 3324 L
3583  283 mt 3583  322 L
3503 3532 mt 
(45) s
4071 3364 mt 4071 3324 L
4071  283 mt 4071  322 L
3991 3532 mt 
(50) s
4560 3364 mt 4560 3324 L
4560  283 mt 4560  322 L
4480 3532 mt 
(55) s
 655 3364 mt  694 3364 L
4560 3364 mt 4520 3364 L
 540 3417 mt 
(0) s
 655 3055 mt  694 3055 L
4560 3055 mt 4520 3055 L
 340 3108 mt 
(0.02) s
 655 2747 mt  694 2747 L
4560 2747 mt 4520 2747 L
 340 2800 mt 
(0.04) s
 655 2439 mt  694 2439 L
4560 2439 mt 4520 2439 L
 340 2492 mt 
(0.06) s
 655 2131 mt  694 2131 L
4560 2131 mt 4520 2131 L
 340 2184 mt 
(0.08) s
 655 1823 mt  694 1823 L
4560 1823 mt 4520 1823 L
 420 1876 mt 
(0.1) s
 655 1515 mt  694 1515 L
4560 1515 mt 4520 1515 L
 340 1568 mt 
(0.12) s
 655 1207 mt  694 1207 L
4560 1207 mt 4520 1207 L
 340 1260 mt 
(0.14) s
 655  899 mt  694  899 L
4560  899 mt 4520  899 L
 340  952 mt 
(0.16) s
 655  591 mt  694  591 L
4560  591 mt 4520  591 L
 340  644 mt 
(0.18) s
 655  283 mt  694  283 L
4560  283 mt 4520  283 L
 420  336 mt 
(0.2) s
 655  283 mt 4560  283 L
 655 3364 mt 4560 3364 L
4560 3364 mt 4560  283 L
 655 3364 mt  655  283 L
gs 655 283 3906 3082 rc
/c8 { 1.000000 0.000000 0.000000 sr} bdef
c8
0 0 97 0 0 0 1094 3364 4 MP
PP
1 sg
-97 0 0 0 97 0 0 0 1094 3364 5 MP stroke
c8
0 31 98 0 0 -31 1191 3364 4 MP
PP
1 sg
-98 0 0 31 98 0 0 -31 1191 3364 5 MP stroke
c8
0 16 98 0 0 -16 1289 3364 4 MP
PP
1 sg
-98 0 0 16 98 0 0 -16 1289 3364 5 MP stroke
c8
0 108 97 0 0 -108 1387 3364 4 MP
PP
1 sg
-97 0 0 108 97 0 0 -108 1387 3364 5 MP stroke
c8
0 324 98 0 0 -324 1484 3364 4 MP
PP
1 sg
-98 0 0 324 98 0 0 -324 1484 3364 5 MP stroke
c8
0 879 98 0 0 -879 1582 3364 4 MP
PP
1 sg
-98 0 0 879 98 0 0 -879 1582 3364 5 MP stroke
c8
0 1649 97 0 0 -1649 1680 3364 4 MP
PP
1 sg
-97 0 0 1649 97 0 0 -1649 1680 3364 5 MP stroke
c8
0 2080 98 0 0 -2080 1777 3364 4 MP
PP
1 sg
-98 0 0 2080 98 0 0 -2080 1777 3364 5 MP stroke
c8
0 2850 97 0 0 -2850 1875 3364 4 MP
PP
1 sg
-97 0 0 2850 97 0 0 -2850 1875 3364 5 MP stroke
c8
0 2311 98 0 0 -2311 1972 3364 4 MP
PP
1 sg
-98 0 0 2311 98 0 0 -2311 1972 3364 5 MP stroke
c8
0 1834 98 0 0 -1834 2070 3364 4 MP
PP
1 sg
-98 0 0 1834 98 0 0 -1834 2070 3364 5 MP stroke
c8
0 1202 97 0 0 -1202 2168 3364 4 MP
PP
1 sg
-97 0 0 1202 97 0 0 -1202 2168 3364 5 MP stroke
c8
0 879 98 0 0 -879 2265 3364 4 MP
PP
1 sg
-98 0 0 879 98 0 0 -879 2265 3364 5 MP stroke
c8
0 648 98 0 0 -648 2363 3364 4 MP
PP
1 sg
-98 0 0 648 98 0 0 -648 2363 3364 5 MP stroke
c8
0 293 97 0 0 -293 2461 3364 4 MP
PP
1 sg
-97 0 0 293 97 0 0 -293 2461 3364 5 MP stroke
c8
0 170 98 0 0 -170 2558 3364 4 MP
PP
1 sg
-98 0 0 170 98 0 0 -170 2558 3364 5 MP stroke
c8
0 47 97 0 0 -47 2656 3364 4 MP
PP
1 sg
-97 0 0 47 97 0 0 -47 2656 3364 5 MP stroke
c8
0 31 98 0 0 -31 2753 3364 4 MP
PP
1 sg
-98 0 0 31 98 0 0 -31 2753 3364 5 MP stroke
c8
0 0 98 0 0 0 2851 3364 4 MP
PP
1 sg
-98 0 0 0 98 0 0 0 2851 3364 5 MP stroke
c8
0 31 97 0 0 -31 2949 3364 4 MP
PP
1 sg
-97 0 0 31 97 0 0 -31 2949 3364 5 MP stroke
c8
0 16 98 0 0 -16 3046 3364 4 MP
PP
1 sg
-98 0 0 16 98 0 0 -16 3046 3364 5 MP stroke
c8
0 0 98 0 0 0 3144 3364 4 MP
PP
1 sg
-98 0 0 0 98 0 0 0 3144 3364 5 MP stroke
c8
0 0 97 0 0 0 3242 3364 4 MP
PP
1 sg
-97 0 0 0 97 0 0 0 3242 3364 5 MP stroke
c8
0 0 98 0 0 0 3339 3364 4 MP
PP
1 sg
-98 0 0 0 98 0 0 0 3339 3364 5 MP stroke
c8
0 0 97 0 0 0 3437 3364 4 MP
PP
1 sg
-97 0 0 0 97 0 0 0 3437 3364 5 MP stroke
c8
0 16 98 0 0 -16 3534 3364 4 MP
PP
1 sg
-98 0 0 16 98 0 0 -16 3534 3364 5 MP stroke
c8
0 0 98 0 0 0 3632 3364 4 MP
PP
1 sg
-98 0 0 0 98 0 0 0 3632 3364 5 MP stroke
c8
0 0 97 0 0 0 3730 3364 4 MP
PP
1 sg
-97 0 0 0 97 0 0 0 3730 3364 5 MP stroke
c8
0 0 98 0 0 0 3827 3364 4 MP
PP
1 sg
-98 0 0 0 98 0 0 0 3827 3364 5 MP stroke
c8
0 0 98 0 0 0 3925 3364 4 MP
PP
1 sg
-98 0 0 0 98 0 0 0 3925 3364 5 MP stroke
c8
0 0 97 0 0 0 4023 3364 4 MP
PP
1 sg
-97 0 0 0 97 0 0 0 4023 3364 5 MP stroke
0 sg
3905 0 655 3364 2 MP stroke
DD
24 w
0 -3081 3192 3364 2 MP stroke
DA
/c9 { 0.000000 0.000000 1.000000 sr} bdef
c9
0 -3081 1959 3364 2 MP stroke
gr

24 w
c9
DA
0 sg
 253 2535 mt  -90 rotate
(Normalized Histogram) s
90 rotate
1819 3693 mt 
(Average Trace over Time) s
SO
6 w

end %%Color Dict

eplot
%%EndObject

epage
end

showpage

%%Trailer
%%EOF
