%!PS-Adobe-3.0 EPSF-3.0
%%Creator: MATLAB, The Mathworks, Inc. Version 7.5.0.342 (R2007b). Operating System: Microsoft Windows XP.
%%Title: D:\roberto\dottorato\LAVORI IN CORSO\multihop sensor selection\necsys09topology\fig_25nodes.eps
%%CreationDate: 04/02/2009  20:52:20
%%DocumentNeededFonts: Helvetica
%%+ Helvetica-Bold
%%DocumentProcessColors: Cyan Magenta Yellow Black
%%LanguageLevel: 2
%%Pages: 1
%%BoundingBox:   -82   297   678   544
%%EndComments

%%BeginProlog
% MathWorks dictionary
/MathWorks 160 dict begin
% definition operators
/bdef {bind def} bind def
/ldef {load def} bind def
/xdef {exch def} bdef
/xstore {exch store} bdef
% operator abbreviations
/c  /clip ldef
/cc /concat ldef
/cp /closepath ldef
/gr /grestore ldef
/gs /gsave ldef
/mt /moveto ldef
/np /newpath ldef
/cm /currentmatrix ldef
/sm /setmatrix ldef
/rm /rmoveto ldef
/rl /rlineto ldef
/s {show newpath} bdef
/sc {setcmykcolor} bdef
/sr /setrgbcolor ldef
/sg /setgray ldef
/w /setlinewidth ldef
/j /setlinejoin ldef
/cap /setlinecap ldef
/rc {rectclip} bdef
/rf {rectfill} bdef
% page state control
/pgsv () def
/bpage {/pgsv save def} bdef
/epage {pgsv restore} bdef
/bplot /gsave ldef
/eplot {stroke grestore} bdef
% orientation switch
/portraitMode 0 def /landscapeMode 1 def /rotateMode 2 def
% coordinate system mappings
/dpi2point 0 def
% font control
/FontSize 0 def
/FMS {/FontSize xstore findfont [FontSize 0 0 FontSize neg 0 0]
  makefont setfont} bdef
/ISOLatin1Encoding where {pop /WindowsLatin1Encoding 256 array bdef
ISOLatin1Encoding WindowsLatin1Encoding copy pop
/.notdef/.notdef/quotesinglbase/florin/quotedblbase/ellipsis/dagger
/daggerdbl/circumflex/perthousand/Scaron/guilsinglleft/OE/.notdef/.notdef
/.notdef/.notdef/quoteleft/quoteright/quotedblleft/quotedblright/bullet
/endash/emdash/tilde/trademark/scaron/guilsinglright/oe/.notdef/.notdef
/Ydieresis WindowsLatin1Encoding 128 32 getinterval astore pop}
{/WindowsLatin1Encoding StandardEncoding bdef} ifelse
/reencode {exch dup where {pop load} {pop StandardEncoding} ifelse
  exch dup 3 1 roll findfont dup length dict begin
  { 1 index /FID ne {def}{pop pop} ifelse } forall
  /Encoding exch def currentdict end definefont pop} bdef
/isroman {findfont /CharStrings get /Agrave known} bdef
/FMSR {3 1 roll 1 index dup isroman {reencode} {pop pop} ifelse
  exch FMS} bdef
/csm {1 dpi2point div -1 dpi2point div scale neg translate
 dup landscapeMode eq {pop -90 rotate}
  {rotateMode eq {90 rotate} if} ifelse} bdef
% line types: solid, dotted, dashed, dotdash
/SO { [] 0 setdash } bdef
/DO { [.5 dpi2point mul 4 dpi2point mul] 0 setdash } bdef
/DA { [6 dpi2point mul] 0 setdash } bdef
/DD { [.5 dpi2point mul 4 dpi2point mul 6 dpi2point mul 4
  dpi2point mul] 0 setdash } bdef
% macros for lines and objects
/L {lineto stroke} bdef
/MP {3 1 roll moveto 1 sub {rlineto} repeat} bdef
/AP {{rlineto} repeat} bdef
/PDlw -1 def
/W {/PDlw currentlinewidth def setlinewidth} def
/PP {closepath eofill} bdef
/DP {closepath stroke} bdef
/MR {4 -2 roll moveto dup  0 exch rlineto exch 0 rlineto
  neg 0 exch rlineto closepath} bdef
/FR {MR stroke} bdef
/PR {MR fill} bdef
/L1i {{currentfile picstr readhexstring pop} image} bdef
/tMatrix matrix def
/MakeOval {newpath tMatrix currentmatrix pop translate scale
0 0 1 0 360 arc tMatrix setmatrix} bdef
/FO {MakeOval stroke} bdef
/PO {MakeOval fill} bdef
/PD {currentlinewidth 2 div 0 360 arc fill
   PDlw -1 eq not {PDlw w /PDlw -1 def} if} def
/FA {newpath tMatrix currentmatrix pop translate scale
  0 0 1 5 -2 roll arc tMatrix setmatrix stroke} bdef
/PA {newpath tMatrix currentmatrix pop	translate 0 0 moveto scale
  0 0 1 5 -2 roll arc closepath tMatrix setmatrix fill} bdef
/FAn {newpath tMatrix currentmatrix pop translate scale
  0 0 1 5 -2 roll arcn tMatrix setmatrix stroke} bdef
/PAn {newpath tMatrix currentmatrix pop translate 0 0 moveto scale
  0 0 1 5 -2 roll arcn closepath tMatrix setmatrix fill} bdef
/vradius 0 def /hradius 0 def /lry 0 def
/lrx 0 def /uly 0 def /ulx 0 def /rad 0 def
/MRR {/vradius xdef /hradius xdef /lry xdef /lrx xdef /uly xdef
  /ulx xdef newpath tMatrix currentmatrix pop ulx hradius add uly
  vradius add translate hradius vradius scale 0 0 1 180 270 arc 
  tMatrix setmatrix lrx hradius sub uly vradius add translate
  hradius vradius scale 0 0 1 270 360 arc tMatrix setmatrix
  lrx hradius sub lry vradius sub translate hradius vradius scale
  0 0 1 0 90 arc tMatrix setmatrix ulx hradius add lry vradius sub
  translate hradius vradius scale 0 0 1 90 180 arc tMatrix setmatrix
  closepath} bdef
/FRR {MRR stroke } bdef
/PRR {MRR fill } bdef
/MlrRR {/lry xdef /lrx xdef /uly xdef /ulx xdef /rad lry uly sub 2 div def
  newpath tMatrix currentmatrix pop ulx rad add uly rad add translate
  rad rad scale 0 0 1 90 270 arc tMatrix setmatrix lrx rad sub lry rad
  sub translate rad rad scale 0 0 1 270 90 arc tMatrix setmatrix
  closepath} bdef
/FlrRR {MlrRR stroke } bdef
/PlrRR {MlrRR fill } bdef
/MtbRR {/lry xdef /lrx xdef /uly xdef /ulx xdef /rad lrx ulx sub 2 div def
  newpath tMatrix currentmatrix pop ulx rad add uly rad add translate
  rad rad scale 0 0 1 180 360 arc tMatrix setmatrix lrx rad sub lry rad
  sub translate rad rad scale 0 0 1 0 180 arc tMatrix setmatrix
  closepath} bdef
/FtbRR {MtbRR stroke } bdef
/PtbRR {MtbRR fill } bdef
/stri 6 array def /dtri 6 array def
/smat 6 array def /dmat 6 array def
/tmat1 6 array def /tmat2 6 array def /dif 3 array def
/asub {/ind2 exch def /ind1 exch def dup dup
  ind1 get exch ind2 get sub exch } bdef
/tri_to_matrix {
  2 0 asub 3 1 asub 4 0 asub 5 1 asub
  dup 0 get exch 1 get 7 -1 roll astore } bdef
/compute_transform {
  dmat dtri tri_to_matrix tmat1 invertmatrix 
  smat stri tri_to_matrix tmat2 concatmatrix } bdef
/ds {stri astore pop} bdef
/dt {dtri astore pop} bdef
/db {2 copy /cols xdef /rows xdef mul dup 3 mul string
  currentfile 
  3 index 0 eq {/ASCIIHexDecode filter}
  {/ASCII85Decode filter 3 index 2 eq {/RunLengthDecode filter} if }
  ifelse exch readstring pop
  dup 0 3 index getinterval /rbmap xdef
  dup 2 index dup getinterval /gbmap xdef
  1 index dup 2 mul exch getinterval /bbmap xdef pop pop}bdef
/it {gs np dtri aload pop moveto lineto lineto cp c
  cols rows 8 compute_transform 
  rbmap gbmap bbmap true 3 colorimage gr}bdef
/il {newpath moveto lineto stroke}bdef
currentdict end def
%%EndProlog

%%BeginSetup
MathWorks begin

0 cap

end
%%EndSetup

%%Page: 1 1
%%BeginPageSetup
%%PageBoundingBox:   -82   297   678   544
MathWorks begin
bpage
%%EndPageSetup

%%BeginObject: obj1
bplot

/dpi2point 12 def
portraitMode -0984 6528 csm

    0     0  9124  2963 rc
85 dict begin %Colortable dictionary
/c0 { 0.000000 0.000000 0.000000 sr} bdef
/c1 { 1.000000 1.000000 1.000000 sr} bdef
/c2 { 0.900000 0.000000 0.000000 sr} bdef
/c3 { 0.000000 0.820000 0.000000 sr} bdef
/c4 { 0.000000 0.000000 0.800000 sr} bdef
/c5 { 0.910000 0.820000 0.320000 sr} bdef
/c6 { 1.000000 0.260000 0.820000 sr} bdef
/c7 { 0.000000 0.820000 0.820000 sr} bdef
c0
1 j
1 sg
   0    0 9125 2964 rf
6 w
0 1947 1947 0 0 -1947 1186 2403 4 MP
PP
-1947 0 0 1947 1947 0 0 -1947 1186 2403 5 MP stroke
4 w
DO
SO
6 w
0 sg
1186  456 mt 3133  456 L
1186 2403 mt 3133 2403 L
3133 2403 mt 3133  456 L
1186 2403 mt 1186  456 L
1186 2403 mt 3133 2403 L
1186 2403 mt 1186  456 L
1186 2403 mt 1186 2383 L
1186  456 mt 1186  475 L
%%IncludeResource: font Helvetica
/Helvetica /WindowsLatin1Encoding 120 FMSR

1153 2548 mt 
(0) s
1672 2403 mt 1672 2383 L
1672  456 mt 1672  475 L
1639 2548 mt 
(1) s
2159 2403 mt 2159 2383 L
2159  456 mt 2159  475 L
2126 2548 mt 
(2) s
2646 2403 mt 2646 2383 L
2646  456 mt 2646  475 L
2613 2548 mt 
(3) s
3133 2403 mt 3133 2383 L
3133  456 mt 3133  475 L
3100 2548 mt 
(4) s
1186 2403 mt 1205 2403 L
3133 2403 mt 3113 2403 L
1085 2447 mt 
(0) s
1186 1916 mt 1205 1916 L
3133 1916 mt 3113 1916 L
1085 1960 mt 
(1) s
1186 1429 mt 1205 1429 L
3133 1429 mt 3113 1429 L
1085 1473 mt 
(2) s
1186  942 mt 1205  942 L
3133  942 mt 3113  942 L
1085  986 mt 
(3) s
1186  456 mt 1205  456 L
3133  456 mt 3113  456 L
1085  500 mt 
(4) s
1186  456 mt 3133  456 L
1186 2403 mt 3133 2403 L
3133 2403 mt 3133  456 L
1186 2403 mt 1186  456 L
gs 1186 456 1948 1948 rc
36 w
gs 2049 1319 221 221 rc
/c8 { 1.000000 0.000000 0.000000 sr} bdef
c8
  36   36 2159 1429 FO
gr

c8
6 w
gr

c8
gs 1285 438 1837 2035 rc
0 sg
2268 1105 mt 2340 1105 L
2304 1069 mt 2304 1141 L
2687 1658 mt 2759 1658 L
2723 1622 mt 2723 1694 L
1356 1487 mt 1428 1487 L
1392 1451 mt 1392 1523 L
2307  739 mt 2379  739 L
2343  703 mt 2343  775 L
2632 2268 mt 2704 2268 L
2668 2232 mt 2668 2304 L
2404 2399 mt 2476 2399 L
2440 2363 mt 2440 2435 L
2034  624 mt 2106  624 L
2070  588 mt 2070  660 L
1648 2339 mt 1720 2339 L
1684 2303 mt 1684 2375 L
2657 1780 mt 2729 1780 L
2693 1744 mt 2693 1816 L
1551 2367 mt 1623 2367 L
1587 2331 mt 1587 2403 L
2903 1012 mt 2975 1012 L
2939  976 mt 2939 1048 L
2386 1783 mt 2458 1783 L
2422 1747 mt 2422 1819 L
1501 1874 mt 1573 1874 L
1537 1838 mt 1537 1910 L
1432 1768 mt 1504 1768 L
1468 1732 mt 1468 1804 L
1903 2171 mt 1975 2171 L
1939 2135 mt 1939 2207 L
2871 1849 mt 2943 1849 L
2907 1813 mt 2907 1885 L
1322 2253 mt 1394 2253 L
1358 2217 mt 1358 2289 L
1724  511 mt 1796  511 L
1760  475 mt 1760  547 L
2832 1106 mt 2904 1106 L
2868 1070 mt 2868 1142 L
1352 2145 mt 1424 2145 L
1388 2109 mt 1388 2181 L
2101 2351 mt 2173 2351 L
2137 2315 mt 2137 2387 L
3012 1594 mt 3084 1594 L
3048 1558 mt 3048 1630 L
2468 2108 mt 2540 2108 L
2504 2072 mt 2504 2144 L
2228 1136 mt 2300 1136 L
2264 1100 mt 2264 1172 L
2279 1080 mt 2329 1130 L
2329 1080 mt 2279 1130 L
2698 1633 mt 2748 1683 L
2748 1633 mt 2698 1683 L
1367 1462 mt 1417 1512 L
1417 1462 mt 1367 1512 L
2318  714 mt 2368  764 L
2368  714 mt 2318  764 L
2643 2243 mt 2693 2293 L
2693 2243 mt 2643 2293 L
2415 2374 mt 2465 2424 L
2465 2374 mt 2415 2424 L
2045  599 mt 2095  649 L
2095  599 mt 2045  649 L
1659 2314 mt 1709 2364 L
1709 2314 mt 1659 2364 L
2668 1755 mt 2718 1805 L
2718 1755 mt 2668 1805 L
1562 2342 mt 1612 2392 L
1612 2342 mt 1562 2392 L
2914  987 mt 2964 1037 L
2964  987 mt 2914 1037 L
2397 1758 mt 2447 1808 L
2447 1758 mt 2397 1808 L
1512 1849 mt 1562 1899 L
1562 1849 mt 1512 1899 L
1443 1743 mt 1493 1793 L
1493 1743 mt 1443 1793 L
1914 2146 mt 1964 2196 L
1964 2146 mt 1914 2196 L
2882 1824 mt 2932 1874 L
2932 1824 mt 2882 1874 L
1333 2228 mt 1383 2278 L
1383 2228 mt 1333 2278 L
1735  486 mt 1785  536 L
1785  486 mt 1735  536 L
2843 1081 mt 2893 1131 L
2893 1081 mt 2843 1131 L
1363 2120 mt 1413 2170 L
1413 2120 mt 1363 2170 L
2112 2326 mt 2162 2376 L
2162 2326 mt 2112 2376 L
3023 1569 mt 3073 1619 L
3073 1569 mt 3023 1619 L
2479 2083 mt 2529 2133 L
2529 2083 mt 2479 2133 L
2239 1111 mt 2289 1161 L
2289 1111 mt 2239 1161 L
gr

0 sg
gs 1186 456 1948 1948 rc
24 w
145 -324 2159 1429 2 MP stroke
gr

24 w
%%IncludeResource: font Helvetica-Bold
/Helvetica-Bold /WindowsLatin1Encoding 144 FMSR

2088 2709 mt 
(x) s
%%IncludeResource: font Helvetica-Bold
/Helvetica-Bold /WindowsLatin1Encoding 108 FMSR

2168 2781 mt 
(1) s
%%IncludeResource: font Helvetica-Bold
/Helvetica-Bold /WindowsLatin1Encoding 144 FMSR

 934 1500 mt  -90 rotate
(x) s
90 rotate
%%IncludeResource: font Helvetica-Bold
/Helvetica-Bold /WindowsLatin1Encoding 108 FMSR

1006 1420 mt  -90 rotate
(2) s
90 rotate
gs 1186 456 1948 1948 rc
263 354 2159 1429 2 MP stroke
-234 -481 2304 1105 2 MP stroke
564 1 2304 1105 2 MP stroke
-310 -113 2070 624 2 MP stroke
-483 388 2422 1783 2 MP stroke
485 66 2422 1783 2 MP stroke
-145 -387 1537 1874 2 MP stroke
-402 -297 1939 2171 2 MP stroke
gr

%%IncludeResource: font Helvetica-Bold
/Helvetica-Bold /WindowsLatin1Encoding 120 FMSR

1679  361 mt 
(Optimal Solution) s
6 w
1 sg
0 1947 1947 0 0 -1947 3748 2403 4 MP
PP
-1947 0 0 1947 1947 0 0 -1947 3748 2403 5 MP stroke
4 w
DO
SO
6 w
0 sg
3748  456 mt 5695  456 L
3748 2403 mt 5695 2403 L
5695 2403 mt 5695  456 L
3748 2403 mt 3748  456 L
3748 2403 mt 5695 2403 L
3748 2403 mt 3748  456 L
3748 2403 mt 3748 2383 L
3748  456 mt 3748  475 L
%%IncludeResource: font Helvetica
/Helvetica /WindowsLatin1Encoding 120 FMSR

3715 2548 mt 
(0) s
4234 2403 mt 4234 2383 L
4234  456 mt 4234  475 L
4201 2548 mt 
(1) s
4721 2403 mt 4721 2383 L
4721  456 mt 4721  475 L
4688 2548 mt 
(2) s
5208 2403 mt 5208 2383 L
5208  456 mt 5208  475 L
5175 2548 mt 
(3) s
5695 2403 mt 5695 2383 L
5695  456 mt 5695  475 L
5662 2548 mt 
(4) s
3748 2403 mt 3767 2403 L
5695 2403 mt 5675 2403 L
3647 2447 mt 
(0) s
3748 1916 mt 3767 1916 L
5695 1916 mt 5675 1916 L
3647 1960 mt 
(1) s
3748 1429 mt 3767 1429 L
5695 1429 mt 5675 1429 L
3647 1473 mt 
(2) s
3748  942 mt 3767  942 L
5695  942 mt 5675  942 L
3647  986 mt 
(3) s
3748  456 mt 3767  456 L
5695  456 mt 5675  456 L
3647  500 mt 
(4) s
3748  456 mt 5695  456 L
3748 2403 mt 5695 2403 L
5695 2403 mt 5695  456 L
3748 2403 mt 3748  456 L
gs 3748 456 1948 1948 rc
36 w
gs 4611 1319 221 221 rc
c8
  36   36 4721 1429 FO
gr

c8
6 w
gr

c8
gs 3847 438 1837 2035 rc
0 sg
4830 1105 mt 4902 1105 L
4866 1069 mt 4866 1141 L
5249 1658 mt 5321 1658 L
5285 1622 mt 5285 1694 L
3918 1487 mt 3990 1487 L
3954 1451 mt 3954 1523 L
4869  739 mt 4941  739 L
4905  703 mt 4905  775 L
5194 2268 mt 5266 2268 L
5230 2232 mt 5230 2304 L
4966 2399 mt 5038 2399 L
5002 2363 mt 5002 2435 L
4596  624 mt 4668  624 L
4632  588 mt 4632  660 L
4210 2339 mt 4282 2339 L
4246 2303 mt 4246 2375 L
5219 1780 mt 5291 1780 L
5255 1744 mt 5255 1816 L
4113 2367 mt 4185 2367 L
4149 2331 mt 4149 2403 L
5465 1012 mt 5537 1012 L
5501  976 mt 5501 1048 L
4948 1783 mt 5020 1783 L
4984 1747 mt 4984 1819 L
4063 1874 mt 4135 1874 L
4099 1838 mt 4099 1910 L
3994 1768 mt 4066 1768 L
4030 1732 mt 4030 1804 L
4465 2171 mt 4537 2171 L
4501 2135 mt 4501 2207 L
5433 1849 mt 5505 1849 L
5469 1813 mt 5469 1885 L
3884 2253 mt 3956 2253 L
3920 2217 mt 3920 2289 L
4286  511 mt 4358  511 L
4322  475 mt 4322  547 L
5394 1106 mt 5466 1106 L
5430 1070 mt 5430 1142 L
3914 2145 mt 3986 2145 L
3950 2109 mt 3950 2181 L
4663 2351 mt 4735 2351 L
4699 2315 mt 4699 2387 L
5574 1594 mt 5646 1594 L
5610 1558 mt 5610 1630 L
5030 2108 mt 5102 2108 L
5066 2072 mt 5066 2144 L
4790 1136 mt 4862 1136 L
4826 1100 mt 4826 1172 L
4841 1080 mt 4891 1130 L
4891 1080 mt 4841 1130 L
5260 1633 mt 5310 1683 L
5310 1633 mt 5260 1683 L
3929 1462 mt 3979 1512 L
3979 1462 mt 3929 1512 L
4880  714 mt 4930  764 L
4930  714 mt 4880  764 L
5205 2243 mt 5255 2293 L
5255 2243 mt 5205 2293 L
4977 2374 mt 5027 2424 L
5027 2374 mt 4977 2424 L
4607  599 mt 4657  649 L
4657  599 mt 4607  649 L
4221 2314 mt 4271 2364 L
4271 2314 mt 4221 2364 L
5230 1755 mt 5280 1805 L
5280 1755 mt 5230 1805 L
4124 2342 mt 4174 2392 L
4174 2342 mt 4124 2392 L
5476  987 mt 5526 1037 L
5526  987 mt 5476 1037 L
4959 1758 mt 5009 1808 L
5009 1758 mt 4959 1808 L
4074 1849 mt 4124 1899 L
4124 1849 mt 4074 1899 L
4005 1743 mt 4055 1793 L
4055 1743 mt 4005 1793 L
4476 2146 mt 4526 2196 L
4526 2146 mt 4476 2196 L
5444 1824 mt 5494 1874 L
5494 1824 mt 5444 1874 L
3895 2228 mt 3945 2278 L
3945 2228 mt 3895 2278 L
4297  486 mt 4347  536 L
4347  486 mt 4297  536 L
5405 1081 mt 5455 1131 L
5455 1081 mt 5405 1131 L
3925 2120 mt 3975 2170 L
3975 2120 mt 3925 2170 L
4674 2326 mt 4724 2376 L
4724 2326 mt 4674 2376 L
5585 1569 mt 5635 1619 L
5635 1569 mt 5585 1619 L
5041 2083 mt 5091 2133 L
5091 2083 mt 5041 2133 L
4801 1111 mt 4851 1161 L
4851 1111 mt 4801 1161 L
gr

0 sg
gs 3748 456 1948 1948 rc
24 w
-767 58 4721 1429 2 MP stroke
gr

24 w
%%IncludeResource: font Helvetica-Bold
/Helvetica-Bold /WindowsLatin1Encoding 144 FMSR

4650 2709 mt 
(x) s
%%IncludeResource: font Helvetica-Bold
/Helvetica-Bold /WindowsLatin1Encoding 108 FMSR

4730 2781 mt 
(1) s
%%IncludeResource: font Helvetica-Bold
/Helvetica-Bold /WindowsLatin1Encoding 144 FMSR

3496 1500 mt  -90 rotate
(x) s
90 rotate
%%IncludeResource: font Helvetica-Bold
/Helvetica-Bold /WindowsLatin1Encoding 108 FMSR

3568 1420 mt  -90 rotate
(2) s
90 rotate
gs 3748 456 1948 1948 rc
-220 742 4721 1429 2 MP stroke
105 -293 4721 1429 2 MP stroke
596 273 4905 739 2 MP stroke
-583 -228 4905 739 2 MP stroke
239 -419 5230 2268 2 MP stroke
729 97 4501 2171 2 MP stroke
79 -397 4826 1136 2 MP stroke
gr

%%IncludeResource: font Helvetica-Bold
/Helvetica-Bold /WindowsLatin1Encoding 120 FMSR

3781  219 mt 
(Solution of Algorithm 1 with the  ) s
3604  361 mt 
( Upper bound of the objective  function) s
6 w
1 sg
0 1947 1947 0 0 -1947 6310 2403 4 MP
PP
-1947 0 0 1947 1947 0 0 -1947 6310 2403 5 MP stroke
4 w
DO
SO
6 w
0 sg
6310  456 mt 8257  456 L
6310 2403 mt 8257 2403 L
8257 2403 mt 8257  456 L
6310 2403 mt 6310  456 L
6310 2403 mt 8257 2403 L
6310 2403 mt 6310  456 L
6310 2403 mt 6310 2383 L
6310  456 mt 6310  475 L
%%IncludeResource: font Helvetica
/Helvetica /WindowsLatin1Encoding 120 FMSR

6277 2548 mt 
(0) s
6796 2403 mt 6796 2383 L
6796  456 mt 6796  475 L
6763 2548 mt 
(1) s
7283 2403 mt 7283 2383 L
7283  456 mt 7283  475 L
7250 2548 mt 
(2) s
7770 2403 mt 7770 2383 L
7770  456 mt 7770  475 L
7737 2548 mt 
(3) s
8257 2403 mt 8257 2383 L
8257  456 mt 8257  475 L
8224 2548 mt 
(4) s
6310 2403 mt 6329 2403 L
8257 2403 mt 8237 2403 L
6209 2447 mt 
(0) s
6310 1916 mt 6329 1916 L
8257 1916 mt 8237 1916 L
6209 1960 mt 
(1) s
6310 1429 mt 6329 1429 L
8257 1429 mt 8237 1429 L
6209 1473 mt 
(2) s
6310  942 mt 6329  942 L
8257  942 mt 8237  942 L
6209  986 mt 
(3) s
6310  456 mt 6329  456 L
8257  456 mt 8237  456 L
6209  500 mt 
(4) s
6310  456 mt 8257  456 L
6310 2403 mt 8257 2403 L
8257 2403 mt 8257  456 L
6310 2403 mt 6310  456 L
gs 6310 456 1948 1948 rc
36 w
gs 7173 1319 221 221 rc
c8
  36   36 7283 1429 FO
gr

c8
6 w
gr

c8
gs 6409 438 1837 2035 rc
0 sg
7392 1105 mt 7464 1105 L
7428 1069 mt 7428 1141 L
7811 1658 mt 7883 1658 L
7847 1622 mt 7847 1694 L
6480 1487 mt 6552 1487 L
6516 1451 mt 6516 1523 L
7431  739 mt 7503  739 L
7467  703 mt 7467  775 L
7756 2268 mt 7828 2268 L
7792 2232 mt 7792 2304 L
7528 2399 mt 7600 2399 L
7564 2363 mt 7564 2435 L
7158  624 mt 7230  624 L
7194  588 mt 7194  660 L
6772 2339 mt 6844 2339 L
6808 2303 mt 6808 2375 L
7781 1780 mt 7853 1780 L
7817 1744 mt 7817 1816 L
6675 2367 mt 6747 2367 L
6711 2331 mt 6711 2403 L
8027 1012 mt 8099 1012 L
8063  976 mt 8063 1048 L
7510 1783 mt 7582 1783 L
7546 1747 mt 7546 1819 L
6625 1874 mt 6697 1874 L
6661 1838 mt 6661 1910 L
6556 1768 mt 6628 1768 L
6592 1732 mt 6592 1804 L
7027 2171 mt 7099 2171 L
7063 2135 mt 7063 2207 L
7995 1849 mt 8067 1849 L
8031 1813 mt 8031 1885 L
6446 2253 mt 6518 2253 L
6482 2217 mt 6482 2289 L
6848  511 mt 6920  511 L
6884  475 mt 6884  547 L
7956 1106 mt 8028 1106 L
7992 1070 mt 7992 1142 L
6476 2145 mt 6548 2145 L
6512 2109 mt 6512 2181 L
7225 2351 mt 7297 2351 L
7261 2315 mt 7261 2387 L
8136 1594 mt 8208 1594 L
8172 1558 mt 8172 1630 L
7592 2108 mt 7664 2108 L
7628 2072 mt 7628 2144 L
7352 1136 mt 7424 1136 L
7388 1100 mt 7388 1172 L
7403 1080 mt 7453 1130 L
7453 1080 mt 7403 1130 L
7822 1633 mt 7872 1683 L
7872 1633 mt 7822 1683 L
6491 1462 mt 6541 1512 L
6541 1462 mt 6491 1512 L
7442  714 mt 7492  764 L
7492  714 mt 7442  764 L
7767 2243 mt 7817 2293 L
7817 2243 mt 7767 2293 L
7539 2374 mt 7589 2424 L
7589 2374 mt 7539 2424 L
7169  599 mt 7219  649 L
7219  599 mt 7169  649 L
6783 2314 mt 6833 2364 L
6833 2314 mt 6783 2364 L
7792 1755 mt 7842 1805 L
7842 1755 mt 7792 1805 L
6686 2342 mt 6736 2392 L
6736 2342 mt 6686 2392 L
8038  987 mt 8088 1037 L
8088  987 mt 8038 1037 L
7521 1758 mt 7571 1808 L
7571 1758 mt 7521 1808 L
6636 1849 mt 6686 1899 L
6686 1849 mt 6636 1899 L
6567 1743 mt 6617 1793 L
6617 1743 mt 6567 1793 L
7038 2146 mt 7088 2196 L
7088 2146 mt 7038 2196 L
8006 1824 mt 8056 1874 L
8056 1824 mt 8006 1874 L
6457 2228 mt 6507 2278 L
6507 2228 mt 6457 2278 L
6859  486 mt 6909  536 L
6909  486 mt 6859  536 L
7967 1081 mt 8017 1131 L
8017 1081 mt 7967 1131 L
6487 2120 mt 6537 2170 L
6537 2120 mt 6487 2170 L
7236 2326 mt 7286 2376 L
7286 2326 mt 7236 2376 L
8147 1569 mt 8197 1619 L
8197 1569 mt 8147 1619 L
7603 2083 mt 7653 2133 L
7653 2083 mt 7603 2133 L
7363 1111 mt 7413 1161 L
7413 1111 mt 7363 1161 L
gr

0 sg
gs 6310 456 1948 1948 rc
24 w
-767 58 7283 1429 2 MP stroke
gr

24 w
%%IncludeResource: font Helvetica-Bold
/Helvetica-Bold /WindowsLatin1Encoding 144 FMSR

7212 2709 mt 
(x) s
%%IncludeResource: font Helvetica-Bold
/Helvetica-Bold /WindowsLatin1Encoding 108 FMSR

7292 2781 mt 
(1) s
%%IncludeResource: font Helvetica-Bold
/Helvetica-Bold /WindowsLatin1Encoding 144 FMSR

6058 1500 mt  -90 rotate
(x) s
90 rotate
%%IncludeResource: font Helvetica-Bold
/Helvetica-Bold /WindowsLatin1Encoding 108 FMSR

6130 1420 mt  -90 rotate
(2) s
90 rotate
gs 6310 456 1948 1948 rc
263 354 7283 1429 2 MP stroke
105 -293 7283 1429 2 MP stroke
76 281 6516 1487 2 MP stroke
485 66 7546 1783 2 MP stroke
-110 485 6592 1768 2 MP stroke
-239 419 8031 1849 2 MP stroke
141 -255 8031 1849 2 MP stroke
-109 -582 8172 1594 2 MP stroke
-504 -625 7388 1136 2 MP stroke
gr

%%IncludeResource: font Helvetica-Bold
/Helvetica-Bold /WindowsLatin1Encoding 120 FMSR

6343  219 mt 
(Solution of Algorithm 1 with the  ) s
6164  361 mt 
( Lower bound of the objective  function) s
6 w

end %%Color Dict

eplot
%%EndObject

epage
end

showpage

%%Trailer
%%EOF
