%!PS-Adobe-3.0 EPSF-3.0
%%Creator: MATLAB, The Mathworks, Inc. Version 7.5.0.342 (R2007b). Operating System: Microsoft Windows XP.
%%Title: D:\roberto\dottorato\LAVORI SOTTOMESSI\RIVISTA\AUTOMATICA\journal09sensor\lqg.eps
%%CreationDate: 05/01/2009  14:14:17
%%DocumentNeededFonts: Helvetica
%%+ Helvetica-Bold
%%DocumentProcessColors: Cyan Magenta Yellow Black
%%LanguageLevel: 2
%%Pages: 1
%%BoundingBox:    22   241   572   601
%%EndComments

%%BeginProlog
% MathWorks dictionary
/MathWorks 160 dict begin
% definition operators
/bdef {bind def} bind def
/ldef {load def} bind def
/xdef {exch def} bdef
/xstore {exch store} bdef
% operator abbreviations
/c  /clip ldef
/cc /concat ldef
/cp /closepath ldef
/gr /grestore ldef
/gs /gsave ldef
/mt /moveto ldef
/np /newpath ldef
/cm /currentmatrix ldef
/sm /setmatrix ldef
/rm /rmoveto ldef
/rl /rlineto ldef
/s {show newpath} bdef
/sc {setcmykcolor} bdef
/sr /setrgbcolor ldef
/sg /setgray ldef
/w /setlinewidth ldef
/j /setlinejoin ldef
/cap /setlinecap ldef
/rc {rectclip} bdef
/rf {rectfill} bdef
% page state control
/pgsv () def
/bpage {/pgsv save def} bdef
/epage {pgsv restore} bdef
/bplot /gsave ldef
/eplot {stroke grestore} bdef
% orientation switch
/portraitMode 0 def /landscapeMode 1 def /rotateMode 2 def
% coordinate system mappings
/dpi2point 0 def
% font control
/FontSize 0 def
/FMS {/FontSize xstore findfont [FontSize 0 0 FontSize neg 0 0]
  makefont setfont} bdef
/ISOLatin1Encoding where {pop /WindowsLatin1Encoding 256 array bdef
ISOLatin1Encoding WindowsLatin1Encoding copy pop
/.notdef/.notdef/quotesinglbase/florin/quotedblbase/ellipsis/dagger
/daggerdbl/circumflex/perthousand/Scaron/guilsinglleft/OE/.notdef/.notdef
/.notdef/.notdef/quoteleft/quoteright/quotedblleft/quotedblright/bullet
/endash/emdash/tilde/trademark/scaron/guilsinglright/oe/.notdef/.notdef
/Ydieresis WindowsLatin1Encoding 128 32 getinterval astore pop}
{/WindowsLatin1Encoding StandardEncoding bdef} ifelse
/reencode {exch dup where {pop load} {pop StandardEncoding} ifelse
  exch dup 3 1 roll findfont dup length dict begin
  { 1 index /FID ne {def}{pop pop} ifelse } forall
  /Encoding exch def currentdict end definefont pop} bdef
/isroman {findfont /CharStrings get /Agrave known} bdef
/FMSR {3 1 roll 1 index dup isroman {reencode} {pop pop} ifelse
  exch FMS} bdef
/csm {1 dpi2point div -1 dpi2point div scale neg translate
 dup landscapeMode eq {pop -90 rotate}
  {rotateMode eq {90 rotate} if} ifelse} bdef
% line types: solid, dotted, dashed, dotdash
/SO { [] 0 setdash } bdef
/DO { [.5 dpi2point mul 4 dpi2point mul] 0 setdash } bdef
/DA { [6 dpi2point mul] 0 setdash } bdef
/DD { [.5 dpi2point mul 4 dpi2point mul 6 dpi2point mul 4
  dpi2point mul] 0 setdash } bdef
% macros for lines and objects
/L {lineto stroke} bdef
/MP {3 1 roll moveto 1 sub {rlineto} repeat} bdef
/AP {{rlineto} repeat} bdef
/PDlw -1 def
/W {/PDlw currentlinewidth def setlinewidth} def
/PP {closepath eofill} bdef
/DP {closepath stroke} bdef
/MR {4 -2 roll moveto dup  0 exch rlineto exch 0 rlineto
  neg 0 exch rlineto closepath} bdef
/FR {MR stroke} bdef
/PR {MR fill} bdef
/L1i {{currentfile picstr readhexstring pop} image} bdef
/tMatrix matrix def
/MakeOval {newpath tMatrix currentmatrix pop translate scale
0 0 1 0 360 arc tMatrix setmatrix} bdef
/FO {MakeOval stroke} bdef
/PO {MakeOval fill} bdef
/PD {currentlinewidth 2 div 0 360 arc fill
   PDlw -1 eq not {PDlw w /PDlw -1 def} if} def
/FA {newpath tMatrix currentmatrix pop translate scale
  0 0 1 5 -2 roll arc tMatrix setmatrix stroke} bdef
/PA {newpath tMatrix currentmatrix pop	translate 0 0 moveto scale
  0 0 1 5 -2 roll arc closepath tMatrix setmatrix fill} bdef
/FAn {newpath tMatrix currentmatrix pop translate scale
  0 0 1 5 -2 roll arcn tMatrix setmatrix stroke} bdef
/PAn {newpath tMatrix currentmatrix pop translate 0 0 moveto scale
  0 0 1 5 -2 roll arcn closepath tMatrix setmatrix fill} bdef
/vradius 0 def /hradius 0 def /lry 0 def
/lrx 0 def /uly 0 def /ulx 0 def /rad 0 def
/MRR {/vradius xdef /hradius xdef /lry xdef /lrx xdef /uly xdef
  /ulx xdef newpath tMatrix currentmatrix pop ulx hradius add uly
  vradius add translate hradius vradius scale 0 0 1 180 270 arc 
  tMatrix setmatrix lrx hradius sub uly vradius add translate
  hradius vradius scale 0 0 1 270 360 arc tMatrix setmatrix
  lrx hradius sub lry vradius sub translate hradius vradius scale
  0 0 1 0 90 arc tMatrix setmatrix ulx hradius add lry vradius sub
  translate hradius vradius scale 0 0 1 90 180 arc tMatrix setmatrix
  closepath} bdef
/FRR {MRR stroke } bdef
/PRR {MRR fill } bdef
/MlrRR {/lry xdef /lrx xdef /uly xdef /ulx xdef /rad lry uly sub 2 div def
  newpath tMatrix currentmatrix pop ulx rad add uly rad add translate
  rad rad scale 0 0 1 90 270 arc tMatrix setmatrix lrx rad sub lry rad
  sub translate rad rad scale 0 0 1 270 90 arc tMatrix setmatrix
  closepath} bdef
/FlrRR {MlrRR stroke } bdef
/PlrRR {MlrRR fill } bdef
/MtbRR {/lry xdef /lrx xdef /uly xdef /ulx xdef /rad lrx ulx sub 2 div def
  newpath tMatrix currentmatrix pop ulx rad add uly rad add translate
  rad rad scale 0 0 1 180 360 arc tMatrix setmatrix lrx rad sub lry rad
  sub translate rad rad scale 0 0 1 0 180 arc tMatrix setmatrix
  closepath} bdef
/FtbRR {MtbRR stroke } bdef
/PtbRR {MtbRR fill } bdef
/stri 6 array def /dtri 6 array def
/smat 6 array def /dmat 6 array def
/tmat1 6 array def /tmat2 6 array def /dif 3 array def
/asub {/ind2 exch def /ind1 exch def dup dup
  ind1 get exch ind2 get sub exch } bdef
/tri_to_matrix {
  2 0 asub 3 1 asub 4 0 asub 5 1 asub
  dup 0 get exch 1 get 7 -1 roll astore } bdef
/compute_transform {
  dmat dtri tri_to_matrix tmat1 invertmatrix 
  smat stri tri_to_matrix tmat2 concatmatrix } bdef
/ds {stri astore pop} bdef
/dt {dtri astore pop} bdef
/db {2 copy /cols xdef /rows xdef mul dup 3 mul string
  currentfile 
  3 index 0 eq {/ASCIIHexDecode filter}
  {/ASCII85Decode filter 3 index 2 eq {/RunLengthDecode filter} if }
  ifelse exch readstring pop
  dup 0 3 index getinterval /rbmap xdef
  dup 2 index dup getinterval /gbmap xdef
  1 index dup 2 mul exch getinterval /bbmap xdef pop pop}bdef
/it {gs np dtri aload pop moveto lineto lineto cp c
  cols rows 8 compute_transform 
  rbmap gbmap bbmap true 3 colorimage gr}bdef
/il {newpath moveto lineto stroke}bdef
currentdict end def
%%EndProlog

%%BeginSetup
MathWorks begin

0 cap

end
%%EndSetup

%%Page: 1 1
%%BeginPageSetup
%%PageBoundingBox:    22   241   572   601
MathWorks begin
bpage
%%EndPageSetup

%%BeginObject: obj1
bplot

/dpi2point 12 def
portraitMode 0264 7212 csm

    0     0  6603  4313 rc
85 dict begin %Colortable dictionary
/c0 { 0.000000 0.000000 0.000000 sr} bdef
/c1 { 1.000000 1.000000 1.000000 sr} bdef
/c2 { 0.900000 0.000000 0.000000 sr} bdef
/c3 { 0.000000 0.820000 0.000000 sr} bdef
/c4 { 0.000000 0.000000 0.800000 sr} bdef
/c5 { 0.910000 0.820000 0.320000 sr} bdef
/c6 { 1.000000 0.260000 0.820000 sr} bdef
/c7 { 0.000000 0.820000 0.820000 sr} bdef
c0
1 j
1 sg
   0    0 6604 4314 rf
6 w
0 3516 5118 0 0 -3516 858 3839 4 MP
PP
-5118 0 0 3516 5118 0 0 -3516 858 3839 5 MP stroke
4 w
DO
SO
6 w
0 sg
 858  323 mt 5976  323 L
 858 3839 mt 5976 3839 L
5976 3839 mt 5976  323 L
 858 3839 mt  858  323 L
 858 3839 mt 5976 3839 L
 858 3839 mt  858  323 L
 858 3839 mt  858 3787 L
 858  323 mt  858  374 L
%%IncludeResource: font Helvetica
/Helvetica /WindowsLatin1Encoding 120 FMSR

 825 3984 mt 
(0) s
1369 3839 mt 1369 3787 L
1369  323 mt 1369  374 L
1303 3984 mt 
(10) s
1881 3839 mt 1881 3787 L
1881  323 mt 1881  374 L
1815 3984 mt 
(20) s
2393 3839 mt 2393 3787 L
2393  323 mt 2393  374 L
2327 3984 mt 
(30) s
2905 3839 mt 2905 3787 L
2905  323 mt 2905  374 L
2839 3984 mt 
(40) s
3417 3839 mt 3417 3787 L
3417  323 mt 3417  374 L
3351 3984 mt 
(50) s
3928 3839 mt 3928 3787 L
3928  323 mt 3928  374 L
3862 3984 mt 
(60) s
4440 3839 mt 4440 3787 L
4440  323 mt 4440  374 L
4374 3984 mt 
(70) s
4952 3839 mt 4952 3787 L
4952  323 mt 4952  374 L
4886 3984 mt 
(80) s
5464 3839 mt 5464 3787 L
5464  323 mt 5464  374 L
5398 3984 mt 
(90) s
5976 3839 mt 5976 3787 L
5976  323 mt 5976  374 L
5876 3984 mt 
(100) s
 858 3839 mt  909 3839 L
5976 3839 mt 5924 3839 L
 757 3883 mt 
(0) s
 858 3448 mt  909 3448 L
5976 3448 mt 5924 3448 L
 690 3492 mt 
(50) s
 858 3057 mt  909 3057 L
5976 3057 mt 5924 3057 L
 623 3101 mt 
(100) s
 858 2667 mt  909 2667 L
5976 2667 mt 5924 2667 L
 623 2711 mt 
(150) s
 858 2276 mt  909 2276 L
5976 2276 mt 5924 2276 L
 623 2320 mt 
(200) s
 858 1885 mt  909 1885 L
5976 1885 mt 5924 1885 L
 623 1929 mt 
(250) s
 858 1495 mt  909 1495 L
5976 1495 mt 5924 1495 L
 623 1539 mt 
(300) s
 858 1104 mt  909 1104 L
5976 1104 mt 5924 1104 L
 623 1148 mt 
(350) s
 858  713 mt  909  713 L
5976  713 mt 5924  713 L
 623  757 mt 
(400) s
 858  323 mt  909  323 L
5976  323 mt 5924  323 L
 623  367 mt 
(450) s
 858  323 mt 5976  323 L
 858 3839 mt 5976 3839 L
5976 3839 mt 5976  323 L
 858 3839 mt  858  323 L
gs 858 323 5119 3517 rc
24 w
/c8 { 0.000000 0.000000 1.000000 sr} bdef
c8
52 69 51 200 51 -278 51 67 51 -126 52 67 51 88 51 -38 
51 223 51 -282 51 54 52 194 51 -159 51 -106 51 12 51 -33 
52 88 51 166 51 198 51 177 51 -575 51 96 52 -101 51 90 
51 94 51 -216 51 437 52 15 51 -490 51 -8 51 -5 51 55 
51 94 52 -130 51 52 51 153 51 -9 51 232 52 -173 51 -224 
51 158 51 246 51 -365 51 30 52 198 51 -262 51 99 51 35 
51 129 51 23 52 -297 51 -38 51 74 51 198 51 -240 52 37 
51 -3 51 17 51 112 51 -137 51 9 52 147 51 174 51 31 
51 -363 51 -62 52 20 51 111 51 115 51 -84 51 33 51 -119 
52 156 51 -242 51 37 51 178 51 86 52 -225 51 -15 51 -50 
51 -15 51 50 51 10 52 -32 51 -1 51 13 51 111 51 172 
52 29 51 188 51 -505 51 33 51 -27 51 76 52 60 51 308 
51 365 51 1660 51 430 909 863 100 MP stroke
/c9 { 1.000000 0.000000 0.000000 sr} bdef
c9
52 -137 51 166 51 -188 51 45 51 3 52 -75 51 129 51 -78 
51 110 51 -37 51 -57 52 -48 51 86 51 -42 51 145 51 325 
52 21 51 -118 51 -380 51 -36 51 -41 51 29 52 66 51 343 
51 96 51 -396 51 595 52 472 51 -1132 51 -83 51 -16 51 30 
51 52 52 -37 51 131 51 123 51 111 51 50 52 -324 51 -121 
51 96 51 122 51 -126 51 -20 52 -2 51 237 51 -38 51 181 
51 -255 51 -129 52 66 51 -127 51 -8 51 40 51 15 52 156 
51 127 51 158 51 529 51 -846 51 -22 52 58 51 -19 51 56 
51 -176 51 -40 52 5 51 19 51 212 51 405 51 -85 51 -468 
52 355 51 421 51 -622 51 239 51 551 52 -876 51 170 51 -213 
51 26 51 -128 51 -21 52 58 51 26 51 243 51 324 51 -467 
52 248 51 526 51 -854 51 -73 51 3 51 186 52 212 51 -94 
51 258 51 1414 51 1103 909 670 100 MP stroke
gr

24 w
c9
0 sg
%%IncludeResource: font Helvetica-Bold
/Helvetica-Bold /WindowsLatin1Encoding 144 FMSR

3376 4145 mt 
(k) s
 536 2332 mt  -90 rotate
(x'x+u'u) s
90 rotate
2786  222 mt 
(LQG performance) s
%%IncludeResource: font Helvetica
/Helvetica /WindowsLatin1Encoding 120 FMSR

 841 3882 mt 
( ) s
5960  365 mt 
( ) s
6 w
1 sg
0 432 1386 0 0 -432 4140 955 4 MP
PP
-1386 0 0 432 1386 0 0 -432 4140 955 5 MP stroke
4 w
DO
SO
6 w
0 sg
4140  523 mt 5526  523 L
4140  955 mt 5526  955 L
5526  955 mt 5526  523 L
4140  955 mt 4140  523 L
4140  955 mt 5526  955 L
4140  955 mt 4140  523 L
4140  523 mt 5526  523 L
4140  955 mt 5526  955 L
5526  955 mt 5526  523 L
4140  955 mt 4140  523 L
%%IncludeResource: font Helvetica-Bold
/Helvetica-Bold /WindowsLatin1Encoding 144 FMSR

4608  695 mt 
(Optimization) s
gs 4140 523 1387 433 rc
24 w
c8
360 0 4212 641 2 MP stroke
gr

24 w
c8
0 sg
4608  890 mt 
(Random ) s
gs 4140 523 1387 433 rc
c9
360 0 4212 836 2 MP stroke
6 w
gr

6 w
c9

end %%Color Dict

eplot
%%EndObject

epage
end

showpage

%%Trailer
%%EOF
