%!PS-Adobe-3.0 EPSF-3.0
%%Creator: MATLAB, The Mathworks, Inc. Version 7.6.0.324 (R2008a). Operating System: Microsoft Windows Vista.
%%Title: C:\Research\Conference\CyberSecurity_SmartGridTran\LMP1.eps
%%CreationDate: 10/15/2010  01:45:03
%%DocumentNeededFonts: Helvetica
%%DocumentProcessColors: Cyan Magenta Yellow Black
%%LanguageLevel: 2
%%Pages: 1
%%BoundingBox:    83   235   527   557
%%EndComments

%%BeginProlog
% MathWorks dictionary
/MathWorks 160 dict begin
% definition operators
/bdef {bind def} bind def
/ldef {load def} bind def
/xdef {exch def} bdef
/xstore {exch store} bdef
% operator abbreviations
/c  /clip ldef
/cc /concat ldef
/cp /closepath ldef
/gr /grestore ldef
/gs /gsave ldef
/mt /moveto ldef
/np /newpath ldef
/cm /currentmatrix ldef
/sm /setmatrix ldef
/rm /rmoveto ldef
/rl /rlineto ldef
/s {show newpath} bdef
/sc {setcmykcolor} bdef
/sr /setrgbcolor ldef
/sg /setgray ldef
/w /setlinewidth ldef
/j /setlinejoin ldef
/cap /setlinecap ldef
/rc {rectclip} bdef
/rf {rectfill} bdef
% page state control
/pgsv () def
/bpage {/pgsv save def} bdef
/epage {pgsv restore} bdef
/bplot /gsave ldef
/eplot {stroke grestore} bdef
% orientation switch
/portraitMode 0 def /landscapeMode 1 def /rotateMode 2 def
% coordinate system mappings
/dpi2point 0 def
% font control
/FontSize 0 def
/FMS {/FontSize xstore findfont [FontSize 0 0 FontSize neg 0 0]
  makefont setfont} bdef
/ISOLatin1Encoding where {pop /WindowsLatin1Encoding 256 array bdef
ISOLatin1Encoding WindowsLatin1Encoding copy pop
/.notdef/.notdef/quotesinglbase/florin/quotedblbase/ellipsis/dagger
/daggerdbl/circumflex/perthousand/Scaron/guilsinglleft/OE/.notdef/.notdef
/.notdef/.notdef/quoteleft/quoteright/quotedblleft/quotedblright/bullet
/endash/emdash/tilde/trademark/scaron/guilsinglright/oe/.notdef/.notdef
/Ydieresis WindowsLatin1Encoding 128 32 getinterval astore pop}
{/WindowsLatin1Encoding StandardEncoding bdef} ifelse
/reencode {exch dup where {pop load} {pop StandardEncoding} ifelse
  exch dup 3 1 roll findfont dup length dict begin
  { 1 index /FID ne {def}{pop pop} ifelse } forall
  /Encoding exch def currentdict end definefont pop} bdef
/isroman {findfont /CharStrings get /Agrave known} bdef
/FMSR {3 1 roll 1 index dup isroman {reencode} {pop pop} ifelse
  exch FMS} bdef
/csm {1 dpi2point div -1 dpi2point div scale neg translate
 dup landscapeMode eq {pop -90 rotate}
  {rotateMode eq {90 rotate} if} ifelse} bdef
% line types: solid, dotted, dashed, dotdash
/SO { [] 0 setdash } bdef
/DO { [.5 dpi2point mul 4 dpi2point mul] 0 setdash } bdef
/DA { [6 dpi2point mul] 0 setdash } bdef
/DD { [.5 dpi2point mul 4 dpi2point mul 6 dpi2point mul 4
  dpi2point mul] 0 setdash } bdef
% macros for lines and objects
/L {lineto stroke} bdef
/MP {3 1 roll moveto 1 sub {rlineto} repeat} bdef
/AP {{rlineto} repeat} bdef
/PDlw -1 def
/W {/PDlw currentlinewidth def setlinewidth} def
/PP {closepath eofill} bdef
/DP {closepath stroke} bdef
/MR {4 -2 roll moveto dup  0 exch rlineto exch 0 rlineto
  neg 0 exch rlineto closepath} bdef
/FR {MR stroke} bdef
/PR {MR fill} bdef
/L1i {{currentfile picstr readhexstring pop} image} bdef
/tMatrix matrix def
/MakeOval {newpath tMatrix currentmatrix pop translate scale
0 0 1 0 360 arc tMatrix setmatrix} bdef
/FO {MakeOval stroke} bdef
/PO {MakeOval fill} bdef
/PD {currentlinewidth 2 div 0 360 arc fill
   PDlw -1 eq not {PDlw w /PDlw -1 def} if} def
/FA {newpath tMatrix currentmatrix pop translate scale
  0 0 1 5 -2 roll arc tMatrix setmatrix stroke} bdef
/PA {newpath tMatrix currentmatrix pop	translate 0 0 moveto scale
  0 0 1 5 -2 roll arc closepath tMatrix setmatrix fill} bdef
/FAn {newpath tMatrix currentmatrix pop translate scale
  0 0 1 5 -2 roll arcn tMatrix setmatrix stroke} bdef
/PAn {newpath tMatrix currentmatrix pop translate 0 0 moveto scale
  0 0 1 5 -2 roll arcn closepath tMatrix setmatrix fill} bdef
/vradius 0 def /hradius 0 def /lry 0 def
/lrx 0 def /uly 0 def /ulx 0 def /rad 0 def
/MRR {/vradius xdef /hradius xdef /lry xdef /lrx xdef /uly xdef
  /ulx xdef newpath tMatrix currentmatrix pop ulx hradius add uly
  vradius add translate hradius vradius scale 0 0 1 180 270 arc 
  tMatrix setmatrix lrx hradius sub uly vradius add translate
  hradius vradius scale 0 0 1 270 360 arc tMatrix setmatrix
  lrx hradius sub lry vradius sub translate hradius vradius scale
  0 0 1 0 90 arc tMatrix setmatrix ulx hradius add lry vradius sub
  translate hradius vradius scale 0 0 1 90 180 arc tMatrix setmatrix
  closepath} bdef
/FRR {MRR stroke } bdef
/PRR {MRR fill } bdef
/MlrRR {/lry xdef /lrx xdef /uly xdef /ulx xdef /rad lry uly sub 2 div def
  newpath tMatrix currentmatrix pop ulx rad add uly rad add translate
  rad rad scale 0 0 1 90 270 arc tMatrix setmatrix lrx rad sub lry rad
  sub translate rad rad scale 0 0 1 270 90 arc tMatrix setmatrix
  closepath} bdef
/FlrRR {MlrRR stroke } bdef
/PlrRR {MlrRR fill } bdef
/MtbRR {/lry xdef /lrx xdef /uly xdef /ulx xdef /rad lrx ulx sub 2 div def
  newpath tMatrix currentmatrix pop ulx rad add uly rad add translate
  rad rad scale 0 0 1 180 360 arc tMatrix setmatrix lrx rad sub lry rad
  sub translate rad rad scale 0 0 1 0 180 arc tMatrix setmatrix
  closepath} bdef
/FtbRR {MtbRR stroke } bdef
/PtbRR {MtbRR fill } bdef
/stri 6 array def /dtri 6 array def
/smat 6 array def /dmat 6 array def
/tmat1 6 array def /tmat2 6 array def /dif 3 array def
/asub {/ind2 exch def /ind1 exch def dup dup
  ind1 get exch ind2 get sub exch } bdef
/tri_to_matrix {
  2 0 asub 3 1 asub 4 0 asub 5 1 asub
  dup 0 get exch 1 get 7 -1 roll astore } bdef
/compute_transform {
  dmat dtri tri_to_matrix tmat1 invertmatrix 
  smat stri tri_to_matrix tmat2 concatmatrix } bdef
/ds {stri astore pop} bdef
/dt {dtri astore pop} bdef
/db {2 copy /cols xdef /rows xdef mul dup 3 mul string
  currentfile 
  3 index 0 eq {/ASCIIHexDecode filter}
  {/ASCII85Decode filter 3 index 2 eq {/RunLengthDecode filter} if }
  ifelse exch readstring pop
  dup 0 3 index getinterval /rbmap xdef
  dup 2 index dup getinterval /gbmap xdef
  1 index dup 2 mul exch getinterval /bbmap xdef pop pop}bdef
/it {gs np dtri aload pop moveto lineto lineto cp c
  cols rows 8 compute_transform 
  rbmap gbmap bbmap true 3 colorimage gr}bdef
/il {newpath moveto lineto stroke}bdef
currentdict end def
%%EndProlog

%%BeginSetup
MathWorks begin

0 cap

end
%%EndSetup

%%Page: 1 1
%%BeginPageSetup
%%PageBoundingBox:    83   235   527   557
MathWorks begin
bpage
%%EndPageSetup

%%BeginObject: obj1
bplot

/dpi2point 12 def
portraitMode 0996 6684 csm

    0     0  5328  3860 rc
87 dict begin %Colortable dictionary
/c0 { 0.000000 0.000000 0.000000 sr} bdef
/c1 { 1.000000 1.000000 1.000000 sr} bdef
/c2 { 0.900000 0.000000 0.000000 sr} bdef
/c3 { 0.000000 0.820000 0.000000 sr} bdef
/c4 { 0.000000 0.000000 0.800000 sr} bdef
/c5 { 0.910000 0.820000 0.320000 sr} bdef
/c6 { 1.000000 0.260000 0.820000 sr} bdef
/c7 { 0.000000 0.820000 0.820000 sr} bdef
c0
1 j
1 sg
   0    0 5329 3861 rf
6 w
0 3145 4129 0 0 -3145 693 3435 4 MP
PP
-4129 0 0 3145 4129 0 0 -3145 693 3435 5 MP stroke
4 w
DO
SO
6 w
0 sg
 693  290 mt 4822  290 L
 693 3435 mt 4822 3435 L
4822 3435 mt 4822  290 L
 693 3435 mt  693  290 L
 693 3435 mt 4822 3435 L
 693 3435 mt  693  290 L
 693 3435 mt  693 3393 L
 693  290 mt  693  331 L
%%IncludeResource: font Helvetica
/Helvetica /WindowsLatin1Encoding 168 FMSR

 647 3625 mt 
(0) s
2069 3435 mt 2069 3393 L
2069  290 mt 2069  331 L
2023 3625 mt 
(5) s
3445 3435 mt 3445 3393 L
3445  290 mt 3445  331 L
3352 3625 mt 
(10) s
4822 3435 mt 4822 3393 L
4822  290 mt 4822  331 L
4729 3625 mt 
(15) s
 693 3435 mt  734 3435 L
4822 3435 mt 4780 3435 L
 472 3497 mt 
(30) s
 693 2985 mt  734 2985 L
4822 2985 mt 4780 2985 L
 472 3047 mt 
(32) s
 693 2536 mt  734 2536 L
4822 2536 mt 4780 2536 L
 472 2598 mt 
(34) s
 693 2087 mt  734 2087 L
4822 2087 mt 4780 2087 L
 472 2149 mt 
(36) s
 693 1637 mt  734 1637 L
4822 1637 mt 4780 1637 L
 472 1699 mt 
(38) s
 693 1188 mt  734 1188 L
4822 1188 mt 4780 1188 L
 472 1250 mt 
(40) s
 693  739 mt  734  739 L
4822  739 mt 4780  739 L
 472  801 mt 
(42) s
 693  290 mt  734  290 L
4822  290 mt 4780  290 L
 472  352 mt 
(44) s
 693  290 mt 4822  290 L
 693 3435 mt 4822 3435 L
4822 3435 mt 4822  290 L
 693 3435 mt  693  290 L
gs 693 290 4130 3146 rc
DO
24 w
/c8 { 0.000000 0.000000 1.000000 sr} bdef
c8
275 -22 275 -23 276 68 275 134 275 -89 275 22 276 23 275 -23 
275 -22 275 224 276 113 275 224 275 -1977 968 2716 14 MP stroke
gs 870 641 3775 2174 rc
SO
0 j
36 47 -36 47 -36 -47 36 -47 968 2763 5 MP
DP
36 47 -36 47 -36 -47 36 -47 1243 786 5 MP
DP
36 47 -36 47 -36 -47 36 -47 1518 1010 5 MP
DP
36 47 -36 47 -36 -47 36 -47 1794 1123 5 MP
DP
36 47 -36 47 -36 -47 36 -47 2069 1347 5 MP
DP
36 47 -36 47 -36 -47 36 -47 2344 1325 5 MP
DP
36 47 -36 47 -36 -47 36 -47 2619 1302 5 MP
DP
36 47 -36 47 -36 -47 36 -47 2895 1325 5 MP
DP
36 47 -36 47 -36 -47 36 -47 3170 1347 5 MP
DP
36 47 -36 47 -36 -47 36 -47 3445 1258 5 MP
DP
36 47 -36 47 -36 -47 36 -47 3720 1392 5 MP
DP
36 47 -36 47 -36 -47 36 -47 3996 1460 5 MP
DP
36 47 -36 47 -36 -47 36 -47 4271 1437 5 MP
DP
36 47 -36 47 -36 -47 36 -47 4546 1415 5 MP
DP
DO
gr

DD
/c9 { 1.000000 0.000000 0.000000 sr} bdef
c9
275 0 275 0 276 0 275 0 275 0 275 0 276 0 275 0 
275 0 275 0 276 0 275 0 275 0 968 1413 14 MP stroke
gs 870 1315 3775 197 rc
SO
0 j
0 -58 -58 0 0 58 58 0 939 1384 5 MP
DP
0 -58 -58 0 0 58 58 0 1214 1384 5 MP
DP
0 -58 -58 0 0 58 58 0 1489 1384 5 MP
DP
0 -58 -58 0 0 58 58 0 1765 1384 5 MP
DP
0 -58 -58 0 0 58 58 0 2040 1384 5 MP
DP
0 -58 -58 0 0 58 58 0 2315 1384 5 MP
DP
0 -58 -58 0 0 58 58 0 2590 1384 5 MP
DP
0 -58 -58 0 0 58 58 0 2866 1384 5 MP
DP
0 -58 -58 0 0 58 58 0 3141 1384 5 MP
DP
0 -58 -58 0 0 58 58 0 3416 1384 5 MP
DP
0 -58 -58 0 0 58 58 0 3691 1384 5 MP
DP
0 -58 -58 0 0 58 58 0 3967 1384 5 MP
DP
0 -58 -58 0 0 58 58 0 4242 1384 5 MP
DP
0 -58 -58 0 0 58 58 0 4517 1384 5 MP
DP
DD
gr

gr

24 w
c9
DD
0 sg
1737  158 mt 
(Ex-post LMPs at Each Bus) s
1892 3803 mt 
(Location \(Bus Number\)) s
 380 2401 mt  -90 rotate
(Price \($/MWh\)) s
90 rotate
%%IncludeResource: font Helvetica
/Helvetica /WindowsLatin1Encoding 120 FMSR

 676 3478 mt 
( ) s
4806  332 mt 
( ) s
SO
6 w
1 sg
0 444 2080 0 0 -444 2683 794 4 MP
PP
-2080 0 0 444 2080 0 0 -444 2683 794 5 MP stroke
4 w
DO
SO
6 w
0 sg
2683  350 mt 4763  350 L
2683  794 mt 4763  794 L
4763  794 mt 4763  350 L
2683  794 mt 2683  350 L
2683  794 mt 4763  794 L
2683  794 mt 2683  350 L
2683  350 mt 4763  350 L
2683  794 mt 4763  794 L
4763  794 mt 4763  350 L
2683  794 mt 2683  350 L
%%IncludeResource: font Helvetica
/Helvetica /WindowsLatin1Encoding 168 FMSR

3143  531 mt 
(Without Cyber Attack) s
gs 2683 350 2081 445 rc
DO
24 w
c8
354 0 2753 470 2 MP stroke
SO
gs 2832 372 197 197 rc
0 j
36 47 -36 47 -36 -47 36 -47 2930 517 5 MP
DP
gr

gr

24 w
c8
0 sg
3143  734 mt 
(With Cyber Attack) s
gs 2683 350 2081 445 rc
DD
c9
354 0 2753 673 2 MP stroke
SO
gs 2832 575 197 197 rc
0 j
0 -58 -58 0 0 58 58 0 2901 644 5 MP
DP
gr

6 w
gr

6 w
c9
24 w
0 j
/c10 { 1.000000 0.000000 1.000000 sr} bdef
c10
  87   90 1791 1075 FO
1 j
0 j
  87   90 1251  734 FO
1 j
0 j
/c11 { 0.000000 0.498039 0.000000 sr} bdef
c11
  87   90 1244 1403 FO
1 j
0 j
  87   90 1790 1396 FO
1 j
6 w
0 sg
-187 -239 2124 1776 2 MP stroke
47 62 -38 -122 1928 1597 3 MP
PP
-9 60 47 62 -38 -122 1928 1597 4 MP stroke
-62 -5 109 67 1890 1475 3 MP
PP
-47 -62 -62 -5 109 67 1890 1475 4 MP stroke
2125 1932 mt 
(Virtual buying at Bus 4) s
-398 -463 1762 2051 2 MP stroke
50 59 -44 -120 1358 1649 3 MP
PP
-6 61 50 59 -44 -120 1358 1649 4 MP stroke
-62 -3 112 62 1314 1529 3 MP
PP
-50 -59 -62 -3 112 62 1314 1529 4 MP stroke
1763 2207 mt 
(Virtual selling at Bus 2) s

end %%Color Dict

eplot
%%EndObject

epage
end

showpage

%%Trailer
%%EOF
