%!PS-Adobe-3.0 EPSF-3.0
%%Creator: MATLAB, The Mathworks, Inc. Version 7.6.0.324 (R2008a). Operating System: Microsoft Windows Vista.
%%Title: C:\Research\Conference\CyberSecurity_SmartGridTran\LMP2.eps
%%CreationDate: 10/15/2010  02:14:17
%%DocumentNeededFonts: Helvetica
%%DocumentProcessColors: Cyan Magenta Yellow Black
%%LanguageLevel: 2
%%Pages: 1
%%BoundingBox:    83   235   527   557
%%EndComments

%%BeginProlog
% MathWorks dictionary
/MathWorks 160 dict begin
% definition operators
/bdef {bind def} bind def
/ldef {load def} bind def
/xdef {exch def} bdef
/xstore {exch store} bdef
% operator abbreviations
/c  /clip ldef
/cc /concat ldef
/cp /closepath ldef
/gr /grestore ldef
/gs /gsave ldef
/mt /moveto ldef
/np /newpath ldef
/cm /currentmatrix ldef
/sm /setmatrix ldef
/rm /rmoveto ldef
/rl /rlineto ldef
/s {show newpath} bdef
/sc {setcmykcolor} bdef
/sr /setrgbcolor ldef
/sg /setgray ldef
/w /setlinewidth ldef
/j /setlinejoin ldef
/cap /setlinecap ldef
/rc {rectclip} bdef
/rf {rectfill} bdef
% page state control
/pgsv () def
/bpage {/pgsv save def} bdef
/epage {pgsv restore} bdef
/bplot /gsave ldef
/eplot {stroke grestore} bdef
% orientation switch
/portraitMode 0 def /landscapeMode 1 def /rotateMode 2 def
% coordinate system mappings
/dpi2point 0 def
% font control
/FontSize 0 def
/FMS {/FontSize xstore findfont [FontSize 0 0 FontSize neg 0 0]
  makefont setfont} bdef
/ISOLatin1Encoding where {pop /WindowsLatin1Encoding 256 array bdef
ISOLatin1Encoding WindowsLatin1Encoding copy pop
/.notdef/.notdef/quotesinglbase/florin/quotedblbase/ellipsis/dagger
/daggerdbl/circumflex/perthousand/Scaron/guilsinglleft/OE/.notdef/.notdef
/.notdef/.notdef/quoteleft/quoteright/quotedblleft/quotedblright/bullet
/endash/emdash/tilde/trademark/scaron/guilsinglright/oe/.notdef/.notdef
/Ydieresis WindowsLatin1Encoding 128 32 getinterval astore pop}
{/WindowsLatin1Encoding StandardEncoding bdef} ifelse
/reencode {exch dup where {pop load} {pop StandardEncoding} ifelse
  exch dup 3 1 roll findfont dup length dict begin
  { 1 index /FID ne {def}{pop pop} ifelse } forall
  /Encoding exch def currentdict end definefont pop} bdef
/isroman {findfont /CharStrings get /Agrave known} bdef
/FMSR {3 1 roll 1 index dup isroman {reencode} {pop pop} ifelse
  exch FMS} bdef
/csm {1 dpi2point div -1 dpi2point div scale neg translate
 dup landscapeMode eq {pop -90 rotate}
  {rotateMode eq {90 rotate} if} ifelse} bdef
% line types: solid, dotted, dashed, dotdash
/SO { [] 0 setdash } bdef
/DO { [.5 dpi2point mul 4 dpi2point mul] 0 setdash } bdef
/DA { [6 dpi2point mul] 0 setdash } bdef
/DD { [.5 dpi2point mul 4 dpi2point mul 6 dpi2point mul 4
  dpi2point mul] 0 setdash } bdef
% macros for lines and objects
/L {lineto stroke} bdef
/MP {3 1 roll moveto 1 sub {rlineto} repeat} bdef
/AP {{rlineto} repeat} bdef
/PDlw -1 def
/W {/PDlw currentlinewidth def setlinewidth} def
/PP {closepath eofill} bdef
/DP {closepath stroke} bdef
/MR {4 -2 roll moveto dup  0 exch rlineto exch 0 rlineto
  neg 0 exch rlineto closepath} bdef
/FR {MR stroke} bdef
/PR {MR fill} bdef
/L1i {{currentfile picstr readhexstring pop} image} bdef
/tMatrix matrix def
/MakeOval {newpath tMatrix currentmatrix pop translate scale
0 0 1 0 360 arc tMatrix setmatrix} bdef
/FO {MakeOval stroke} bdef
/PO {MakeOval fill} bdef
/PD {currentlinewidth 2 div 0 360 arc fill
   PDlw -1 eq not {PDlw w /PDlw -1 def} if} def
/FA {newpath tMatrix currentmatrix pop translate scale
  0 0 1 5 -2 roll arc tMatrix setmatrix stroke} bdef
/PA {newpath tMatrix currentmatrix pop	translate 0 0 moveto scale
  0 0 1 5 -2 roll arc closepath tMatrix setmatrix fill} bdef
/FAn {newpath tMatrix currentmatrix pop translate scale
  0 0 1 5 -2 roll arcn tMatrix setmatrix stroke} bdef
/PAn {newpath tMatrix currentmatrix pop translate 0 0 moveto scale
  0 0 1 5 -2 roll arcn closepath tMatrix setmatrix fill} bdef
/vradius 0 def /hradius 0 def /lry 0 def
/lrx 0 def /uly 0 def /ulx 0 def /rad 0 def
/MRR {/vradius xdef /hradius xdef /lry xdef /lrx xdef /uly xdef
  /ulx xdef newpath tMatrix currentmatrix pop ulx hradius add uly
  vradius add translate hradius vradius scale 0 0 1 180 270 arc 
  tMatrix setmatrix lrx hradius sub uly vradius add translate
  hradius vradius scale 0 0 1 270 360 arc tMatrix setmatrix
  lrx hradius sub lry vradius sub translate hradius vradius scale
  0 0 1 0 90 arc tMatrix setmatrix ulx hradius add lry vradius sub
  translate hradius vradius scale 0 0 1 90 180 arc tMatrix setmatrix
  closepath} bdef
/FRR {MRR stroke } bdef
/PRR {MRR fill } bdef
/MlrRR {/lry xdef /lrx xdef /uly xdef /ulx xdef /rad lry uly sub 2 div def
  newpath tMatrix currentmatrix pop ulx rad add uly rad add translate
  rad rad scale 0 0 1 90 270 arc tMatrix setmatrix lrx rad sub lry rad
  sub translate rad rad scale 0 0 1 270 90 arc tMatrix setmatrix
  closepath} bdef
/FlrRR {MlrRR stroke } bdef
/PlrRR {MlrRR fill } bdef
/MtbRR {/lry xdef /lrx xdef /uly xdef /ulx xdef /rad lrx ulx sub 2 div def
  newpath tMatrix currentmatrix pop ulx rad add uly rad add translate
  rad rad scale 0 0 1 180 360 arc tMatrix setmatrix lrx rad sub lry rad
  sub translate rad rad scale 0 0 1 0 180 arc tMatrix setmatrix
  closepath} bdef
/FtbRR {MtbRR stroke } bdef
/PtbRR {MtbRR fill } bdef
/stri 6 array def /dtri 6 array def
/smat 6 array def /dmat 6 array def
/tmat1 6 array def /tmat2 6 array def /dif 3 array def
/asub {/ind2 exch def /ind1 exch def dup dup
  ind1 get exch ind2 get sub exch } bdef
/tri_to_matrix {
  2 0 asub 3 1 asub 4 0 asub 5 1 asub
  dup 0 get exch 1 get 7 -1 roll astore } bdef
/compute_transform {
  dmat dtri tri_to_matrix tmat1 invertmatrix 
  smat stri tri_to_matrix tmat2 concatmatrix } bdef
/ds {stri astore pop} bdef
/dt {dtri astore pop} bdef
/db {2 copy /cols xdef /rows xdef mul dup 3 mul string
  currentfile 
  3 index 0 eq {/ASCIIHexDecode filter}
  {/ASCII85Decode filter 3 index 2 eq {/RunLengthDecode filter} if }
  ifelse exch readstring pop
  dup 0 3 index getinterval /rbmap xdef
  dup 2 index dup getinterval /gbmap xdef
  1 index dup 2 mul exch getinterval /bbmap xdef pop pop}bdef
/it {gs np dtri aload pop moveto lineto lineto cp c
  cols rows 8 compute_transform 
  rbmap gbmap bbmap true 3 colorimage gr}bdef
/il {newpath moveto lineto stroke}bdef
currentdict end def
%%EndProlog

%%BeginSetup
MathWorks begin

0 cap

end
%%EndSetup

%%Page: 1 1
%%BeginPageSetup
%%PageBoundingBox:    83   235   527   557
MathWorks begin
bpage
%%EndPageSetup

%%BeginObject: obj1
bplot

/dpi2point 12 def
portraitMode 0996 6684 csm

    0     0  5328  3860 rc
87 dict begin %Colortable dictionary
/c0 { 0.000000 0.000000 0.000000 sr} bdef
/c1 { 1.000000 1.000000 1.000000 sr} bdef
/c2 { 0.900000 0.000000 0.000000 sr} bdef
/c3 { 0.000000 0.820000 0.000000 sr} bdef
/c4 { 0.000000 0.000000 0.800000 sr} bdef
/c5 { 0.910000 0.820000 0.320000 sr} bdef
/c6 { 1.000000 0.260000 0.820000 sr} bdef
/c7 { 0.000000 0.820000 0.820000 sr} bdef
c0
1 j
1 sg
   0    0 5329 3861 rf
6 w
0 3145 4129 0 0 -3145 693 3435 4 MP
PP
-4129 0 0 3145 4129 0 0 -3145 693 3435 5 MP stroke
4 w
DO
SO
6 w
0 sg
 693  290 mt 4822  290 L
 693 3435 mt 4822 3435 L
4822 3435 mt 4822  290 L
 693 3435 mt  693  290 L
 693 3435 mt 4822 3435 L
 693 3435 mt  693  290 L
 693 3435 mt  693 3393 L
 693  290 mt  693  331 L
%%IncludeResource: font Helvetica
/Helvetica /WindowsLatin1Encoding 168 FMSR

 647 3625 mt 
(0) s
2069 3435 mt 2069 3393 L
2069  290 mt 2069  331 L
2023 3625 mt 
(5) s
3445 3435 mt 3445 3393 L
3445  290 mt 3445  331 L
3352 3625 mt 
(10) s
4822 3435 mt 4822 3393 L
4822  290 mt 4822  331 L
4729 3625 mt 
(15) s
 693 3435 mt  734 3435 L
4822 3435 mt 4780 3435 L
 472 3497 mt 
(32) s
 693 2806 mt  734 2806 L
4822 2806 mt 4780 2806 L
 472 2868 mt 
(34) s
 693 2177 mt  734 2177 L
4822 2177 mt 4780 2177 L
 472 2239 mt 
(36) s
 693 1548 mt  734 1548 L
4822 1548 mt 4780 1548 L
 472 1610 mt 
(38) s
 693  919 mt  734  919 L
4822  919 mt 4780  919 L
 472  981 mt 
(40) s
 693  290 mt  734  290 L
4822  290 mt 4780  290 L
 472  352 mt 
(42) s
 693  290 mt 4822  290 L
 693 3435 mt 4822 3435 L
4822 3435 mt 4822  290 L
 693 3435 mt  693  290 L
gs 693 290 4130 3146 rc
DO
24 w
/c8 { 0.000000 0.000000 1.000000 sr} bdef
c8
275 -126 275 32 276 -32 275 0 275 -31 275 31 276 -94 275 -31 
275 -63 275 377 276 -94 275 0 275 -2422 968 3183 14 MP stroke
gs 870 569 3775 2713 rc
SO
0 j
36 47 -36 47 -36 -47 36 -47 968 3230 5 MP
DP
36 47 -36 47 -36 -47 36 -47 1243 808 5 MP
DP
36 47 -36 47 -36 -47 36 -47 1518 808 5 MP
DP
36 47 -36 47 -36 -47 36 -47 1794 714 5 MP
DP
36 47 -36 47 -36 -47 36 -47 2069 1091 5 MP
DP
36 47 -36 47 -36 -47 36 -47 2344 1028 5 MP
DP
36 47 -36 47 -36 -47 36 -47 2619 997 5 MP
DP
36 47 -36 47 -36 -47 36 -47 2895 903 5 MP
DP
36 47 -36 47 -36 -47 36 -47 3170 934 5 MP
DP
36 47 -36 47 -36 -47 36 -47 3445 903 5 MP
DP
36 47 -36 47 -36 -47 36 -47 3720 903 5 MP
DP
36 47 -36 47 -36 -47 36 -47 3996 871 5 MP
DP
36 47 -36 47 -36 -47 36 -47 4271 903 5 MP
DP
36 47 -36 47 -36 -47 36 -47 4546 777 5 MP
DP
DO
gr

DD
/c9 { 1.000000 0.000000 0.000000 sr} bdef
c9
275 0 275 31 276 -31 275 31 275 -31 275 0 276 0 275 31 
275 32 275 -32 276 -31 275 31 275 -31 968 761 14 MP stroke
gs 870 600 3775 260 rc
SO
0 j
0 -58 -58 0 0 58 58 0 939 732 5 MP
DP
0 -58 -58 0 0 58 58 0 1214 701 5 MP
DP
0 -58 -58 0 0 58 58 0 1489 732 5 MP
DP
0 -58 -58 0 0 58 58 0 1765 701 5 MP
DP
0 -58 -58 0 0 58 58 0 2040 669 5 MP
DP
0 -58 -58 0 0 58 58 0 2315 701 5 MP
DP
0 -58 -58 0 0 58 58 0 2590 732 5 MP
DP
0 -58 -58 0 0 58 58 0 2866 732 5 MP
DP
0 -58 -58 0 0 58 58 0 3141 732 5 MP
DP
0 -58 -58 0 0 58 58 0 3416 701 5 MP
DP
0 -58 -58 0 0 58 58 0 3691 732 5 MP
DP
0 -58 -58 0 0 58 58 0 3967 701 5 MP
DP
0 -58 -58 0 0 58 58 0 4242 732 5 MP
DP
0 -58 -58 0 0 58 58 0 4517 732 5 MP
DP
DD
gr

DA
0 sg
275 -31 275 -95 276 32 275 0 275 94 275 -63 276 32 275 -158 
275 126 275 95 276 -63 275 0 275 -629 968 1390 14 MP stroke
gs 870 600 3775 889 rc
SO
 932 1390 mt 1004 1390 L
 968 1354 mt  968 1426 L
1207  761 mt 1279  761 L
1243  725 mt 1243  797 L
1482  761 mt 1554  761 L
1518  725 mt 1518  797 L
1758  698 mt 1830  698 L
1794  662 mt 1794  734 L
2033  793 mt 2105  793 L
2069  757 mt 2069  829 L
2308  919 mt 2380  919 L
2344  883 mt 2344  955 L
2583  761 mt 2655  761 L
2619  725 mt 2619  797 L
2859  793 mt 2931  793 L
2895  757 mt 2895  829 L
3134  730 mt 3206  730 L
3170  694 mt 3170  766 L
3409  824 mt 3481  824 L
3445  788 mt 3445  860 L
3684  824 mt 3756  824 L
3720  788 mt 3720  860 L
3960  856 mt 4032  856 L
3996  820 mt 3996  892 L
4235  761 mt 4307  761 L
4271  725 mt 4271  797 L
4510  730 mt 4582  730 L
4546  694 mt 4546  766 L
 943 1365 mt  993 1415 L
 993 1365 mt  943 1415 L
1218  736 mt 1268  786 L
1268  736 mt 1218  786 L
1493  736 mt 1543  786 L
1543  736 mt 1493  786 L
1769  673 mt 1819  723 L
1819  673 mt 1769  723 L
2044  768 mt 2094  818 L
2094  768 mt 2044  818 L
2319  894 mt 2369  944 L
2369  894 mt 2319  944 L
2594  736 mt 2644  786 L
2644  736 mt 2594  786 L
2870  768 mt 2920  818 L
2920  768 mt 2870  818 L
3145  705 mt 3195  755 L
3195  705 mt 3145  755 L
3420  799 mt 3470  849 L
3470  799 mt 3420  849 L
3695  799 mt 3745  849 L
3745  799 mt 3695  849 L
3971  831 mt 4021  881 L
4021  831 mt 3971  881 L
4246  736 mt 4296  786 L
4296  736 mt 4246  786 L
4521  705 mt 4571  755 L
4571  705 mt 4521  755 L
DA
gr

gr

24 w
DA
 728  158 mt 
(Ex-post LMP at Each Bus \(with three congested lines\)) s
1892 3803 mt 
(Location \(Bus Number\)) s
 380 2401 mt  -90 rotate
(Price \($/MWh\)) s
90 rotate
%%IncludeResource: font Helvetica
/Helvetica /WindowsLatin1Encoding 120 FMSR

 676 3478 mt 
( ) s
4806  332 mt 
( ) s
SO
6 w
1 sg
0 708 2466 0 0 -708 2321 3404 4 MP
PP
-2466 0 0 708 2466 0 0 -708 2321 3404 5 MP stroke
4 w
DO
SO
6 w
0 sg
2321 2696 mt 4787 2696 L
2321 3404 mt 4787 3404 L
4787 3404 mt 4787 2696 L
2321 3404 mt 2321 2696 L
2321 3404 mt 4787 3404 L
2321 3404 mt 2321 2696 L
2321 2696 mt 4787 2696 L
2321 3404 mt 4787 3404 L
4787 3404 mt 4787 2696 L
2321 3404 mt 2321 2696 L
%%IncludeResource: font Helvetica
/Helvetica /WindowsLatin1Encoding 168 FMSR

2789 2888 mt 
(Without Cyber Attack) s
gs 2321 2696 2467 709 rc
DO
24 w
c8
360 0 2393 2828 2 MP stroke
SO
gs 2475 2730 197 197 rc
0 j
36 47 -36 47 -36 -47 36 -47 2573 2875 5 MP
DP
gr

gr

24 w
c8
0 sg
2789 3111 mt 
(Compromising 3 Sensors) s
gs 2321 2696 2467 709 rc
DD
c9
360 0 2393 3050 2 MP stroke
SO
gs 2475 2952 197 197 rc
0 j
0 -58 -58 0 0 58 58 0 2544 3021 5 MP
DP
gr

gr

c9
0 sg
2789 3333 mt 
(Compromising 2 Sensors) s
gs 2321 2696 2467 709 rc
DA
360 0 2393 3272 2 MP stroke
SO
gs 2475 3174 197 197 rc
2537 3272 mt 2609 3272 L
2573 3236 mt 2573 3308 L
2548 3247 mt 2598 3297 L
2598 3247 mt 2548 3297 L
gr

6 w
gr

6 w
24 w
0 j
/c10 { 0.000000 0.498039 0.000000 sr} bdef
c10
  87   85  972 1385 FO
1 j
0 j
  87   85  956  750 FO
1 j
0 j
  87   85 1242  747 FO
1 j
0 j
/c11 { 1.000000 0.000000 1.000000 sr} bdef
c11
  88   85  964 3189 FO
1 j
0 j
  88   85 1224  729 FO
1 j
6 w
0 sg
-409 -640 1746 1524 2 MP stroke
41 66 -26 -126 1322 944 3 MP
PP
-15 60 41 66 -26 -126 1322 944 4 MP stroke
-61 -11 102 77 1296 818 3 MP
PP
-41 -66 -61 -11 102 77 1296 818 4 MP stroke
1747 1680 mt 
(Virtual selling at Bus 2) s
-648 935 1736 2078 2 MP stroke
45 -64 -106 73 1149 3004 3 MP
PP
61 -9 45 -64 -106 73 1149 3004 4 MP stroke
13 61 32 -125 1043 3077 3 MP
PP
-45 64 13 61 32 -125 1043 3077 4 MP stroke
1737 2041 mt 
(Virtual buying at Bus 1) s

end %%Color Dict

eplot
%%EndObject

epage
end

showpage

%%Trailer
%%EOF
