% This file was created by matlab2tikz v0.4.2.
% Copyright (c) 2008--2013, Nico Schlömer <nico.schloemer@gmail.com>
% All rights reserved.
% 
% The latest updates can be retrieved from
%   http://www.mathworks.com/matlabcentral/fileexchange/22022-matlab2tikz
% where you can also make suggestions and rate matlab2tikz.
% 
% 
% 
\begin{tikzpicture}

\begin{axis}[%
width=\figurewidth,
height=\figureheight,
scale only axis,
xmin=0,
xmax=1120,
ymin=0.0,
ymax=4.5,
xlabel={$t$ (s)},
ylabel={$W$ (kg/s)}
]
\addplot [
color=blue,
solid,
]
table[row sep=crcr]{
0 4.05137742332453\\
39 4.05137742332453\\
40 2.74610995141142\\
79 2.74610995141142\\
80 2.14139598774045\\
119 2.14139598774045\\
120 1.78652922282686\\
159 1.78652922282686\\
160 1.55028946849747\\
199 1.55028946849747\\
200 1.38015030094096\\
239 1.38015030094096\\
240 1.25085202351418\\
279 1.25085202351418\\
280 1.14868376264659\\
319 1.14868376264659\\
320 1.0655315802229\\
359 1.0655315802229\\
360 0.996271516754767\\
399 0.996271516754767\\
400 0.937499608815642\\
439 0.937499608815642\\
440 0.886860685352294\\
479 0.886860685352294\\
480 0.842669944395201\\
519 0.842669944395201\\
520 0.803688077040811\\
559 0.803688077040811\\
560 0.768981668962278\\
599 0.768981668962278\\
600 0.737833283962191\\
639 0.737833283962191\\
640 0.709681689931609\\
679 0.709681689931609\\
680 0.684081020925341\\
719 0.684081020925341\\
720 0.660672201043016\\
759 0.660672201043016\\
760 0.639162522006665\\
799 0.639162522006665\\
800 0.619310771591718\\
839 0.619310771591718\\
840 0.600916220910728\\
879 0.600916220910728\\
880 0.583607216184366\\
919 0.583607216184366\\
920 0.567567840966658\\
959 0.567567840966658\\
960 0.552658953971465\\
999 0.552658953971465\\
1000 0.538751430232213\\
1039 0.538751430232213\\
1040 0.525736309871029\\
1079 0.525736309871029\\
1080 0.513520848093013\\
1119 0.513520848093013\\
1120 0.50202548543401\\
1159 0.50202548543401\\
};
\end{axis}
\end{tikzpicture}%
