% This file was created by matlab2tikz v0.2.0.
% Copyright (c) 2008--2012, Nico Schlömer <nico.schloemer@gmail.com>
% All rights reserved.
% 
% The latest updates can be retrieved from
%   http://www.mathworks.com/matlabcentral/fileexchange/22022-matlab2tikz
% where you can also make suggestions and rate matlab2tikz.
% 
% 
% 
\begin{tikzpicture}

\begin{axis}[%
width=\figurewidth,
height=\figureheight,
xlabel={$ x^c_1(k)$},
ylabel={$ x^c_2(k)$},
scale only axis,
xmin=-4, xmax=4,
ymin=-6, ymax=6]
\addplot [
color=blue,
solid
]
coordinates{
 (-1.5894367943934,5.35537716112404)(-1.49968159280097,5.37911155368127)(-1.40843147598228,5.39748393085874)(-1.31577740403825,5.41047597867132)(-1.22181173656281,5.41807474636321)(-1.12662814057683,5.42027265931752)(-1.0303214971588,5.41706752660682)(-0.932987806865325,5.40846254317709)(-0.834724094035676,5.39446628666296)(-0.735628310075803,5.37509270883731)(-0.635799235818258,5.35036112170384)(-0.535336383055308,5.32029617824646)(-0.434339895343419,5.28492784785466)(-0.332910448177979,5.24429138644933)(-0.231149148637774,5.19842730133897)(-0.129157434599255,5.14738131084105)(-0.0270369736210576,5.09120429870901)(0.0751104384004369,5.02995226341028)(0.177182978703457,4.96368626230573)(0.279078899159993,4.8924723507864)(0.380696627700535,4.816381516428)(0.481934869563327,4.73548960822905)(0.582692708267185,4.64987726100282)(0.682869706207246,4.55962981499892)(0.782366004773345,4.46483723083418)(0.881082423891263,4.36559399981801)(0.978920560887571,4.26199904976141)(1.07578288857956,4.15415564636353)(1.17157285249247,4.04217129027422)(1.26619496710705,3.92615760993502)(1.35955491104164,3.80623025030554)(1.45155962107379,3.68250875758598)(1.54211738490763,3.55511646005093)(1.63113793259477,3.42418034511307)(1.71853252651727,3.28983093273931)(1.8042140498433,3.15220214534571)(1.88809709336701,3.01143117430062)(1.97009804064639,2.86765834316943)(2.05013515135384,2.72102696783694)(2.12812864275679,2.57168321364695)(2.20400076924684,2.41977594970153)(2.27767589983826,2.265456600465)(2.34908059355862,2.10887899482077)(2.41814367265633,1.95019921273133)(2.48479629355219,1.78957542965438)(2.54897201546415,1.62716775887009)(2.61060686663694,1.46313809187668)(2.66963940811049,1.29764993701347)(2.72601079496365,1.1308682564722)(2.77966483497205,0.962959301859155)(2.83054804462177,0.794090448471909)(2.87860970242284,0.624430028456024)(2.92380189946952,0.454147163007885)(2.96607958719699,0.283411593791027)(3.00540062228667,0.112393513733941)(3.04172580867565,-0.0587366026219306)(3.07501893662814,-0.229808169054925)(3.10524681883016,-0.400650657707217)(3.13237932347134,-0.571093769070696)(3.15638940428099,-0.740967601745216)(3.17725312748839,-0.91010282180001)(3.19494969568052,-1.07833083156944)(3.20946146853333,-1.24548393771479)(3.22077398039606,-1.41139551838467)(3.22887595471085,-1.57590018930729)(3.23375931525352,-1.73883396864908)(3.23541919418407,-1.90003444047537)(3.23385393689908,-2.0593409166501)(3.22906510368107,-2.21659459701328)(3.22105746814311,-2.37163872767643)(3.20983901247048,-2.52431875727825)(3.19542091946375,-2.67448249104482)(3.17781756139159,-2.82198024250059)(3.15704648566417,-2.9666649826792)(3.13312839734148,-3.10839248668507)(3.10608713849414,-3.24702147745998)(3.07594966443705,-3.38241376661106)(3.04274601685976,-3.51443439216002)(3.00650929388028,-3.64295175307617)(2.96727561705214,-3.76783774045922)(2.92508409535765,-3.88896786524095)(2.87997678622319,-4.00622138227868)(2.83199865359549,-4.11948141071665)(2.78119752312056,-4.22863505049536)(2.72762403447007,-4.33357349489286)(2.6713315908626,-4.4341921389856)(2.61237630583017,-4.53039068392092)(2.55081694728303,-4.62207323689716)(2.48671487892856,-4.70914840675161)(2.42013399910256,-4.79152939506128)(2.35114067707403,-4.86913408266545)(2.2798036868868,-4.94188511152378)(2.2061941388041,-5.00970996182854)(2.1303854084243,-5.07254102429392)(2.05245306353849,-5.13031566755042)(1.97247478880292,-5.18297630057719)(1.89053030830117,-5.23047043010997)(1.80670130607352,-5.27275071296757)(1.72107134469245,-5.30977500324453)(1.63372578196574,-5.34150639432312)(1.54475168584986,-5.36791325566262)(1.4542377476588,-5.38896926432936)(1.36227419365462,-5.40465343123599)(1.26895269510794,-5.41495012206384)(1.17436627691803,-5.41984907284756)(1.07860922488358,-5.41934540020647)(0.981776991716551,-5.41343960621242)(0.883966101892832,-5.40213757788929)(0.78527405543456,-5.38545058134471)(0.685799230719962,-5.36339525053974)(0.585640786417658,-5.33599357070778)(0.484898562643142,-5.3032728564392)(0.383672981435978,-5.26526572445358)(0.282064946656932,-5.22201006108666)(0.180175743404807,-5.17354898452439)(0.0781069370532566,-5.1199308018218)(-0.0240397279917901,-5.06120896074948)(-0.126162429713167,-4.99744199651568)(-0.228159369980869,-4.92869347341711)(-0.329928876026644,-4.85503192147673)(-0.431369501793616,-4.77653076813147)(-0.532380129059928,-4.6932682650382)(-0.632860068235574,-4.60532741007079)(-0.732709158731982,-4.51279586458595)(-0.831827868804262,-4.41576586604057)(-0.930117394766613,-4.31433413604739)(-1.02747975948199,-4.20860178396075)(-1.12381791002785,-4.09867420608866)(-1.21903581444059,-3.98466098063139)(-1.31303855744232,-3.86667575845161)(-1.40573243505449,-3.74483614978468)(-1.49702504800402,-3.61926360700225)(-1.58682539382892,-3.49008330354587)(-1.67504395759152,-3.3574240091514)(-1.76159280110892,-3.22141796148852)(-1.84638565061167,-3.08220073434335)(-1.92933798274333,-2.93991110247555)(-2.01036710881523,-2.79469090328464)(-2.08939225723229,-2.64668489542337)(-2.16633465400796,-2.49604061449917)(-2.24111760128783,-2.3429082260074)(-2.31366655380369,-2.18744037564319)(-2.3839091931819,-2.02979203714085)(-2.45177550003191,-1.87012035779268)(-2.51719782374314,-1.70858450180113)(-2.58011094992051,-1.54534549162048)(-2.64045216539164,-1.38056604744616)(-2.69816132072068,-1.21441042501166)(-2.75318089016655,-1.04704425185494)(-2.80545602902588,-0.878634362217213)(-2.85493462830339,-0.709348630738992)(-2.90156736665529,-0.539355805118989)(-2.94530775955382,-0.368825337902715)(-2.9861122056241,-0.197927217568534)(-3.02394003010689,-0.0268317990794332)(-3.05875352540406,0.144290365930523)(-3.09051798866641,0.315268699165739)(-3.11920175638614,0.485932765705276)(-3.14477623595979,0.656112443896061)(-3.16721593418994,0.825638094933861)(-3.18649848269737,0.994340731962946)(-3.20260466021839,1.16205218852583)(-3.21551841176497,1.32860528619528)(-3.22522686462872,1.49383400122141)(-3.2317203412127,1.65757363002774)(-3.23499236867823,1.81966095339132)(-3.23503968539717,1.97993439914322)(-3.23186224420319,2.13823420322711)(-3.22546321243877,2.29440256895566)(-3.21584896879794,2.4482838243056)(-3.20302909696784,2.59972457709505)(-3.18701637607552,2.74857386788814)(-3.16782676794941,2.89468332047469)(-3.14547940120821,3.03790728977483)(-3.11999655219309,3.17810300702116)(-3.09140362276215,3.31513072207382)(-3.05972911496926,3.44885384272641)(-3.02500460265264,3.57913907086409)(-2.98726469996136,3.70585653533806)(-2.94654702685116,3.82887992142392)(-2.90289217158411,3.94808659673496)(-2.85634365026934,4.06335773346476)(-2.8069478634852,4.17457842683735)(-2.75475405002623,4.28163780964679)(-2.69981423782075,4.384429162772)(-2.64218319206838,4.48285002155671)(-2.58191836064889,4.57680227794848)(-2.51907981685683,4.66619227829488)(-2.45373019951926,4.75093091669955)(-2.38593465055594,4.83093372384486)(-2.31576075004447,4.90612095119277)(-2.24327844885499,4.97641765047992)(-2.16855999892165,5.04175374842767)(-2.0916798812203,5.10206411659268)(-2.01271473152422,5.15728863628835)(-1.93174326401194,5.20737225851245)(-1.84884619280321,5.25226505882114)(-1.76410615150143,5.29192228709476)(-1.67760761082266,5.32630441214573)(-1.5894367943934,5.35537716112404) 
};

\end{axis}
\end{tikzpicture}
