% This file was created by matlab2tikz v0.4.2.
% Copyright (c) 2008--2013, Nico Schlömer <nico.schloemer@gmail.com>
% All rights reserved.
% 
% The latest updates can be retrieved from
%   http://www.mathworks.com/matlabcentral/fileexchange/22022-matlab2tikz
% where you can also make suggestions and rate matlab2tikz.
% 
% 
% 
\begin{tikzpicture}

\begin{axis}[%
width=\figurewidth,
height=\figureheight,
scale only axis,
xmin=0,
xmax=101,
xlabel={$\Delta J$},
ymin=0,
ymax=0.7,
ylabel={Asymptotic $\beta_k$},
legend style={at={(0.95,0.07)},anchor=south east,draw=black,fill=white,legend cell align=left}
]


\addplot [
color=red,
solid,
mark=asterisk,
mark options={solid}
]
table[row sep=crcr]{
0 0.02\\
4.8504159609008 0.109631734006734\\
10.0139002555117 0.172483164983165\\
14.9494858411767 0.22515361952862\\
19.9878686157722 0.271919191919192\\
24.9697967002066 0.305679713804714\\
30.0549239683751 0.34072601010101\\
35.0917538362899 0.366287878787879\\
40.0543111561682 0.39550505050505\\
44.8294700151157 0.420395622895623\\
49.8875877845209 0.437779882154882\\
54.9158052196998 0.455822811447811\\
59.9485492488012 0.470698653198653\\
64.8803973305272 0.484585437710438\\
70.2635915340046 0.503573232323233\\
74.8196927000125 0.515570286195286\\
79.9080384093549 0.527445286195287\\
85.0821672412797 0.538135521885522\\
89.9836823629074 0.549185606060606\\
95.2724211927131 0.556893939393939\\
100.379458716644 0.568318602693603\\
};
\addlegendentry{Stationary Watermark $\rho = 0.6$};

\addplot [
color=blue,
solid,
mark=triangle,
mark options={solid}
]
table[row sep=crcr]{
0 0.02\\
4.86779738718397 0.0795244107744107\\
9.94487558932444 0.123934351017684\\
15.018690795199 0.163663663663664\\
20.1254142940453 0.19571029362696\\
25.1597734479222 0.228196946946947\\
29.6985989437809 0.253301217884551\\
34.9878249317344 0.282259342676009\\
39.8756029110084 0.301601601601602\\
44.9982522282116 0.323850934267601\\
49.7324985598222 0.342659325992659\\
55.1100581793303 0.361801384718051\\
60.047387523805 0.375796629963297\\
64.5739995423717 0.391097347347347\\
69.5730331292281 0.404865281948615\\
75.13479851709 0.419642559225892\\
80.1024506867408 0.428835085085085\\
85.0924362620361 0.441664581247915\\
90.1556109416129 0.453841341341341\\
94.9310958849769 0.463655321988655\\
100.357805874627 0.472493326659993\\
};
\addlegendentry{IID Watermark};

\end{axis}
\end{tikzpicture}%
