% This file was created by matlab2tikz v0.4.2.
% Copyright (c) 2008--2013, Nico Schlömer <nico.schloemer@gmail.com>
% All rights reserved.
% 
% The latest updates can be retrieved from
%   http://www.mathworks.com/matlabcentral/fileexchange/22022-matlab2tikz
% where you can also make suggestions and rate matlab2tikz.
% 
% 
% 
\begin{tikzpicture}

\begin{axis}[%
width=\figurewidth,
height=\figureheight,
xlabel=$t$,
ylabel=$y(t)$,
xtick={0},
ytick={0,1},
xmajorgrids,
ymajorgrids,
xmin=-1,
xmax=10,
ymin=-0.2,
ymax=1.2
]
\addplot [
color=blue,
solid,
]
table[row sep=crcr]{
-1 0\\
0 0\\
0.1 0.0046788401604444\\
0.2 0.0175230963064219\\
0.3 0.0369363131137669\\
0.4 0.061551935550105\\
0.5 0.0902040104310499\\
0.6 0.121901382249558\\
0.7 0.155804983554604\\
0.8 0.191207864589001\\
0.9 0.227517646492862\\
1 0.264241117657115\\
1.1 0.300970724234033\\
1.2 0.337372733793155\\
1.3 0.373176876021771\\
1.4 0.408167286540144\\
1.5 0.442174599628925\\
1.6 0.475069053213896\\
1.7 0.506754485057616\\
1.8 0.537163112979558\\
1.9 0.566251004254358\\
2 0.593994150290162\\
2.1 0.620385072415756\\
2.2 0.645429893240532\\
2.3 0.669145815714748\\
2.4 0.691558958815998\\
2.5 0.712702504816354\\
2.6 0.732615118428398\\
2.7 0.751339602862926\\
2.8 0.768921762024172\\
2.9 0.785409441780012\\
3 0.800851726528544\\
3.1 0.815298270186413\\
3.2 0.828798743290862\\
3.3 0.841402380174668\\
3.4 0.853157612174565\\
3.5 0.864111774599567\\
3.6 0.874310876742454\\
3.7 0.883799425589405\\
3.8 0.892620295090405\\
3.9 0.900814633915558\\
4 0.908421805556329\\
4.1 0.915479355451018\\
4.2 0.922023000533516\\
4.3 0.928086637235335\\
4.4 0.93370236452343\\
4.5 0.938900519039667\\
4.6 0.943709719830052\\
4.7 0.948156920520334\\
4.8 0.952267467115684\\
4.9 0.956065159881546\\
5 0.959572318005487\\
5.1 0.962809845950355\\
5.2 0.965797300591283\\
5.3 0.968552958386466\\
5.4 0.971093881967279\\
5.5 0.973435985649984\\
5.6 0.975594099471213\\
5.7 0.977582031434942\\
5.8 0.979412627731444\\
5.9 0.981097830750498\\
6 0.982648734763335\\
6.1 0.984075639191651\\
6.2 0.985388099418671\\
6.3 0.986594975127689\\
6.4 0.987704476178513\\
6.5 0.988724206052668\\
6.6 0.989661202914636\\
6.7 0.990521978349414\\
6.8 0.99131255384681\\
6.9 0.992038495110517\\
7 0.992704944275564\\
7.1 0.993316650121546\\
7.2 0.993877996371311\\
7.3 0.994393028165891\\
7.4 0.994865476806512\\
7.5 0.995298782853743\\
7.6 0.995696117672411\\
7.7 0.996060403508885\\
7.8 0.996394332184978\\
7.9 0.996700382489914\\
8 0.996980836348877\\
8.1 0.997237793843482\\
8.2 0.997473187156256\\
8.3 0.997688793507896\\
8.4 0.997886247152719\\
8.5 0.998067050494399\\
8.6 0.998232584380791\\
8.7 0.99838411763342\\
8.8 0.998522815864064\\
8.9 0.998649749627828\\
9 0.998765901959133\\
9.1 0.99887217533425\\
9.2 0.998969398101262\\
9.3 0.999058330415775\\
9.4 0.999139669718211\\
9.5 0.999214055786179\\
9.6 0.999282075393197\\
9.7 0.999344266602931\\
9.8 0.999401122726132\\
9.9 0.999453095965588\\
10 0.999500600772613\\
};
\addplot [
color=blue,
solid,
]
table[row sep=crcr]{
-1 0\\
0 -5.55111512312578e-17\\
0.1 0.00461910419090295\\
0.2 0.0170946948481976\\
0.3 0.03563959464831\\
0.4 0.0587940457957321\\
0.5 0.0853688150021\\
0.6 0.114398035179547\\
0.7 0.145100125217042\\
0.8 0.176845411355668\\
0.9 0.209129307851103\\
1 0.24155010896535\\
1.1 0.273790605634628\\
1.2 0.305602874035187\\
1.3 0.336795694377206\\
1.4 0.367224150469564\\
1.5 0.396781037127918\\
1.6 0.425389766011606\\
1.7 0.452998513184618\\
1.8 0.479575395439158\\
1.9 0.50510449872174\\
2 0.529582612126815\\
2.1 0.55301654592174\\
2.2 0.575420932811346\\
2.3 0.59681642886385\\
2.4 0.617228244802867\\
2.5 0.636684950221301\\
2.6 0.655217503105481\\
2.7 0.672858465215455\\
2.8 0.689641370634776\\
2.9 0.705600220416915\\
3 0.720769080911909\\
3.1 0.735181767218876\\
3.2 0.748871596412828\\
3.3 0.761871197850013\\
3.4 0.774212370057886\\
3.5 0.785925975541121\\
3.6 0.797041866347869\\
3.7 0.807588834494106\\
3.8 0.817594582382417\\
3.9 0.82708570921174\\
4 0.836087710086769\\
4.1 0.844624985125171\\
4.2 0.852720856348464\\
4.3 0.860397590545694\\
4.4 0.867676426632385\\
4.5 0.874577606302561\\
4.6 0.881120406998902\\
4.7 0.88732317641354\\
4.8 0.893203367886415\\
4.9 0.898777576195237\\
5 0.904061573335566\\
5.1 0.90907034397528\\
5.2 0.913818120337968\\
5.3 0.918318416327213\\
5.4 0.922584060750625\\
5.5 0.926627229540568\\
5.6 0.930459476899445\\
5.7 0.934091765322331\\
5.8 0.937534494469827\\
5.9 0.940797528879956\\
6 0.943890224520674\\
6.1 0.946821454194486\\
6.2 0.949599631814448\\
6.3 0.952232735576699\\
6.4 0.954728330059147\\
6.5 0.957093587279122\\
6.6 0.959335306745073\\
6.7 0.961459934538827\\
6.8 0.963473581465749\\
6.9 0.965382040310464\\
7 0.967190802235699\\
7.1 0.968905072361408\\
7.2 0.970529784560695\\
7.3 0.972069615508215\\
7.4 0.973528998015756\\
7.5 0.974912133688641\\
7.6 0.976223004935441\\
7.7 0.977465386362291\\
7.8 0.978642855581912\\
7.9 0.979758803466205\\
8 0.98081644387006\\
8.1 0.98181882285284\\
8.2 0.982768827422798\\
8.3 0.983669193828558\\
8.4 0.984522515420622\\
8.5 0.985331250104847\\
8.6 0.986097727408713\\
8.7 0.986824155180254\\
8.8 0.987512625938513\\
8.9 0.988165122893463\\
9 0.988783525652452\\
9.1 0.989369615629366\\
9.2 0.989925081171889\\
9.3 0.990451522421462\\
9.4 0.990950455919812\\
9.5 0.991423318975202\\
9.6 0.991871473800879\\
9.7 0.992296211437577\\
9.8 0.99269875547129\\
9.9 0.993080265556994\\
10 0.993441840758405\\
};
\addplot [
color=blue,
solid,
]
table[row sep=crcr]{
-1 0\\
0 -1.11022302462516e-16\\
0.1 0.00456052297187751\\
0.2 0.0166823010464007\\
0.3 0.034413114493206\\
0.4 0.0562286260236754\\
0.5 0.0809411691645552\\
0.6 0.107627877990778\\
0.7 0.13557406107472\\
0.8 0.164228590248424\\
0.9 0.193168758742026\\
1 0.222072602375402\\
1.1 0.250697102418059\\
1.2 0.278861023674957\\
1.3 0.306431405362565\\
1.4 0.333312930433055\\
1.5 0.359439563026522\\
1.6 0.384767973015018\\
1.7 0.409272368504996\\
1.8 0.432940437485304\\
1.9 0.455770163116872\\
2 0.477767327060559\\
2.1 0.498943554570933\\
2.2 0.51931478608446\\
2.3 0.538900084464961\\
2.4 0.557720706327944\\
2.5 0.575799381044621\\
2.6 0.593159752990171\\
2.7 0.609825952030011\\
2.8 0.625822264669372\\
2.9 0.641172884148423\\
3 0.655901722381007\\
3.1 0.670032270272688\\
3.2 0.683587495820377\\
3.3 0.696589771654719\\
3.4 0.709060825466266\\
3.5 0.72102170815888\\
3.6 0.732492775678627\\
3.7 0.743493681336728\\
3.8 0.754043376130668\\
3.9 0.764160115107366\\
4 0.773861468237399\\
4.1 0.783164334603834\\
4.2 0.792084958972534\\
4.3 0.800638950017936\\
4.4 0.808841299641184\\
4.5 0.816706402945482\\
4.6 0.824248078534084\\
4.7 0.831479588875251\\
4.8 0.838413660540318\\
4.9 0.845062504169518\\
5 0.851437834058035\\
5.1 0.857550887284344\\
5.2 0.863412442325933\\
5.3 0.869032837125352\\
5.4 0.874421986583393\\
5.5 0.879589399466858\\
5.6 0.884544194726527\\
5.7 0.889295117227172\\
5.8 0.893850552896101\\
5.9 0.898218543300246\\
6 0.902406799664291\\
6.1 0.906422716344209\\
6.2 0.910273383771765\\
6.3 0.913965600886389\\
6.4 0.917505887071269\\
6.5 0.920900493610718\\
6.6 0.924155414685877\\
6.7 0.927276397925687\\
6.8 0.930268954529776\\
6.9 0.933138368979604\\
7 0.93588970835377\\
7.1 0.938527831262992\\
7.2 0.941057396419761\\
7.3 0.943482870857208\\
7.4 0.945808537811235\\
7.5 0.94803850427944\\
7.6 0.950176708269912\\
7.7 0.952226925752444\\
7.8 0.954192777324283\\
7.9 0.956077734602016\\
8 0.957885126350791\\
8.1 0.959618144361597\\
8.2 0.96127984908691\\
8.3 0.962873175044606\\
8.4 0.964400935999641\\
8.5 0.96586582993261\\
8.6 0.96727044380394\\
8.7 0.968617258122093\\
8.8 0.969908651323856\\
8.9 0.971146903974409\\
9 0.972334202794605\\
9.1 0.973472644522545\\
9.2 0.974564239616279\\
9.3 0.97561091580415\\
9.4 0.976614521489056\\
9.5 0.977576829012642\\
9.6 0.978499537785175\\
9.7 0.97938427728663\\
9.8 0.98023260994429\\
9.9 0.981046033891938\\
10 0.981825985615504\\
};
\addplot [
color=blue,
solid,
]
table[row sep=crcr]{
-1 0\\
0 0\\
0.1 0.00450306959025243\\
0.2 0.0162851902932918\\
0.3 0.0332522412719451\\
0.4 0.0538392437809048\\
0.5 0.0768788367991182\\
0.6 0.101502370816854\\
0.7 0.127065532984262\\
0.8 0.153092421643407\\
0.9 0.179233496065665\\
1 0.205233961216406\\
1.1 0.230910000237874\\
1.2 0.256130908774611\\
1.3 0.280805667680632\\
1.4 0.304872853466336\\
1.5 0.328293058714911\\
1.6 0.351043199921607\\
1.7 0.373112244555411\\
1.8 0.394498005224434\\
1.9 0.415204736129829\\
2 0.435241332652828\\
2.1 0.454619984301146\\
2.2 0.473355168380135\\
2.3 0.491462899685733\\
2.4 0.508960172523062\\
2.5 0.525864547153256\\
2.6 0.542193844652884\\
2.7 0.557965923106265\\
2.8 0.573198514771275\\
2.9 0.587909108913371\\
3 0.60211486880339\\
3.1 0.615832574233069\\
3.2 0.629078583051775\\
3.3 0.641868806844345\\
3.4 0.654218697085465\\
3.5 0.666143239019955\\
3.6 0.677656951205553\\
3.7 0.688773889171418\\
3.8 0.699507652033981\\
3.9 0.709871391203695\\
4 0.719877820535649\\
4.1 0.729539227441838\\
4.2 0.73886748460673\\
4.3 0.747874062040727\\
4.4 0.756570039275941\\
4.5 0.764966117561004\\
4.6 0.773072631950929\\
4.7 0.780899563217363\\
4.8 0.788456549526589\\
4.9 0.795752897849021\\
5 0.80279759507616\\
5.1 0.809599318830072\\
5.2 0.816166447957152\\
5.3 0.822507072702919\\
5.4 0.828629004568167\\
5.5 0.834539785849483\\
5.6 0.840246698868967\\
5.7 0.84575677489936\\
5.8 0.851076802791666\\
5.9 0.856213337312979\\
6 0.861172707202571\\
6.1 0.865961022954516\\
6.2 0.870584184335193\\
6.3 0.875047887643979\\
6.4 0.879357632725395\\
6.5 0.883518729740795\\
6.6 0.887536305707554\\
6.7 0.891415310813498\\
6.8 0.895160524514157\\
6.9 0.898776561420148\\
7 0.902267876981852\\
7.1 0.905638772978256\\
7.2 0.908893402816689\\
7.3 0.912035776649892\\
7.4 0.915069766316709\\
7.5 0.917999110112453\\
7.6 0.92082741739479\\
7.7 0.923558173030813\\
7.8 0.926194741690761\\
7.9 0.928740371993675\\
8 0.931198200510076\\
8.1 0.933571255626608\\
8.2 0.935862461277397\\
8.3 0.93807464054671\\
8.4 0.940210519147371\\
8.5 0.942272728779201\\
8.6 0.944263810371624\\
8.7 0.946186217214443\\
8.8 0.94804231798062\\
8.9 0.949834399644814\\
9 0.951564670301242\\
9.1 0.953235261884356\\
9.2 0.954848232795688\\
9.3 0.956405570440075\\
9.4 0.957909193674426\\
9.5 0.959360955172019\\
9.6 0.960762643705245\\
9.7 0.962115986349634\\
9.8 0.963422650611846\\
9.9 0.964684246484269\\
10 0.965902328428763\\
};
\addplot [
color=blue,
solid,
]
table[row sep=crcr]{
-1 0\\
0 8.32667268468867e-17\\
0.1 0.00444671783173285\\
0.2 0.0159026746244861\\
0.3 0.0321526857278019\\
0.4 0.0516110428276928\\
0.5 0.0731445138662436\\
0.6 0.095945057593244\\
0.7 0.119438290878988\\
0.8 0.143217667923664\\
0.9 0.166997150343901\\
1 0.190577175047078\\
1.1 0.213820185217473\\
1.2 0.236633038576171\\
1.3 0.258954361362575\\
1.4 0.280745458940257\\
1.5 0.301983784043607\\
1.6 0.322658244237189\\
1.7 0.342765831924904\\
1.8 0.362309205348095\\
1.9 0.381294953363719\\
2 0.399732351839761\\
2.1 0.417632473475319\\
2.2 0.435007551666119\\
2.3 0.451870526949257\\
2.4 0.468234724634885\\
2.5 0.484113626668875\\
2.6 0.499520711152482\\
2.7 0.514469340411286\\
2.8 0.528972683874986\\
2.9 0.54304366589104\\
3 0.556694931371938\\
3.1 0.56993882417282\\
3.2 0.582787374532199\\
3.3 0.595252292941179\\
3.4 0.607344968549115\\
3.5 0.619076470747631\\
3.6 0.630457552958804\\
3.7 0.641498657929361\\
3.8 0.652209924031158\\
3.9 0.662601192210855\\
4 0.672682013334206\\
4.1 0.682461655744034\\
4.2 0.691949112903871\\
4.3 0.701153111037234\\
4.4 0.710082116699746\\
4.5 0.718744344240874\\
4.6 0.727147763126049\\
4.7 0.73530010509992\\
4.8 0.743208871178692\\
4.9 0.750881338464526\\
5 0.758324566778626\\
5.1 0.765545405112168\\
5.2 0.772550497896017\\
5.3 0.779346291091406\\
5.4 0.785939038104588\\
5.5 0.792334805529072\\
5.6 0.798539478719361\\
5.7 0.804558767200379\\
5.8 0.810398209916868\\
5.9 0.816063180327092\\
6 0.82155889134517\\
6.1 0.826890400136334\\
6.2 0.832062612769346\\
6.3 0.837080288730206\\
6.4 0.84194804530123\\
6.5 0.846670361809435\\
6.6 0.851251583748117\\
6.7 0.855695926775352\\
6.8 0.860007480593101\\
6.9 0.864190212710446\\
7 0.868247972094424\\
7.1 0.872184492711798\\
7.2 0.876003396965027\\
7.3 0.879708199025579\\
7.4 0.88330230806767\\
7.5 0.886789031405376\\
7.6 0.890171577536031\\
7.7 0.89345305909269\\
7.8 0.896636495708377\\
7.9 0.899724816794764\\
8 0.902720864237823\\
8.1 0.90562739501294\\
8.2 0.908447083721889\\
8.3 0.911182525054018\\
8.4 0.913836236173886\\
8.5 0.916410659037573\\
8.6 0.918908162639771\\
8.7 0.921331045193749\\
8.8 0.923681536246176\\
8.9 0.925961798728755\\
9 0.92817393094857\\
9.1 0.93031996851895\\
9.2 0.93240188623265\\
9.3 0.934421599879067\\
9.4 0.936380968007152\\
9.5 0.938281793635661\\
9.6 0.940125825912293\\
9.7 0.941914761723271\\
9.8 0.943650247254815\\
9.9 0.945333879507979\\
10 0.946967207768209\\
};
\addplot [
color=blue,
solid,
]
table[row sep=crcr]{
-1 0\\
0 6.93889390390723e-17\\
0.1 0.00439144216137063\\
0.2 0.0155341007267895\\
0.3 0.0311104735066585\\
0.4 0.0495305800203199\\
0.5 0.0697052059019594\\
0.6 0.0908897801957383\\
0.7 0.112576884986542\\
0.8 0.134422249459605\\
0.9 0.156193798694138\\
1 0.177736576098191\\
1.1 0.198948595132494\\
1.2 0.219764216020482\\
1.3 0.240142703502715\\
1.4 0.260060351777831\\
1.5 0.279505065452447\\
1.6 0.298472631429784\\
1.7 0.316964154969971\\
1.8 0.3349842972324\\
1.9 0.352540064581674\\
2 0.369639977721982\\
2.1 0.386293502280418\\
2.2 0.402510659333963\\
2.3 0.418301759763714\\
2.4 0.433677223800615\\
2.5 0.448647459162823\\
2.6 0.463222779471797\\
2.7 0.477413350339861\\
2.8 0.491229154450494\\
2.9 0.504679969657401\\
3 0.517775355990677\\
3.1 0.530524648740595\\
3.2 0.542936955672295\\
3.3 0.555021157032439\\
3.4 0.566785907427314\\
3.5 0.578239638939959\\
3.6 0.589390565052135\\
3.7 0.600246685073523\\
3.8 0.610815788874445\\
3.9 0.62110546178306\\
4 0.631123089552493\\
4.1 0.640875863333929\\
4.2 0.65037078461276\\
4.3 0.659614670079301\\
4.4 0.668614156415547\\
4.5 0.677375704986234\\
4.6 0.685905606427106\\
4.7 0.694209985126507\\
4.8 0.702294803598556\\
4.9 0.710165866747623\\
5 0.717828826024847\\
5.1 0.725289183478031\\
5.2 0.732552295696735\\
5.3 0.739623377654618\\
5.4 0.746507506451265\\
5.5 0.753209624955826\\
5.6 0.759734545354822\\
5.7 0.766086952606508\\
5.8 0.772271407804142\\
5.9 0.778292351450501\\
6 0.784154106645931\\
6.1 0.789860882192195\\
6.2 0.795416775614301\\
6.3 0.800825776102485\\
6.4 0.806091767376429\\
6.5 0.811218530473766\\
6.6 0.816209746464881\\
6.7 0.821068999095939\\
6.8 0.825799777362034\\
6.9 0.83040547801232\\
7 0.834889407988904\\
7.1 0.839254786801262\\
7.2 0.843504748837879\\
7.3 0.847642345616768\\
7.4 0.851670547976495\\
7.5 0.855592248209268\\
7.6 0.859410262137636\\
7.7 0.863127331136276\\
7.8 0.866746124100334\\
7.9 0.870269239361712\\
8 0.873699206554706\\
8.1 0.877038488432305\\
8.2 0.880289482634476\\
8.3 0.883454523409695\\
8.4 0.88653588329096\\
8.5 0.889535774727499\\
8.6 0.892456351673323\\
8.7 0.8952997111338\\
8.8 0.898067894671316\\
8.9 0.900762889871147\\
9 0.903386631768559\\
9.1 0.90594100423819\\
9.2 0.908427841346691\\
9.3 0.910848928669601\\
9.4 0.913206004573413\\
9.5 0.915500761463743\\
9.6 0.917734847000485\\
9.7 0.91990986528086\\
9.8 0.922027377991168\\
9.9 0.924088905528094\\
10 0.926095928090377\\
};

\draw [->](axis cs:1,0.3)--(axis cs:2,0.2);
\node [anchor=north west] at (axis cs:2,0.2) {Increase $\zeta$};
\node[coordinate,pin=135:{Critically Damped}] at (axis cs:3,0.8) {};
\end{axis}
\end{tikzpicture}%
