%!PS-Adobe-3.0 EPSF-3.0
%%Creator: MATLAB, The Mathworks, Inc. Version 7.9.0.529 (R2009b). Operating System: Linux 2.6.32-38-generic #83-Ubuntu SMP Wed Jan 4 11:13:04 UTC 2012 i686.
%%Title: /home/yilin/yilin/security/scs2012/velocity.eps
%%CreationDate: 02/21/2012  07:53:24
%%DocumentNeededFonts: Helvetica
%%DocumentProcessColors: Cyan Magenta Yellow Black
%%LanguageLevel: 2
%%Pages: 1
%%BoundingBox:    21   162   590   630
%%EndComments

%%BeginProlog
% MathWorks dictionary
/MathWorks 160 dict begin
% definition operators
/bdef {bind def} bind def
/ldef {load def} bind def
/xdef {exch def} bdef
/xstore {exch store} bdef
% operator abbreviations
/c  /clip ldef
/cc /concat ldef
/cp /closepath ldef
/gr /grestore ldef
/gs /gsave ldef
/mt /moveto ldef
/np /newpath ldef
/cm /currentmatrix ldef
/sm /setmatrix ldef
/rm /rmoveto ldef
/rl /rlineto ldef
/s {show newpath} bdef
/sc {setcmykcolor} bdef
/sr /setrgbcolor ldef
/sg /setgray ldef
/w /setlinewidth ldef
/j /setlinejoin ldef
/cap /setlinecap ldef
/rc {rectclip} bdef
/rf {rectfill} bdef
% page state control
/pgsv () def
/bpage {/pgsv save def} bdef
/epage {pgsv restore} bdef
/bplot /gsave ldef
/eplot {stroke grestore} bdef
% orientation switch
/portraitMode 0 def /landscapeMode 1 def /rotateMode 2 def
% coordinate system mappings
/dpi2point 0 def
% font control
/FontSize 0 def
/FMS {/FontSize xstore findfont [FontSize 0 0 FontSize neg 0 0]
  makefont setfont} bdef
/reencode {exch dup where {pop load} {pop StandardEncoding} ifelse
  exch dup 3 1 roll findfont dup length dict begin
  { 1 index /FID ne {def}{pop pop} ifelse } forall
  /Encoding exch def currentdict end definefont pop} bdef
/isroman {findfont /CharStrings get /Agrave known} bdef
/FMSR {3 1 roll 1 index dup isroman {reencode} {pop pop} ifelse
  exch FMS} bdef
/csm {1 dpi2point div -1 dpi2point div scale neg translate
 dup landscapeMode eq {pop -90 rotate}
  {rotateMode eq {90 rotate} if} ifelse} bdef
% line types: solid, dotted, dashed, dotdash
/SO { [] 0 setdash } bdef
/DO { [.5 dpi2point mul 4 dpi2point mul] 0 setdash } bdef
/DA { [6 dpi2point mul] 0 setdash } bdef
/DD { [.5 dpi2point mul 4 dpi2point mul 6 dpi2point mul 4
  dpi2point mul] 0 setdash } bdef
% macros for lines and objects
/L {lineto stroke} bdef
/MP {3 1 roll moveto 1 sub {rlineto} repeat} bdef
/AP {{rlineto} repeat} bdef
/PDlw -1 def
/W {/PDlw currentlinewidth def setlinewidth} def
/PP {closepath eofill} bdef
/DP {closepath stroke} bdef
/MR {4 -2 roll moveto dup  0 exch rlineto exch 0 rlineto
  neg 0 exch rlineto closepath} bdef
/FR {MR stroke} bdef
/PR {MR fill} bdef
/L1i {{currentfile picstr readhexstring pop} image} bdef
/tMatrix matrix def
/MakeOval {newpath tMatrix currentmatrix pop translate scale
0 0 1 0 360 arc tMatrix setmatrix} bdef
/FO {MakeOval stroke} bdef
/PO {MakeOval fill} bdef
/PD {currentlinewidth 2 div 0 360 arc fill
   PDlw -1 eq not {PDlw w /PDlw -1 def} if} def
/FA {newpath tMatrix currentmatrix pop translate scale
  0 0 1 5 -2 roll arc tMatrix setmatrix stroke} bdef
/PA {newpath tMatrix currentmatrix pop	translate 0 0 moveto scale
  0 0 1 5 -2 roll arc closepath tMatrix setmatrix fill} bdef
/FAn {newpath tMatrix currentmatrix pop translate scale
  0 0 1 5 -2 roll arcn tMatrix setmatrix stroke} bdef
/PAn {newpath tMatrix currentmatrix pop translate 0 0 moveto scale
  0 0 1 5 -2 roll arcn closepath tMatrix setmatrix fill} bdef
/vradius 0 def /hradius 0 def /lry 0 def
/lrx 0 def /uly 0 def /ulx 0 def /rad 0 def
/MRR {/vradius xdef /hradius xdef /lry xdef /lrx xdef /uly xdef
  /ulx xdef newpath tMatrix currentmatrix pop ulx hradius add uly
  vradius add translate hradius vradius scale 0 0 1 180 270 arc 
  tMatrix setmatrix lrx hradius sub uly vradius add translate
  hradius vradius scale 0 0 1 270 360 arc tMatrix setmatrix
  lrx hradius sub lry vradius sub translate hradius vradius scale
  0 0 1 0 90 arc tMatrix setmatrix ulx hradius add lry vradius sub
  translate hradius vradius scale 0 0 1 90 180 arc tMatrix setmatrix
  closepath} bdef
/FRR {MRR stroke } bdef
/PRR {MRR fill } bdef
/MlrRR {/lry xdef /lrx xdef /uly xdef /ulx xdef /rad lry uly sub 2 div def
  newpath tMatrix currentmatrix pop ulx rad add uly rad add translate
  rad rad scale 0 0 1 90 270 arc tMatrix setmatrix lrx rad sub lry rad
  sub translate rad rad scale 0 0 1 270 90 arc tMatrix setmatrix
  closepath} bdef
/FlrRR {MlrRR stroke } bdef
/PlrRR {MlrRR fill } bdef
/MtbRR {/lry xdef /lrx xdef /uly xdef /ulx xdef /rad lrx ulx sub 2 div def
  newpath tMatrix currentmatrix pop ulx rad add uly rad add translate
  rad rad scale 0 0 1 180 360 arc tMatrix setmatrix lrx rad sub lry rad
  sub translate rad rad scale 0 0 1 0 180 arc tMatrix setmatrix
  closepath} bdef
/FtbRR {MtbRR stroke } bdef
/PtbRR {MtbRR fill } bdef
/stri 6 array def /dtri 6 array def
/smat 6 array def /dmat 6 array def
/tmat1 6 array def /tmat2 6 array def /dif 3 array def
/asub {/ind2 exch def /ind1 exch def dup dup
  ind1 get exch ind2 get sub exch } bdef
/tri_to_matrix {
  2 0 asub 3 1 asub 4 0 asub 5 1 asub
  dup 0 get exch 1 get 7 -1 roll astore } bdef
/compute_transform {
  dmat dtri tri_to_matrix tmat1 invertmatrix 
  smat stri tri_to_matrix tmat2 concatmatrix } bdef
/ds {stri astore pop} bdef
/dt {dtri astore pop} bdef
/db {2 copy /cols xdef /rows xdef mul dup 3 mul string
  currentfile 
  3 index 0 eq {/ASCIIHexDecode filter}
  {/ASCII85Decode filter 3 index 2 eq {/RunLengthDecode filter} if }
  ifelse exch readstring pop
  dup 0 3 index getinterval /rbmap xdef
  dup 2 index dup getinterval /gbmap xdef
  1 index dup 2 mul exch getinterval /bbmap xdef pop pop}bdef
/it {gs np dtri aload pop moveto lineto lineto cp c
  cols rows 8 compute_transform 
  rbmap gbmap bbmap true 3 colorimage gr}bdef
/il {newpath moveto lineto stroke}bdef
currentdict end def
%%EndProlog

%%BeginSetup
MathWorks begin

0 cap

end
%%EndSetup

%%Page: 1 1
%%BeginPageSetup
%%PageBoundingBox:    21   162   590   630
MathWorks begin
bpage
%%EndPageSetup

%%BeginObject: obj1
bplot

/dpi2point 12 def
portraitMode 0252 7560 csm

    0     0  6835  5611 rc
85 dict begin %Colortable dictionary
/c0 { 0.000000 0.000000 0.000000 sr} bdef
/c1 { 1.000000 1.000000 1.000000 sr} bdef
/c2 { 0.900000 0.000000 0.000000 sr} bdef
/c3 { 0.000000 0.820000 0.000000 sr} bdef
/c4 { 0.000000 0.000000 0.800000 sr} bdef
/c5 { 0.910000 0.820000 0.320000 sr} bdef
/c6 { 1.000000 0.260000 0.820000 sr} bdef
/c7 { 0.000000 0.820000 0.820000 sr} bdef
c0
1 j
1 sg
   0    0 6836 5612 rf
6 w
0 3108 5296 0 0 -3108 889 4231 4 MP
PP
-5296 0 0 3108 5296 0 0 -3108 889 4231 5 MP stroke
4 w
DO
SO
6 w
0 sg
 889 4231 mt 6185 4231 L
 889 1123 mt 6185 1123 L
 889 4231 mt  889 1123 L
6185 4231 mt 6185 1123 L
 889 4231 mt 6185 4231 L
 889 4231 mt  889 1123 L
1265 4231 mt 1265 4178 L
1265 1123 mt 1265 1176 L
%%IncludeResource: font Helvetica
/Helvetica /ISOLatin1Encoding 168 FMSR

1121 4422 mt 
(-6) s
2023 4231 mt 2023 4178 L
2023 1123 mt 2023 1176 L
1879 4422 mt 
(-4) s
2780 4231 mt 2780 4178 L
2780 1123 mt 2780 1176 L
2636 4422 mt 
(-2) s
3537 4231 mt 3537 4178 L
3537 1123 mt 3537 1176 L
3491 4422 mt 
(0) s
4294 4231 mt 4294 4178 L
4294 1123 mt 4294 1176 L
4248 4422 mt 
(2) s
5051 4231 mt 5051 4178 L
5051 1123 mt 5051 1176 L
5005 4422 mt 
(4) s
5809 4231 mt 5809 4178 L
5809 1123 mt 5809 1176 L
5763 4422 mt 
(6) s
 889 4191 mt  941 4191 L
6185 4191 mt 6133 4191 L
 663 4253 mt 
(-4) s
 889 3813 mt  941 3813 L
6185 3813 mt 6133 3813 L
 663 3875 mt 
(-3) s
 889 3434 mt  941 3434 L
6185 3434 mt 6133 3434 L
 663 3496 mt 
(-2) s
 889 3056 mt  941 3056 L
6185 3056 mt 6133 3056 L
 663 3118 mt 
(-1) s
 889 2677 mt  941 2677 L
6185 2677 mt 6133 2677 L
 761 2739 mt 
(0) s
 889 2298 mt  941 2298 L
6185 2298 mt 6133 2298 L
 761 2360 mt 
(1) s
 889 1920 mt  941 1920 L
6185 1920 mt 6133 1920 L
 761 1982 mt 
(2) s
 889 1541 mt  941 1541 L
6185 1541 mt 6133 1541 L
 761 1603 mt 
(3) s
 889 1163 mt  941 1163 L
6185 1163 mt 6133 1163 L
 761 1225 mt 
(4) s
 889 4231 mt 6185 4231 L
 889 1123 mt 6185 1123 L
 889 4231 mt  889 1123 L
6185 4231 mt 6185 1123 L
gs 889 1123 5298 3109 rc
24 w
/c8 { 0.000000 0.000000 1.000000 sr} bdef
c8
11 6 10 6 11 5 10 5 11 6 10 5 10 4 10 5 
11 5 10 4 10 4 10 4 9 4 10 4 10 4 10 3 
9 4 10 3 9 3 9 3 10 2 9 3 9 2 9 3 
9 2 9 2 9 2 8 1 9 2 8 1 9 1 8 1 
8 1 9 1 8 0 8 1 8 0 7 0 8 0 8 0 
7 0 8 -1 7 -1 7 0 7 -1 7 -2 7 -1 7 -1 
7 -2 6 -2 7 -2 6 -2 7 -2 6 -2 6 -3 6 -2 
6 -3 5 -3 6 -3 6 -4 5 -3 5 -4 6 -3 5 -4 
5 -4 5 -5 5 -4 4 -4 5 -5 4 -5 5 -5 4 -5 
4 -5 4 -5 4 -6 3 -6 4 -5 4 -6 3 -7 3 -6 
4 -6 3 -7 3 -6 2 -7 3 -7 3 -7 2 -7 2 -8 
3 -7 2 -8 2 -8 2 -8 1 -8 2 -8 1 -8 2 -9 
1 -8 1 -9 1 -9 1 -9 1 -9 1 -9 0 -9 1 -10 
0 -49 -1 -10 0 -10 -1 -10 0 -11 -1 -11 -1 -10 -1 -11 
-1 -11 -2 -11 -1 -11 -2 -12 -1 -11 -2 -12 -2 -11 -2 -12 
-2 -12 -2 -12 -3 -12 -2 -12 -3 -12 -3 -12 -2 -13 -3 -12 
-3 -13 -4 -12 -3 -13 -3 -13 -4 -13 -4 -13 -3 -13 -4 -13 
-4 -14 -5 -13 -4 -13 -4 -14 -5 -13 -4 -14 -5 -14 -5 -14 
-5 -14 -5 -14 -5 -14 -5 -14 -6 -14 -5 -14 -6 -14 -5 -15 
-6 -14 -6 -14 -6 -15 -6 -14 -6 -15 -7 -15 -6 -14 -7 -15 
-6 -15 -7 -15 -7 -15 -7 -15 -7 -15 -7 -15 -7 -15 -8 -15 
-7 -15 -8 -15 -7 -15 -8 -16 -8 -15 -8 -15 -8 -16 -8 -15 
-8 -15 -8 -16 -9 -15 -8 -16 -9 -15 -8 -15 -9 -16 -9 -15 
-9 -16 -9 -15 -9 -16 -9 -16 -9 -15 -9 -16 -10 -15 -9 -16 
-10 -15 -9 -16 -10 -15 -10 -16 -10 -15 -9 -16 -10 -15 -10 -16 
-11 -15 -10 -16 -10 -15 -10 -16 -11 -15 -10 -15 -11 -16 -10 -15 
-11 -15 -10 -16 -11 -15 -11 -15 -11 -15 -11 -16 -11 -15 -11 -15 
-11 -15 -11 -15 -11 -15 -11 -15 -11 -15 -12 -14 -11 -15 -11 -15 
-12 -15 -11 -14 -12 -15 -11 -14 -12 -15 -12 -14 -11 -15 -12 -14 
-12 -14 -11 -14 -12 -15 -12 -14 -12 -14 -12 -13 -12 -14 -12 -14 
-12 -14 -12 -13 -12 -14 -12 -13 -12 -14 -12 -13 -12 -13 -12 -13 
-12 -14 -12 -13 -12 -12 -12 -13 -13 -13 -12 -13 -12 -12 -12 -13 
-12 -12 -13 -12 -12 -12 -12 -12 -12 -12 -12 -12 -12 -12 -13 -12 
-12 -11 -12 -12 -12 -11 -12 -11 -12 -11 -13 -11 -12 -11 -12 -11 
-12 -11 -12 -10 -12 -11 -12 -10 -12 -10 -12 -10 -12 -10 -12 -10 
-12 -10 -12 -10 -12 -9 -12 -10 -11 -9 -12 -9 -12 -9 -12 -9 
-11 -9 -12 -8 -12 -9 -11 -8 -12 -8 -11 -8 -12 -8 -11 -8 
-12 -8 -11 -8 -11 -7 4001 4046 300 MP stroke
-12 -7 -11 -7 -11 -7 -11 -7 -11 -7 -11 -7 -11 -6 -11 -6 
-11 -7 -10 -6 -11 -5 -11 -6 -10 -6 -11 -5 -11 -6 -10 -5 
-10 -5 -11 -5 -10 -4 -10 -5 -10 -4 -10 -5 -10 -4 -10 -4 
-10 -3 -9 -4 -10 -4 -10 -3 -9 -3 -10 -3 -9 -3 -9 -3 
-9 -3 -10 -2 -9 -2 -9 -2 -8 -2 -9 -2 -9 -2 -9 -1 
-8 -2 -9 -1 -8 -1 -8 -1 -8 -1 -8 0 -8 -1 -8 0 
-8 0 -8 0 -7 0 -8 0 -7 1 -8 0 -7 1 -7 1 
-7 1 -7 2 -7 1 -7 2 -6 1 -7 2 -6 2 -7 2 
-6 3 -6 2 -6 3 -6 3 -6 3 -5 3 -6 3 -5 4 
-6 3 -5 4 -5 4 -5 4 -5 4 -5 4 -4 5 -5 4 
-4 5 -5 5 -4 5 -4 5 -4 6 -4 5 -4 6 -4 6 
-3 5 -4 7 -3 6 -3 6 -3 7 -3 6 -3 7 -3 7 
-2 7 -3 7 -2 8 -2 7 -2 8 -2 7 -2 8 -2 8 
-2 8 -1 9 -2 8 -1 9 -1 8 -1 9 -1 9 -1 9 
0 9 -1 10 0 9 -1 10 0 39 1 10 0 10 1 11 
0 10 1 11 1 11 1 10 1 11 1 12 2 11 1 11 
2 11 2 12 2 11 2 12 2 12 2 12 2 12 3 12 
2 12 3 12 3 13 3 12 3 13 3 12 3 13 4 13 
3 13 4 13 4 13 4 13 4 13 4 14 4 13 4 14 
5 13 4 14 5 14 5 13 5 14 5 14 5 14 5 14 
6 14 5 15 6 14 5 14 6 15 6 14 6 15 6 14 
6 15 7 14 6 15 7 15 6 15 7 15 7 14 7 15 
7 15 7 15 7 15 8 16 7 15 7 15 8 15 8 15 
8 16 7 15 8 15 9 15 8 16 8 15 8 16 9 15 
8 16 9 15 9 15 8 16 9 15 9 16 9 16 9 15 
10 16 9 15 9 16 10 15 9 16 10 15 9 16 10 15 
10 16 10 15 10 16 10 15 10 16 10 15 10 16 11 15 
10 16 10 15 11 15 10 16 11 15 11 15 10 16 11 15 
11 15 11 15 11 15 11 15 11 15 11 15 11 15 11 15 
12 15 11 15 11 15 12 15 11 14 11 15 12 15 12 14 
11 15 12 14 11 14 12 15 12 14 12 14 11 14 12 14 
12 14 12 14 12 14 12 14 12 14 12 13 12 14 12 13 
12 14 12 13 12 13 12 13 12 13 12 13 12 13 13 13 
12 13 12 13 12 12 12 13 12 12 13 12 12 12 12 12 
12 12 12 12 13 12 12 12 12 11 12 12 12 11 12 11 
13 12 12 11 12 11 12 10 12 11 12 11 12 10 12 10 
12 11 12 10 12 10 12 10 12 10 12 9 12 10 12 9 
12 9 11 10 12 9 3213 1407 300 MP stroke
12 8 12 9 11 9 12 8 11 9 12 8 12 8 11 8 
11 8 12 8 11 7 11 8 12 7 11 7 11 7 11 7 
11 7 11 7 11 6 11 6 11 7 11 6 11 6 2953 1236 24 MP stroke
gr

24 w
c8
0 sg
3494 4600 mt 
(v) s
 571 2720 mt  -90 rotate
(x) s
90 rotate
6 w

end %%Color Dict

eplot
%%EndObject

epage
end

showpage

%%Trailer
%%EOF
