%!PS-Adobe-2.0 EPSF-2.0
%%Title: demandreduction.fig
%%Creator: fig2dev Version 3.2 Patchlevel 5c
%%CreationDate: Mon Jul 26 12:02:20 2010
%%For: Heejo Lee@HeejoLee-PC (U-HeejoLee-PC\Heejo Lee,S-1-5-21-3623003920-1038419916-3438235945-1000)
%%BoundingBox: 0 0 303 205
%Magnification: 1.0000
%%EndComments
%%BeginProlog
/$F2psDict 200 dict def
$F2psDict begin
$F2psDict /mtrx matrix put
/col-1 {0 setgray} bind def
/col0 {0.000 0.000 0.000 srgb} bind def
/col1 {0.000 0.000 1.000 srgb} bind def
/col2 {0.000 1.000 0.000 srgb} bind def
/col3 {0.000 1.000 1.000 srgb} bind def
/col4 {1.000 0.000 0.000 srgb} bind def
/col5 {1.000 0.000 1.000 srgb} bind def
/col6 {1.000 1.000 0.000 srgb} bind def
/col7 {1.000 1.000 1.000 srgb} bind def
/col8 {0.000 0.000 0.560 srgb} bind def
/col9 {0.000 0.000 0.690 srgb} bind def
/col10 {0.000 0.000 0.820 srgb} bind def
/col11 {0.530 0.810 1.000 srgb} bind def
/col12 {0.000 0.560 0.000 srgb} bind def
/col13 {0.000 0.690 0.000 srgb} bind def
/col14 {0.000 0.820 0.000 srgb} bind def
/col15 {0.000 0.560 0.560 srgb} bind def
/col16 {0.000 0.690 0.690 srgb} bind def
/col17 {0.000 0.820 0.820 srgb} bind def
/col18 {0.560 0.000 0.000 srgb} bind def
/col19 {0.690 0.000 0.000 srgb} bind def
/col20 {0.820 0.000 0.000 srgb} bind def
/col21 {0.560 0.000 0.560 srgb} bind def
/col22 {0.690 0.000 0.690 srgb} bind def
/col23 {0.820 0.000 0.820 srgb} bind def
/col24 {0.500 0.190 0.000 srgb} bind def
/col25 {0.630 0.250 0.000 srgb} bind def
/col26 {0.750 0.380 0.000 srgb} bind def
/col27 {1.000 0.500 0.500 srgb} bind def
/col28 {1.000 0.630 0.630 srgb} bind def
/col29 {1.000 0.750 0.750 srgb} bind def
/col30 {1.000 0.880 0.880 srgb} bind def
/col31 {1.000 0.840 0.000 srgb} bind def

end

/cp {closepath} bind def
/ef {eofill} bind def
/gr {grestore} bind def
/gs {gsave} bind def
/sa {save} bind def
/rs {restore} bind def
/l {lineto} bind def
/m {moveto} bind def
/rm {rmoveto} bind def
/n {newpath} bind def
/s {stroke} bind def
/sh {show} bind def
/slc {setlinecap} bind def
/slj {setlinejoin} bind def
/slw {setlinewidth} bind def
/srgb {setrgbcolor} bind def
/rot {rotate} bind def
/sc {scale} bind def
/sd {setdash} bind def
/ff {findfont} bind def
/sf {setfont} bind def
/scf {scalefont} bind def
/sw {stringwidth} bind def
/tr {translate} bind def
/tnt {dup dup currentrgbcolor
  4 -2 roll dup 1 exch sub 3 -1 roll mul add
  4 -2 roll dup 1 exch sub 3 -1 roll mul add
  4 -2 roll dup 1 exch sub 3 -1 roll mul add srgb}
  bind def
/shd {dup dup currentrgbcolor 4 -2 roll mul 4 -2 roll mul
  4 -2 roll mul srgb} bind def
/$F2psBegin {$F2psDict begin /$F2psEnteredState save def} def
/$F2psEnd {$F2psEnteredState restore end} def

/pageheader {
save
newpath 0 205 moveto 0 0 lineto 303 0 lineto 303 205 lineto closepath clip newpath
-207.3 347.4 translate
1 -1 scale
$F2psBegin
10 setmiterlimit
0 slj 0 slc
 0.06000 0.06000 sc
} bind def
/pagefooter {
$F2psEnd
restore
} bind def
%%EndProlog
pageheader
%
% Fig objects follow
%
% 
% here starts figure with depth 50
/Times-Roman ff 233.33 scf sf
6000 3750 m
gs 1 -1 sc (Peak Demand Reduction) col0 sh gr
% Arc
7.500 slw
0 slc
n 6600.0 3000.0 1500.0 126.8699 53.1301 arcn
gs col0 s gr

% Arc
n 4800.0 4365.0 915.0 -169.6111 -10.3889 arc
gs col0 s gr

% Arc
n 6600.0 4035.0 915.0 169.6111 10.3889 arcn
gs col0 s gr

% Polyline
0 slj
gs  clippath
3930 2536 m 3930 2385 l 3870 2385 l 3870 2536 l 3870 2536 l 3900 2416 l 3930 2536 l cp
eoclip
n 3900 5400 m
 3900 2400 l gs col0 s gr gr

% arrowhead
n 3930 2536 m 3900 2416 l 3870 2536 l 3930 2536 l  cp gs 0.00 setgray ef gr  col0 s
% Polyline
gs  clippath
7964 5430 m 8115 5430 l 8115 5370 l 7964 5370 l 7964 5370 l 8084 5400 l 7964 5430 l cp
eoclip
n 3900 5400 m
 8100 5400 l gs col0 s gr gr

% arrowhead
n 7964 5430 m 8084 5400 l 7964 5370 l 7964 5430 l  cp gs 0.00 setgray ef gr  col0 s
% Polyline
 [60] 0 sd
n 3900 3450 m
 7200 3450 l gs col0 s gr  [] 0 sd
% Polyline
gs  clippath
5820 3764 m 5820 3915 l 5880 3915 l 5880 3764 l 5880 3764 l 5850 3884 l 5820 3764 l cp
5880 3586 m 5880 3435 l 5820 3435 l 5820 3586 l 5820 3586 l 5850 3466 l 5880 3586 l cp
eoclip
n 5850 3450 m
 5850 3900 l gs col0 s gr gr

% arrowhead
n 5880 3586 m 5850 3466 l 5820 3586 l 5880 3586 l  cp gs 0.00 setgray ef gr  col0 s
% arrowhead
n 5820 3764 m 5850 3884 l 5880 3764 l 5820 3764 l  cp gs 0.00 setgray ef gr  col0 s
% Polyline
gs  clippath
4770 3764 m 4770 3915 l 4830 3915 l 4830 3764 l 4830 3764 l 4800 3884 l 4770 3764 l cp
eoclip
n 4800 3450 m
 4800 3900 l gs col0 s gr gr

% arrowhead
n 4770 3764 m 4800 3884 l 4830 3764 l 4770 3764 l  cp gs 0.00 setgray ef gr  col0 s
% Polyline
gs  clippath
6630 4651 m 6630 4500 l 6570 4500 l 6570 4651 l 6570 4651 l 6600 4531 l 6630 4651 l cp
eoclip
n 6600 4950 m
 6600 4515 l gs col0 s gr gr

% arrowhead
n 6630 4651 m 6600 4531 l 6570 4651 l 6630 4651 l  cp gs 0.00 setgray ef gr  col0 s
% Polyline
gs  clippath
6930 4621 m 6930 4470 l 6870 4470 l 6870 4621 l 6870 4621 l 6900 4501 l 6930 4621 l cp
eoclip
n 6900 4890 m
 6900 4485 l gs col0 s gr gr

% arrowhead
n 6930 4621 m 6900 4501 l 6870 4621 l 6930 4621 l  cp gs 0.00 setgray ef gr  col0 s
% Polyline
gs  clippath
6330 4606 m 6330 4455 l 6270 4455 l 6270 4606 l 6270 4606 l 6300 4486 l 6330 4606 l cp
eoclip
n 6300 4905 m
 6300 4470 l gs col0 s gr gr

% arrowhead
n 6330 4606 m 6300 4486 l 6270 4606 l 6330 4606 l  cp gs 0.00 setgray ef gr  col0 s
% Polyline
 [60] 0 sd
n 3900 3900 m
 7200 3900 l gs col0 s gr  [] 0 sd
% Polyline
gs  clippath
4470 3794 m 4470 3945 l 4530 3945 l 4530 3794 l 4530 3794 l 4500 3914 l 4470 3794 l cp
eoclip
n 4500 3510 m
 4500 3930 l gs col0 s gr gr

% arrowhead
n 4470 3794 m 4500 3914 l 4530 3794 l 4470 3794 l  cp gs 0.00 setgray ef gr  col0 s
% Polyline
gs  clippath
5085 3794 m 5085 3945 l 5145 3945 l 5145 3794 l 5145 3794 l 5115 3914 l 5085 3794 l cp
eoclip
n 5115 3510 m
 5115 3930 l gs col0 s gr gr

% arrowhead
n 5085 3794 m 5115 3914 l 5145 3794 l 5085 3794 l  cp gs 0.00 setgray ef gr  col0 s
/Times-Roman ff 266.67 scf sf
3675 5250 m
gs 1 -1 sc  90.0 rot (Energy Consumption) col0 sh gr
/Times-Roman ff 266.67 scf sf
7350 5775 m
gs 1 -1 sc (Time) col0 sh gr
% Arc
n 4800.0 5400.0 1500.0 -126.8699 -53.1301 arc
gs col0 s gr

% here ends figure;
pagefooter
showpage
%%Trailer
%EOF
