%!PS-Adobe-3.0 EPSF-3.0
%%BoundingBox: -40 -38 309 92 
%%HiResBoundingBox: -39.93504 -37.40495 308.3735 91.75626 
%%Creator: MetaPost 1.208
%%CreationDate: 2011.06.28:1154
%%Pages: 1
%%DocumentResources: procset mpost-minimal
%%+ font NimbusRomNo9L-Regu NimbusRomNo9L-ReguItal CMSY10 CMMI10
%%DocumentSuppliedResources: procset mpost-minimal
%%DocumentNeededResources: font NimbusRomNo9L-Regu NimbusRomNo9L-ReguItal
%%+ font CMSY10 CMMI10
%%IncludeResource: font NimbusRomNo9L-Regu
%%IncludeResource: font NimbusRomNo9L-ReguItal
%%IncludeResource: font CMSY10
%%IncludeResource: font CMMI10
%%EndComments
%%BeginProlog
%%BeginResource: procset mpost-minimal
/bd{bind def}bind def/fshow {exch findfont exch scalefont setfont show}bd
/fcp{findfont dup length dict begin{1 index/FID ne{def}{pop pop}ifelse}forall}bd
/fmc{FontMatrix dup length array copy dup dup}bd/fmd{/FontMatrix exch def}bd
/Amul{4 -1 roll exch mul 1000 div}bd/ExtendFont{fmc 0 get Amul 0 exch put fmd}bd
/ScaleFont{dup fmc 0 get Amul 0 exch put dup dup 3 get Amul 3 exch put fmd}bd
/SlantFont{fmc 2 get dup 0 eq{pop 1}if Amul FontMatrix 0 get mul 2 exch put fmd}bd
%%EndResource
%%%%BeginResource: encoding TeXBase1Encoding
/TeXBase1Encoding [ 
/.notdef /dotaccent /fi /fl /fraction /hungarumlaut /Lslash /lslash 
/ogonek /ring /.notdef /breve /minus /.notdef /Zcaron /zcaron /caron /dotlessi 
/dotlessj /ff /ffi /ffl /notequal /infinity /lessequal /greaterequal 
/partialdiff /summation /product /pi /grave /quotesingle /space /exclam 
/quotedbl /numbersign /dollar /percent /ampersand /quoteright /parenleft 
/parenright /asterisk /plus /comma /hyphen /period /slash /zero /one /two 
/three /four /five /six /seven /eight /nine /colon /semicolon /less /equal 
/greater /question /at /A /B /C /D /E /F /G /H /I /J /K /L /M /N /O /P /Q /R /S 
/T /U /V /W /X /Y /Z /bracketleft /backslash /bracketright /asciicircum 
/underscore /quoteleft /a /b /c /d /e /f /g /h /i /j /k /l /m /n /o /p /q /r /s 
/t /u /v /w /x /y /z /braceleft /bar /braceright /asciitilde /.notdef /Euro 
/integral /quotesinglbase /florin /quotedblbase /ellipsis /dagger /daggerdbl 
/circumflex /perthousand /Scaron /guilsinglleft /OE /Omega /radical 
/approxequal /.notdef /.notdef /.notdef /quotedblleft /quotedblright /bullet 
/endash /emdash /tilde /trademark /scaron /guilsinglright /oe /Delta /lozenge 
/Ydieresis /.notdef /exclamdown /cent /sterling /currency /yen /brokenbar 
/section /dieresis /copyright /ordfeminine /guillemotleft /logicalnot /hyphen 
/registered /macron /degree /plusminus /twosuperior /threesuperior /acute /mu 
/paragraph /periodcentered /cedilla /onesuperior /ordmasculine /guillemotright 
/onequarter /onehalf /threequarters /questiondown /Agrave /Aacute /Acircumflex 
/Atilde /Adieresis /Aring /AE /Ccedilla /Egrave /Eacute /Ecircumflex /Edieresis 
/Igrave /Iacute /Icircumflex /Idieresis /Eth /Ntilde /Ograve /Oacute 
/Ocircumflex /Otilde /Odieresis /multiply /Oslash /Ugrave /Uacute /Ucircumflex 
/Udieresis /Yacute /Thorn /germandbls /agrave /aacute /acircumflex /atilde 
/adieresis /aring /ae /ccedilla /egrave /eacute /ecircumflex /edieresis /igrave 
/iacute /icircumflex /idieresis /eth /ntilde /ograve /oacute /ocircumflex 
/otilde /odieresis /divide /oslash /ugrave /uacute /ucircumflex /udieresis 
/yacute /thorn /ydieresis 
] def
%%%%EndResource
%%%%BeginResource: encoding TeXBase1Encoding
/TeXBase1Encoding [ 
/.notdef /dotaccent /fi /fl /fraction /hungarumlaut /Lslash /lslash 
/ogonek /ring /.notdef /breve /minus /.notdef /Zcaron /zcaron /caron /dotlessi 
/dotlessj /ff /ffi /ffl /notequal /infinity /lessequal /greaterequal 
/partialdiff /summation /product /pi /grave /quotesingle /space /exclam 
/quotedbl /numbersign /dollar /percent /ampersand /quoteright /parenleft 
/parenright /asterisk /plus /comma /hyphen /period /slash /zero /one /two 
/three /four /five /six /seven /eight /nine /colon /semicolon /less /equal 
/greater /question /at /A /B /C /D /E /F /G /H /I /J /K /L /M /N /O /P /Q /R /S 
/T /U /V /W /X /Y /Z /bracketleft /backslash /bracketright /asciicircum 
/underscore /quoteleft /a /b /c /d /e /f /g /h /i /j /k /l /m /n /o /p /q /r /s 
/t /u /v /w /x /y /z /braceleft /bar /braceright /asciitilde /.notdef /Euro 
/integral /quotesinglbase /florin /quotedblbase /ellipsis /dagger /daggerdbl 
/circumflex /perthousand /Scaron /guilsinglleft /OE /Omega /radical 
/approxequal /.notdef /.notdef /.notdef /quotedblleft /quotedblright /bullet 
/endash /emdash /tilde /trademark /scaron /guilsinglright /oe /Delta /lozenge 
/Ydieresis /.notdef /exclamdown /cent /sterling /currency /yen /brokenbar 
/section /dieresis /copyright /ordfeminine /guillemotleft /logicalnot /hyphen 
/registered /macron /degree /plusminus /twosuperior /threesuperior /acute /mu 
/paragraph /periodcentered /cedilla /onesuperior /ordmasculine /guillemotright 
/onequarter /onehalf /threequarters /questiondown /Agrave /Aacute /Acircumflex 
/Atilde /Adieresis /Aring /AE /Ccedilla /Egrave /Eacute /Ecircumflex /Edieresis 
/Igrave /Iacute /Icircumflex /Idieresis /Eth /Ntilde /Ograve /Oacute 
/Ocircumflex /Otilde /Odieresis /multiply /Oslash /Ugrave /Uacute /Ucircumflex 
/Udieresis /Yacute /Thorn /germandbls /agrave /aacute /acircumflex /atilde 
/adieresis /aring /ae /ccedilla /egrave /eacute /ecircumflex /edieresis /igrave 
/iacute /icircumflex /idieresis /eth /ntilde /ograve /oacute /ocircumflex 
/otilde /odieresis /divide /oslash /ugrave /uacute /ucircumflex /udieresis 
/yacute /thorn /ydieresis 
] def
%%%%EndResource
%%EndProlog
%%BeginSetup
 /NimbusRomNo9L-Regu fcp
/Encoding TeXBase1Encoding def currentdict end
 /NimbusRomNo9L-Regu-TeXBase1Encoding exch definefont pop
 /ptmr8r /NimbusRomNo9L-Regu-TeXBase1Encoding def
 /NimbusRomNo9L-ReguItal fcp
/Encoding TeXBase1Encoding def currentdict end
 /NimbusRomNo9L-ReguItal-TeXBase1Encoding exch definefont pop
 /ptmri8r /NimbusRomNo9L-ReguItal-TeXBase1Encoding def
 /cmsy10 /CMSY10 def
 /cmmi10 /CMMI10 def
%%EndSetup
%%Page: 1 1
 0 0 0 setrgbcolor 0 0.5 dtransform truncate idtransform setlinewidth pop
 [] 0 setdash 1 setlinecap 1 setlinejoin 10 setmiterlimit
newpath 102.04723 85.03935 moveto
96.37794 85.03935 lineto stroke
newpath 2.83464 0 moveto
0 0 lineto
0 2.83464 lineto stroke
131.4908 81.6994 moveto
(Plant) ptmr8r 9.96265 fshow
newpath 128.4908 78.5849 moveto
154.97371 78.5849 lineto
154.97371 91.4938 lineto
128.4908 91.4938 lineto
 closepath stroke
213.2126 81.71185 moveto
(Sensor) ptmr8r 9.96265 fshow
newpath 210.2126 78.57245 moveto
243.33061 78.57245 lineto
243.33061 91.50626 lineto
210.2126 91.50626 lineto
 closepath stroke
124.6316 53.35295 moveto
(Attack) ptmr8r 9.96265 fshow
151.09201 53.35295 moveto
(er) ptmr8r 9.96265 fshow
newpath 121.6316 50.23845 moveto
161.8329 50.23845 lineto
161.8329 63.14735 lineto
121.6316 63.14735 lineto
 closepath stroke
134.8383 24.22665 moveto
(z) ptmri8r 9.96265 fshow
138.7137 28.34105 moveto
(\000) cmsy10 7.3724 fshow
144.44191 28.34105 moveto
(1) ptmr8r 7.3724 fshow
newpath 131.8383 20.41975 moveto
151.6262 20.41975 lineto
151.6262 36.27315 lineto
131.8383 36.27315 lineto
 closepath stroke
36.21495 -3.3275 moveto
(Controller) ptmr8r 9.96265 fshow
newpath 33.21495 -6.4669 moveto
80.17085 -6.4669 lineto
80.17085 6.4669 lineto
33.21495 6.4669 lineto
 closepath stroke
124.5818 -31.6167 moveto
(Detector) ptmr8r 9.96265 fshow
newpath 121.5818 -34.7312 moveto
161.8827 -34.7312 lineto
161.8827 -21.9617 lineto
121.5818 -21.9617 lineto
 closepath stroke
207.39955 -3.33995 moveto
(Estimator) ptmr8r 9.96265 fshow
newpath 204.39955 -6.45445 moveto
249.14366 -6.45445 lineto
249.14366 6.45445 lineto
204.39955 6.45445 lineto
 closepath stroke
newpath 226.7716 -6.45424 moveto
226.7716 -28.34645 lineto
161.88264 -28.34645 lineto stroke
newpath 165.57825 -26.81564 moveto
161.88264 -28.34645 lineto
165.57825 -29.87726 lineto
 closepath
gsave fill grestore stroke
190.44116 -35.67516 moveto
(z) ptmri8r 9.96265 fshow
194.31656 -37.32385 moveto
(k) ptmri8r 7.3724 fshow
newpath 204.3984 0 moveto
80.17082 0 lineto stroke
newpath 83.86597 1.53061 moveto
80.17082 0 lineto
83.86597 -1.53061 lineto
 closepath
gsave fill grestore stroke
139.4402 4.7298 moveto
(\210) ptmr8r 9.96265 fshow
138.1252 4.7298 moveto
(x) ptmri8r 9.96265 fshow
142.5486 3.0811 moveto
(k) ptmri8r 7.3724 fshow
newpath 151.62645 28.34645 moveto
226.7716 28.34645 lineto
226.7716 6.45424 lineto stroke
newpath 225.24089 10.14964 moveto
226.7716 6.45424 lineto
228.30232 10.14964 lineto
 closepath
gsave fill grestore stroke
180.0527 33.60707 moveto
(u) ptmri8r 9.96265 fshow
185.034 31.95837 moveto
(k) ptmri8r 7.3724 fshow
188.4326 31.95837 moveto
(\000) cmsy10 7.3724 fshow
194.1608 31.95837 moveto
(1) ptmr8r 7.3724 fshow
newpath 151.62645 28.34645 moveto
226.7716 28.34645 lineto
226.7716 6.45424 lineto stroke
newpath 225.24089 10.14964 moveto
226.7716 6.45424 lineto
228.30232 10.14964 lineto
 closepath
gsave fill grestore stroke
newpath 161.83334 56.6929 moveto
226.7716 56.6929 lineto
226.7716 78.57257 lineto stroke
newpath 228.30234 74.87714 moveto
226.7716 78.57257 lineto
225.24088 74.87714 lineto
 closepath
gsave fill grestore stroke
newpath 165.52899 58.22372 moveto
161.83334 56.6929 lineto
165.52899 55.16208 lineto
 closepath
gsave fill grestore stroke
176.0266 46.8985 moveto
(record/replay) ptmr8r 9.96265 fshow
newpath 154.97426 85.03935 moveto
210.21251 85.03935 lineto stroke
newpath 206.51677 83.50848 moveto
210.21251 85.03935 lineto
206.51677 86.57022 lineto
 closepath
gsave fill grestore stroke
newpath -39.68504 0 moveto 0 0 rlineto stroke
newpath 0 85.03935 moveto
128.49028 85.03935 lineto stroke
newpath 124.79514 83.50874 moveto
128.49028 85.03935 lineto
124.79514 86.56996 lineto
 closepath
gsave fill grestore stroke
newpath 243.33067 85.03935 moveto
283.46451 85.03935 lineto
283.46451 0 lineto
249.1439 0 lineto stroke
newpath 252.83934 1.53073 moveto
249.1439 0 lineto
252.83934 -1.53073 lineto
 closepath
gsave fill grestore stroke
286.46451 40.16968 moveto
(y) ptmri8r 9.96265 fshow
290.88791 38.52098 moveto
(k) ptmri8r 7.3724 fshow
294.78452 40.16968 moveto
(=) cmmi10 9.96265 fshow
299.76581 40.16968 moveto
(y) ptmri8r 9.96265 fshow
304.18921 44.28407 moveto
(a) ptmri8r 7.3724 fshow
304.18921 37.53368 moveto
(k) ptmri8r 7.3724 fshow
newpath 0 2.83464 moveto
0 85.03935 lineto
56.6929 85.03935 lineto stroke
newpath 0 28.34645 moveto
131.83806 28.34645 lineto stroke
newpath 128.14325 26.81598 moveto
131.83806 28.34645 lineto
128.14325 29.87692 lineto
 closepath
gsave fill grestore stroke
newpath 33.21457 0 moveto
2.83464 0 lineto stroke
13.58578 4.7298 moveto
(u) ptmri8r 9.96265 fshow
18.56708 3.0811 moveto
(k) ptmri8r 7.3724 fshow
showpage
%%EOF
