%!PS
%%BoundingBox: -81 -95 81 8 
%%HiResBoundingBox: -80.86826 -94.51564 80.54137 7.65791 
%%Creator: MetaPost 1.001
%%CreationDate: 2009.03.29:1049
%%Pages: 1
%*Font: cmmi10 9.96265 9.96265 3b:8000000000000082
%*Font: cmr7 6.97385 6.97385 30:fc
%*Font: cmmi7 6.97385 6.97385 3b:8000000000008
%%BeginProlog
%%EndProlog
%%Page: 1 1
 0 0 0 setrgbcolor
-4.5697 -1.39755 moveto
(s) cmmi10 9.96265 fshow
0.1003 -2.89195 moveto
(0) cmr7 6.97385 fshow
 0 0.5 dtransform truncate idtransform setlinewidth pop [] 0 setdash
 1 setlinejoin 10 setmiterlimit
newpath 7.40791 0 moveto
7.40791 4.09128 4.09128 7.40791 0 7.40791 curveto
-4.09128 7.40791 -7.40791 4.09128 -7.40791 0 curveto
-7.40791 -4.09128 -4.09128 -7.40791 0 -7.40791 curveto
4.09128 -7.40791 7.40791 -4.09128 7.40791 0 curveto closepath stroke
-41.01143 -44.82642 moveto
(s) cmmi10 9.96265 fshow
-36.34143 -46.32082 moveto
(1) cmr7 6.97385 fshow
newpath -29.03381 -43.42886 moveto
-29.03381 -39.33759 -32.35045 -36.02095 -36.44173 -36.02095 curveto
-40.533 -36.02095 -43.84964 -39.33759 -43.84964 -43.42886 curveto
-43.84964 -47.52014 -40.533 -50.83678 -36.44173 -50.83678 curveto
-32.35045 -50.83678 -29.03381 -47.52014 -29.03381 -43.42886 curveto closepath
 stroke
31.87202 -44.82642 moveto
(s) cmmi10 9.96265 fshow
36.54202 -46.32082 moveto
(2) cmr7 6.97385 fshow
newpath 43.84964 -43.42886 moveto
43.84964 -39.33759 40.533 -36.02095 36.44173 -36.02095 curveto
32.35045 -36.02095 29.03381 -39.33759 29.03381 -43.42886 curveto
29.03381 -47.52014 32.35045 -50.83678 36.44173 -50.83678 curveto
40.533 -50.83678 43.84964 -47.52014 43.84964 -43.42886 curveto closepath stroke
-77.45316 -88.25528 moveto
(s) cmmi10 9.96265 fshow
-72.78316 -89.74968 moveto
(3) cmr7 6.97385 fshow
newpath -65.47554 -86.85773 moveto
-65.47554 -82.76645 -68.79218 -79.44981 -72.88345 -79.44981 curveto
-76.97473 -79.44981 -80.29137 -82.76645 -80.29137 -86.85773 curveto
-80.29137 -90.949 -76.97473 -94.26564 -72.88345 -94.26564 curveto
-68.79218 -94.26564 -65.47554 -90.949 -65.47554 -86.85773 curveto closepath
 stroke
-4.5697 -88.25528 moveto
(s) cmmi10 9.96265 fshow
0.1003 -89.74968 moveto
(4) cmr7 6.97385 fshow
newpath 7.40791 -86.85773 moveto
7.40791 -82.76645 4.09128 -79.44981 0 -79.44981 curveto
-4.09128 -79.44981 -7.40791 -82.76645 -7.40791 -86.85773 curveto
-7.40791 -90.949 -4.09128 -94.26564 0 -94.26564 curveto
4.09128 -94.26564 7.40791 -90.949 7.40791 -86.85773 curveto closepath stroke
68.31375 -88.25528 moveto
(s) cmmi10 9.96265 fshow
72.98375 -89.74968 moveto
(5) cmr7 6.97385 fshow
newpath 80.29137 -86.85773 moveto
80.29137 -82.76645 76.97473 -79.44981 72.88345 -79.44981 curveto
68.79218 -79.44981 65.47554 -82.76645 65.47554 -86.85773 curveto
65.47554 -90.949 68.79218 -94.26564 72.88345 -94.26564 curveto
76.97473 -94.26564 80.29137 -90.949 80.29137 -86.85773 curveto closepath stroke
 1 setlinecap
newpath -31.67966 -37.75374 moveto
-4.76189 -5.67494 lineto stroke
newpath -5.96468 -9.48982 moveto
-4.76189 -5.67494 lineto
-8.30995 -7.5219 lineto
 closepath
gsave fill grestore stroke
newpath 31.67966 -37.75374 moveto
4.76189 -5.67494 lineto stroke
newpath 8.30995 -7.5219 moveto
4.76189 -5.67494 lineto
5.96468 -9.48982 lineto
 closepath
gsave fill grestore stroke
newpath -68.12138 -81.1826 moveto
-41.20361 -49.1038 lineto stroke
newpath -42.4064 -52.91869 moveto
-41.20361 -49.1038 lineto
-44.75168 -50.95076 lineto
 closepath
gsave fill grestore stroke
newpath 65.99727 -84.12222 moveto
-29.55472 -46.16469 lineto stroke
newpath -25.55464 -46.10638 moveto
-29.55472 -46.16469 lineto
-26.68504 -48.952 lineto
 closepath
gsave fill grestore stroke
20.32086 -16.76404 moveto
(y) cmmi10 9.96265 fshow
25.20537 -18.25844 moveto
(k) cmmi7 6.97385 fshow
29.60905 -18.25844 moveto
(;) cmmi7 6.97385 fshow
31.97516 -18.25844 moveto
(2) cmr7 6.97385 fshow
-80.86826 -16.76404 moveto
(y) cmmi10 9.96265 fshow
-75.98375 -18.25844 moveto
(k) cmmi7 6.97385 fshow
-71.58006 -18.25844 moveto
(;) cmmi7 6.97385 fshow
-69.21396 -18.25844 moveto
(1) cmr7 6.97385 fshow
-64.74466 -16.76404 moveto
(;) cmmi10 9.96265 fshow
-58.65636 -16.76404 moveto
(y) cmmi10 9.96265 fshow
-53.77185 -18.25844 moveto
(k) cmmi7 6.97385 fshow
-49.36826 -18.25844 moveto
(;) cmmi7 6.97385 fshow
-47.00215 -18.25844 moveto
(3) cmr7 6.97385 fshow
-42.53276 -16.76404 moveto
(;) cmmi10 9.96265 fshow
-36.44455 -16.76404 moveto
(y) cmmi10 9.96265 fshow
-31.56006 -18.25844 moveto
(k) cmmi7 6.97385 fshow
-27.15636 -18.25844 moveto
(;) cmmi7 6.97385 fshow
-24.79025 -18.25844 moveto
(5) cmr7 6.97385 fshow
20.32086 -60.1929 moveto
(y) cmmi10 9.96265 fshow
25.20537 -61.6873 moveto
(k) cmmi7 6.97385 fshow
29.60905 -61.6873 moveto
(;) cmmi7 6.97385 fshow
31.97516 -61.6873 moveto
(5) cmr7 6.97385 fshow
-72.88618 -60.1929 moveto
(y) cmmi10 9.96265 fshow
-68.00168 -61.6873 moveto
(k) cmmi7 6.97385 fshow
-63.59799 -61.6873 moveto
(;) cmmi7 6.97385 fshow
-61.23189 -61.6873 moveto
(3) cmr7 6.97385 fshow
showpage
%%EOF
