%!PS-Adobe-3.0 EPSF-3.0
%%Creator: MATLAB, The Mathworks, Inc. Version 7.9.0.529 (R2009b). Operating System: Linux 2.6.32-34-generic #77-Ubuntu SMP Tue Sep 13 19:40:53 UTC 2011 i686.
%%Title: /home/yilin/yilin/j2011securedetection/code/figure2.eps
%%CreationDate: 10/14/2011  23:51:03
%%DocumentNeededFonts: Helvetica
%%DocumentProcessColors: Cyan Magenta Yellow Black
%%LanguageLevel: 2
%%Pages: 1
%%BoundingBox:    68   218   542   574
%%EndComments

%%BeginProlog
% MathWorks dictionary
/MathWorks 160 dict begin
% definition operators
/bdef {bind def} bind def
/ldef {load def} bind def
/xdef {exch def} bdef
/xstore {exch store} bdef
% operator abbreviations
/c  /clip ldef
/cc /concat ldef
/cp /closepath ldef
/gr /grestore ldef
/gs /gsave ldef
/mt /moveto ldef
/np /newpath ldef
/cm /currentmatrix ldef
/sm /setmatrix ldef
/rm /rmoveto ldef
/rl /rlineto ldef
/s {show newpath} bdef
/sc {setcmykcolor} bdef
/sr /setrgbcolor ldef
/sg /setgray ldef
/w /setlinewidth ldef
/j /setlinejoin ldef
/cap /setlinecap ldef
/rc {rectclip} bdef
/rf {rectfill} bdef
% page state control
/pgsv () def
/bpage {/pgsv save def} bdef
/epage {pgsv restore} bdef
/bplot /gsave ldef
/eplot {stroke grestore} bdef
% orientation switch
/portraitMode 0 def /landscapeMode 1 def /rotateMode 2 def
% coordinate system mappings
/dpi2point 0 def
% font control
/FontSize 0 def
/FMS {/FontSize xstore findfont [FontSize 0 0 FontSize neg 0 0]
  makefont setfont} bdef
/reencode {exch dup where {pop load} {pop StandardEncoding} ifelse
  exch dup 3 1 roll findfont dup length dict begin
  { 1 index /FID ne {def}{pop pop} ifelse } forall
  /Encoding exch def currentdict end definefont pop} bdef
/isroman {findfont /CharStrings get /Agrave known} bdef
/FMSR {3 1 roll 1 index dup isroman {reencode} {pop pop} ifelse
  exch FMS} bdef
/csm {1 dpi2point div -1 dpi2point div scale neg translate
 dup landscapeMode eq {pop -90 rotate}
  {rotateMode eq {90 rotate} if} ifelse} bdef
% line types: solid, dotted, dashed, dotdash
/SO { [] 0 setdash } bdef
/DO { [.5 dpi2point mul 4 dpi2point mul] 0 setdash } bdef
/DA { [6 dpi2point mul] 0 setdash } bdef
/DD { [.5 dpi2point mul 4 dpi2point mul 6 dpi2point mul 4
  dpi2point mul] 0 setdash } bdef
% macros for lines and objects
/L {lineto stroke} bdef
/MP {3 1 roll moveto 1 sub {rlineto} repeat} bdef
/AP {{rlineto} repeat} bdef
/PDlw -1 def
/W {/PDlw currentlinewidth def setlinewidth} def
/PP {closepath eofill} bdef
/DP {closepath stroke} bdef
/MR {4 -2 roll moveto dup  0 exch rlineto exch 0 rlineto
  neg 0 exch rlineto closepath} bdef
/FR {MR stroke} bdef
/PR {MR fill} bdef
/L1i {{currentfile picstr readhexstring pop} image} bdef
/tMatrix matrix def
/MakeOval {newpath tMatrix currentmatrix pop translate scale
0 0 1 0 360 arc tMatrix setmatrix} bdef
/FO {MakeOval stroke} bdef
/PO {MakeOval fill} bdef
/PD {currentlinewidth 2 div 0 360 arc fill
   PDlw -1 eq not {PDlw w /PDlw -1 def} if} def
/FA {newpath tMatrix currentmatrix pop translate scale
  0 0 1 5 -2 roll arc tMatrix setmatrix stroke} bdef
/PA {newpath tMatrix currentmatrix pop	translate 0 0 moveto scale
  0 0 1 5 -2 roll arc closepath tMatrix setmatrix fill} bdef
/FAn {newpath tMatrix currentmatrix pop translate scale
  0 0 1 5 -2 roll arcn tMatrix setmatrix stroke} bdef
/PAn {newpath tMatrix currentmatrix pop translate 0 0 moveto scale
  0 0 1 5 -2 roll arcn closepath tMatrix setmatrix fill} bdef
/vradius 0 def /hradius 0 def /lry 0 def
/lrx 0 def /uly 0 def /ulx 0 def /rad 0 def
/MRR {/vradius xdef /hradius xdef /lry xdef /lrx xdef /uly xdef
  /ulx xdef newpath tMatrix currentmatrix pop ulx hradius add uly
  vradius add translate hradius vradius scale 0 0 1 180 270 arc 
  tMatrix setmatrix lrx hradius sub uly vradius add translate
  hradius vradius scale 0 0 1 270 360 arc tMatrix setmatrix
  lrx hradius sub lry vradius sub translate hradius vradius scale
  0 0 1 0 90 arc tMatrix setmatrix ulx hradius add lry vradius sub
  translate hradius vradius scale 0 0 1 90 180 arc tMatrix setmatrix
  closepath} bdef
/FRR {MRR stroke } bdef
/PRR {MRR fill } bdef
/MlrRR {/lry xdef /lrx xdef /uly xdef /ulx xdef /rad lry uly sub 2 div def
  newpath tMatrix currentmatrix pop ulx rad add uly rad add translate
  rad rad scale 0 0 1 90 270 arc tMatrix setmatrix lrx rad sub lry rad
  sub translate rad rad scale 0 0 1 270 90 arc tMatrix setmatrix
  closepath} bdef
/FlrRR {MlrRR stroke } bdef
/PlrRR {MlrRR fill } bdef
/MtbRR {/lry xdef /lrx xdef /uly xdef /ulx xdef /rad lrx ulx sub 2 div def
  newpath tMatrix currentmatrix pop ulx rad add uly rad add translate
  rad rad scale 0 0 1 180 360 arc tMatrix setmatrix lrx rad sub lry rad
  sub translate rad rad scale 0 0 1 0 180 arc tMatrix setmatrix
  closepath} bdef
/FtbRR {MtbRR stroke } bdef
/PtbRR {MtbRR fill } bdef
/stri 6 array def /dtri 6 array def
/smat 6 array def /dmat 6 array def
/tmat1 6 array def /tmat2 6 array def /dif 3 array def
/asub {/ind2 exch def /ind1 exch def dup dup
  ind1 get exch ind2 get sub exch } bdef
/tri_to_matrix {
  2 0 asub 3 1 asub 4 0 asub 5 1 asub
  dup 0 get exch 1 get 7 -1 roll astore } bdef
/compute_transform {
  dmat dtri tri_to_matrix tmat1 invertmatrix 
  smat stri tri_to_matrix tmat2 concatmatrix } bdef
/ds {stri astore pop} bdef
/dt {dtri astore pop} bdef
/db {2 copy /cols xdef /rows xdef mul dup 3 mul string
  currentfile 
  3 index 0 eq {/ASCIIHexDecode filter}
  {/ASCII85Decode filter 3 index 2 eq {/RunLengthDecode filter} if }
  ifelse exch readstring pop
  dup 0 3 index getinterval /rbmap xdef
  dup 2 index dup getinterval /gbmap xdef
  1 index dup 2 mul exch getinterval /bbmap xdef pop pop}bdef
/it {gs np dtri aload pop moveto lineto lineto cp c
  cols rows 8 compute_transform 
  rbmap gbmap bbmap true 3 colorimage gr}bdef
/il {newpath moveto lineto stroke}bdef
currentdict end def
%%EndProlog

%%BeginSetup
MathWorks begin

0 cap

end
%%EndSetup

%%Page: 1 1
%%BeginPageSetup
%%PageBoundingBox:    68   218   542   574
MathWorks begin
bpage
%%EndPageSetup

%%BeginObject: obj1
bplot

/dpi2point 12 def
portraitMode 0816 6888 csm

    0     0  5697  4269 rc
85 dict begin %Colortable dictionary
/c0 { 0.000000 0.000000 0.000000 sr} bdef
/c1 { 1.000000 1.000000 1.000000 sr} bdef
/c2 { 0.900000 0.000000 0.000000 sr} bdef
/c3 { 0.000000 0.820000 0.000000 sr} bdef
/c4 { 0.000000 0.000000 0.800000 sr} bdef
/c5 { 0.910000 0.820000 0.320000 sr} bdef
/c6 { 1.000000 0.260000 0.820000 sr} bdef
/c7 { 0.000000 0.820000 0.820000 sr} bdef
c0
1 j
1 sg
   0    0 5698 4270 rf
6 w
0 3479 4415 0 0 -3479 741 3799 4 MP
PP
-4415 0 0 3479 4415 0 0 -3479 741 3799 5 MP stroke
4 w
DO
SO
6 w
0 sg
 741 3799 mt 5156 3799 L
 741  320 mt 5156  320 L
 741 3799 mt  741  320 L
5156 3799 mt 5156  320 L
 741 3799 mt 5156 3799 L
 741 3799 mt  741  320 L
 741 3799 mt  741 3754 L
 741  320 mt  741  364 L
%%IncludeResource: font Helvetica
/Helvetica /ISOLatin1Encoding 168 FMSR

 597 3989 mt 
(-4) s
1844 3799 mt 1844 3754 L
1844  320 mt 1844  364 L
1700 3989 mt 
(-2) s
2948 3799 mt 2948 3754 L
2948  320 mt 2948  364 L
2902 3989 mt 
(0) s
4052 3799 mt 4052 3754 L
4052  320 mt 4052  364 L
4006 3989 mt 
(2) s
5156 3799 mt 5156 3754 L
5156  320 mt 5156  364 L
5110 3989 mt 
(4) s
 741 3799 mt  785 3799 L
5156 3799 mt 5111 3799 L
 380 3861 mt 
(0.35) s
 741 3302 mt  785 3302 L
5156 3302 mt 5111 3302 L
 473 3364 mt 
(0.4) s
 741 2804 mt  785 2804 L
5156 2804 mt 5111 2804 L
 380 2866 mt 
(0.45) s
 741 2308 mt  785 2308 L
5156 2308 mt 5111 2308 L
 473 2370 mt 
(0.5) s
 741 1811 mt  785 1811 L
5156 1811 mt 5111 1811 L
 380 1873 mt 
(0.55) s
 741 1313 mt  785 1313 L
5156 1313 mt 5111 1313 L
 473 1375 mt 
(0.6) s
 741  816 mt  785  816 L
5156  816 mt 5111  816 L
 380  878 mt 
(0.65) s
 741  320 mt  785  320 L
5156  320 mt 5111  320 L
 473  382 mt 
(0.7) s
 741 3799 mt 5156 3799 L
 741  320 mt 5156  320 L
 741 3799 mt  741  320 L
5156 3799 mt 5156  320 L
gs 741 319 4416 3480 rc
12 w
/c8 { 0.000000 0.000000 1.000000 sr} bdef
c8
2 0 1 0 1 0 1 0 1 0 1 0 1 0 1 0 
1 0 2 0 1 0 1 0 1 0 1 0 1 0 1 0 
1 0 1 0 1 0 2 0 1 0 1 0 1 0 1 0 
1 0 1 0 1 0 1 0 2 0 1 0 1 0 1 0 
1 0 1 0 1 0 1 0 1 0 1 0 2 0 1 0 
1 0 1 0 1 0 1 0 1 0 1 0 1 0 1 0 
2 0 1 0 1 0 1 0 1 0 1 0 1 0 1 0 
1 0 2 0 1 0 1 0 1 0 1 0 1 0 1 0 
1 0 1 0 1 0 2 0 1 0 1 0 1 0 1 0 
1 0 1 0 1 0 1 0 1 0 2 0 1 0 1 0 
1 0 1 0 1 0 1 0 1 0 1 0 2 0 1 0 
1 0 1 0 1 0 1 0 1 0 1 0 1 0 1 0 
2 0 1 0 1 0 1 0 1 0 1 0 1 0 1 0 
1 0 1 0 2 0 1 0 1 0 1 0 1 0 1 0 
1 0 1 0 1 0 2 0 1 0 1 0 1 0 1 0 
1 0 1 0 1 0 1 0 1 0 2 0 1 0 1 0 
1 0 1 0 1 0 1 0 1 0 1 0 2 0 1 0 
1 0 1 0 1 0 1 0 1 0 1 0 1 0 1 0 
2 0 1 0 1 0 1 0 1 0 1 0 1 0 1 0 
1 0 1 0 2 0 1 0 1 0 1 0 1 0 1 0 
1 0 1 0 1 0 2 0 1 0 1 0 1 0 1 0 
1 0 1 0 1 0 1 0 1 0 2 0 1 0 1 0 
1 0 1 0 1 0 1 0 1 0 1 0 1 0 2 0 
1 0 1 0 1 0 1 0 1 0 1 0 1 0 1 0 
2 0 1 0 1 0 1 0 1 0 1 0 1 0 1 0 
1 0 1 0 2 0 1 0 1 0 1 0 1 0 1 0 
1 0 1 0 1 0 1 0 2 0 1 0 1 0 1 0 
1 0 1 0 1 0 1 0 1 0 2 0 1 0 1 0 
1 0 1 0 1 0 1 0 1 0 1 0 1 0 2 0 
1 0 1 0 1 0 1 0 1 0 1 0 1 0 1 0 
2 0 1 0 1 0 1 0 1 0 1 0 1 0 1 0 
1 0 1 0 2 0 1 0 1 0 1 0 1 0 1 0 
1 0 1 0 1 0 1 0 2 0 1 0 1 0 1 0 
1 0 1 0 1 0 1 0 1 0 2 0 1 0 1 0 
1 0 1 0 1 0 1 0 1 0 1 0 1 0 2 0 
1 0 1 0 1 0 1 0 1 0 1 0 1 0 1 0 
1 0 2 0 1 0 1 0 1 0 1 0 1 0 1 0 
1 0 1 0 2 0 4825 1313 300 MP stroke
1 0 1 0 1 0 1 0 1 0 1 0 1 0 1 0 
1 0 2 0 1 0 1 0 1 0 1 0 1 0 1 0 
1 0 1 0 1 0 2 0 1 0 1 0 1 0 1 0 
1 0 1 0 1 0 1 0 2 0 1 0 1 0 1 0 
1 0 1 0 1 0 1 0 1 0 1 0 2 0 1 0 
1 0 1 0 1 0 1 0 1 0 1 0 1 0 2 0 
1 0 1 0 1 0 1 0 1 0 1 0 1 0 1 0 
1 0 2 0 1 0 1 0 1 0 1 0 1 0 1 0 
1 0 1 0 1 0 2 0 1 0 1 0 1 0 1 0 
1 0 1 0 1 0 1 0 2 0 1 0 1 0 1 0 
1 0 1 0 1 0 1 0 1 0 1 0 2 0 1 0 
1 0 1 0 1 0 1 0 1 0 1 0 1 0 1 0 
2 0 1 0 1 0 1 0 1 0 1 0 1 0 1 0 
1 0 2 0 1 0 1 0 1 0 1 0 1 0 1 0 
1 0 1 0 1 0 2 0 1 0 1 0 1 0 1 0 
1 0 1 0 1 0 1 0 1 0 2 0 1 0 1 0 
1 0 1 0 1 0 1 0 1 0 1 0 2 0 1 0 
1 0 1 0 1 0 1 0 1 0 1 0 1 0 1 0 
2 0 1 0 1 0 1 0 1 0 1 0 1 0 1 0 
1 0 1 0 2 0 1 0 1 0 1 0 1 0 1 0 
1 0 1 0 1 0 2 0 1 0 1 0 1 0 1 0 
1 0 1 0 1 0 1 0 1 0 2 0 1 0 1 0 
1 0 1 0 1 0 1 0 1 0 1 0 2 0 1 0 
1 0 1 0 1 0 1 0 1 0 1 0 1 0 1 0 
2 0 1 0 1 0 1 0 1 0 1 0 1 0 1 0 
1 0 1 0 2 0 1 0 1 0 1 0 1 0 1 0 
1 0 1 0 1 0 2 0 1 0 1 0 1 0 1 0 
1 0 1 0 1 0 1 0 1 0 2 0 1 0 1 0 
1 0 1 0 1 0 1 0 1 0 1 0 1 0 2 0 
1 0 1 0 1 0 1 0 1 0 1 0 1 0 1 0 
2 0 1 0 1 0 1 0 1 0 1 0 1 0 1 0 
1 0 1 0 2 0 1 0 1 0 1 0 1 0 1 0 
1 0 1 0 1 0 1 0 2 0 1 0 1 0 1 0 
1 0 1 0 1 0 1 0 1 0 2 0 1 0 1 0 
1 0 1 0 1 0 1 0 1 0 1 0 1 0 2 0 
1 0 1 0 1 0 1 0 1 0 1 0 1 0 1 0 
2 0 1 0 1 0 1 0 1 0 1 0 1 0 1 0 
1 0 1 0 2 0 4495 1313 300 MP stroke
1 0 1 0 1 0 1 0 1 0 1 0 1 0 1 0 
1 0 2 0 1 0 1 0 1 0 1 0 1 0 1 0 
1 0 1 0 2 0 1 0 1 0 1 0 1 0 1 0 
1 0 1 0 1 0 1 0 2 0 1 0 1 0 1 0 
1 0 1 0 1 0 1 0 1 0 1 0 2 0 1 0 
1 0 1 0 1 0 1 0 1 0 1 0 1 0 2 0 
1 0 1 0 1 0 1 0 1 0 1 0 1 0 1 0 
1 0 2 0 1 0 1 0 1 0 1 0 1 0 1 0 
1 0 1 0 1 0 2 0 1 0 1 0 1 0 1 0 
1 0 1 0 1 0 1 0 2 0 1 0 1 0 1 0 
1 0 1 0 1 0 1 0 1 0 1 0 2 0 1 0 
1 0 1 0 1 0 1 0 1 0 1 0 1 0 2 0 
1 0 1 0 1 0 1 0 1 0 1 0 1 0 1 0 
1 0 2 0 1 0 1 0 1 0 1 0 1 0 1 0 
1 0 1 0 1 0 2 0 1 0 1 0 1 0 1 0 
1 0 1 0 1 0 1 0 2 0 1 0 1 0 1 0 
1 0 1 0 1 0 1 0 1 0 1 0 2 0 1 0 
1 0 1 0 1 0 1 0 1 0 1 0 1 0 1 0 
2 0 1 0 1 0 1 0 1 0 1 0 1 0 1 0 
1 0 2 0 1 0 1 0 1 0 1 0 1 0 1 0 
1 0 1 0 1 0 2 0 1 0 1 0 1 0 1 0 
1 0 1 0 1 0 1 0 1 0 2 0 1 0 1 0 
1 0 1 0 1 0 1 0 1 0 1 0 2 0 1 0 
1 0 1 0 1 0 1 0 1 0 1 0 1 0 1 0 
2 0 1 0 1 0 1 0 1 0 1 0 1 0 1 0 
1 0 1 0 2 0 1 0 1 0 1 0 1 0 1 0 
1 0 1 0 1 0 2 0 1 0 1 0 1 0 1 0 
1 0 1 0 1 0 1 0 1 0 2 0 1 0 1 0 
1 0 1 0 1 0 1 0 1 0 1 0 2 0 1 0 
1 0 1 0 1 0 1 0 1 0 1 0 1 0 1 0 
2 0 1 0 1 0 1 0 1 0 1 0 1 0 1 0 
1 0 1 0 2 0 1 0 1 0 1 0 1 0 1 0 
1 0 1 0 1 0 2 0 1 0 1 0 1 0 1 0 
1 0 1 0 1 0 1 0 1 0 2 0 1 -1 1 0 
1 0 1 0 1 0 1 0 1 0 1 0 1 0 2 0 
1 0 1 0 1 0 1 0 1 0 1 0 1 0 1 0 
2 0 1 0 1 0 1 0 1 0 1 0 1 0 1 0 
1 0 1 0 2 0 4165 1314 300 MP stroke
1 0 1 0 1 0 1 0 1 0 1 -1 1 0 1 0 
1 0 2 0 1 0 1 0 1 0 1 0 1 0 1 0 
1 0 1 0 2 0 1 0 1 0 1 0 1 0 1 0 
1 0 1 0 1 0 1 0 2 0 1 -1 1 0 1 0 
1 0 1 0 1 0 1 0 1 0 2 0 1 0 1 0 
1 0 1 0 1 0 1 0 1 0 1 0 1 0 2 -1 
1 0 1 0 1 0 1 0 1 0 1 0 1 0 1 0 
1 0 2 0 1 0 1 0 1 0 1 0 1 -1 1 0 
1 0 1 0 2 0 1 0 1 0 1 0 1 0 1 0 
1 0 1 0 1 -1 1 0 2 0 1 0 1 0 1 0 
1 0 1 0 1 0 1 0 1 0 1 0 2 -1 1 0 
1 0 1 0 1 0 1 0 1 0 1 0 1 0 2 0 
1 -1 1 0 1 0 1 0 1 0 1 0 1 0 1 0 
1 0 2 -1 1 0 1 0 1 0 1 0 1 0 1 0 
1 0 1 -1 1 0 2 0 1 0 1 0 1 0 1 0 
1 0 1 -1 1 0 1 0 2 0 1 0 1 0 1 0 
1 -1 1 0 1 0 1 0 1 0 1 0 2 0 1 -1 
1 0 1 0 1 0 1 0 1 0 1 -1 1 0 2 0 
1 0 1 0 1 0 1 -1 1 0 1 0 1 0 1 0 
1 0 2 -1 1 0 1 0 1 0 1 0 1 -1 1 0 
1 0 1 0 1 0 2 -1 1 0 1 0 1 0 1 0 
1 -1 1 0 1 0 1 0 2 0 1 -1 1 0 1 0 
1 0 1 -1 1 0 1 0 1 0 1 0 2 -1 1 0 
1 0 1 0 1 -1 1 0 1 0 1 0 1 -1 1 0 
2 0 1 0 1 -1 1 0 1 0 1 0 1 -1 1 0 
1 0 2 -1 1 0 1 0 1 0 1 -1 1 0 1 0 
1 -1 1 0 1 0 2 0 1 -1 1 0 1 0 1 -1 
1 0 1 0 1 -1 1 0 1 0 2 -1 1 0 1 0 
1 0 1 -1 1 0 1 0 1 -1 1 0 2 -1 1 0 
1 0 1 -1 1 0 1 0 1 -1 1 0 1 0 1 -1 
2 0 1 0 1 -1 1 0 1 -1 1 0 1 0 1 -1 
1 0 2 -1 1 0 1 0 1 -1 1 0 1 -1 1 0 
1 0 1 -1 1 0 2 -1 1 0 1 -1 1 0 1 0 
1 -1 1 0 1 -1 1 0 1 -1 2 0 1 -1 1 0 
1 -1 1 0 1 0 1 -1 1 0 1 -1 2 0 1 -1 
1 0 1 -1 1 0 1 -1 1 0 1 -1 1 0 1 -1 
2 0 1 -1 1 -1 1 0 1 -1 1 0 1 -1 1 0 
1 -1 1 0 2 -1 3835 1379 300 MP stroke
1 0 1 -1 1 -1 1 0 1 -1 1 0 1 -1 1 -1 
2 0 1 -1 1 0 1 -1 1 -1 1 0 1 -1 1 0 
1 -1 1 -1 2 0 1 -1 1 -1 1 0 1 -1 1 0 
1 -1 1 -1 1 0 1 -1 2 -1 1 0 1 -1 1 -1 
1 -1 1 0 1 -1 1 -1 1 0 2 -1 1 -1 1 0 
1 -1 1 -1 1 -1 1 0 1 -1 1 -1 1 -1 2 0 
1 -1 1 -1 1 -1 1 0 1 -1 1 -1 1 -1 1 -1 
1 0 2 -1 1 -1 1 -1 1 -1 1 -1 1 0 1 -1 
1 -1 1 -1 2 -1 1 -1 1 0 1 -1 1 -1 1 -1 
1 -1 1 -1 1 -1 1 -1 2 0 1 -1 1 -1 1 -1 
1 -1 1 -1 1 -1 1 -1 1 -1 2 -1 1 -1 1 -1 
1 -1 1 -1 1 0 1 -1 1 -1 1 -1 1 -1 2 -1 
1 -1 1 -1 1 -1 1 -1 1 -1 1 -1 1 -1 1 -2 
1 -1 2 -1 1 -1 1 -1 1 -1 1 -1 1 -1 1 -1 
1 -1 1 -1 2 -1 1 -1 1 -2 1 -1 1 -1 1 -1 
1 -1 1 -1 1 -1 1 -1 2 -2 1 -1 1 -1 1 -1 
1 -1 1 -1 1 -2 1 -1 1 -1 1 -1 2 -1 1 -2 
1 -1 1 -1 1 -1 1 -2 1 -1 1 -1 1 -1 2 -2 
1 -1 1 -1 1 -1 1 -2 1 -1 1 -1 1 -2 1 -1 
1 -1 2 -2 1 -1 1 -1 1 -2 1 -1 1 -1 1 -2 
1 -1 1 -1 1 -2 2 -1 1 -2 1 -1 1 -1 1 -2 
1 -1 1 -2 1 -1 1 -2 2 -1 1 -2 1 -1 1 -1 
1 -2 1 -1 1 -2 1 -1 1 -2 1 -1 2 -2 1 -1 
1 -2 1 -1 1 -2 1 -2 1 -1 1 -2 1 -1 2 -2 
1 -1 1 -2 1 -2 1 -1 1 -2 1 -1 1 -2 1 -2 
1 -1 2 -2 1 -2 1 -1 1 -2 1 -1 1 -2 1 -2 
1 -2 1 -1 1 -2 2 -2 1 -1 1 -2 1 -2 1 -1 
1 -2 1 -2 1 -2 1 -1 2 -2 1 -2 1 -2 1 -2 
1 -1 1 -2 1 -2 1 -2 1 -2 1 -1 2 -2 1 -2 
1 -2 1 -2 1 -2 1 -2 1 -1 1 -2 1 -2 1 -2 
2 -2 1 -2 1 -2 1 -2 1 -2 1 -2 1 -2 1 -2 
1 -1 2 -2 1 -2 1 -2 1 -2 1 -2 1 -2 1 -2 
1 -2 1 -2 1 -2 2 -2 1 -3 1 -2 1 -2 1 -2 
1 -2 1 -2 1 -2 1 -2 1 -2 2 -2 1 -2 1 -2 
1 -3 1 -2 1 -2 1 -2 1 -2 1 -2 2 -2 1 -3 
1 -2 1 -2 1 -2 1 -2 1 -3 1 -2 1 -2 1 -2 
2 -2 1 -3 1 -2 1 -2 1 -2 1 -3 1 -2 1 -2 
1 -3 2 -2 1 -2 3505 1782 300 MP stroke
1 -2 1 -3 1 -2 1 -2 1 -3 1 -2 1 -2 1 -3 
2 -2 1 -3 1 -2 1 -2 1 -3 1 -2 1 -2 1 -3 
1 -2 1 -3 2 -2 1 -3 1 -2 1 -2 1 -3 1 -2 
1 -3 1 -2 1 -3 2 -2 1 -3 1 -2 1 -3 1 -2 
1 -3 1 -2 1 -3 1 -2 1 -3 2 -3 1 -2 1 -3 
1 -2 1 -3 1 -2 1 -3 1 -3 1 -2 1 -3 2 -2 
1 -3 1 -3 1 -2 1 -3 1 -3 1 -2 1 -3 1 -3 
2 -2 1 -3 1 -3 1 -2 1 -3 1 -3 1 -2 1 -3 
1 -3 1 -3 2 -2 1 -3 1 -3 1 -3 1 -2 1 -3 
1 -3 1 -3 1 -2 1 -3 2 -3 1 -3 1 -3 1 -2 
1 -3 1 -3 1 -3 1 -3 1 -2 2 -3 1 -3 1 -3 
1 -3 1 -3 1 -3 1 -2 1 -3 1 -3 1 -3 2 -3 
1 -3 1 -3 1 -3 1 -3 1 -3 1 -3 1 -2 1 -3 
1 -3 2 -3 1 -3 1 -3 1 -3 1 -3 1 -3 1 -3 
1 -3 1 -3 2 -3 1 -3 1 -3 1 -3 1 -3 1 -3 
1 -3 1 -3 1 -3 1 -3 2 -3 1 -3 1 -3 1 -3 
1 -3 1 -3 1 -4 1 -3 1 -3 2 -3 1 -3 1 -3 
1 -3 1 -3 1 -3 1 -3 1 -3 1 -4 1 -3 2 -3 
1 -3 1 -3 1 -3 1 -3 1 -3 1 -4 1 -3 1 -3 
1 -3 2 -3 1 -3 1 -3 1 -4 1 -3 1 -3 1 -3 
1 -3 1 -4 2 -3 1 -3 1 -3 1 -3 1 -4 1 -3 
1 -3 1 -3 1 -3 1 -4 2 -3 1 -3 1 -3 1 -3 
1 -4 1 -3 1 -3 1 -3 1 -4 1 -3 2 -3 1 -3 
1 -4 1 -3 1 -3 1 -3 1 -4 1 -3 1 -3 2 -4 
1 -3 1 -3 1 -3 1 -4 1 -3 1 -3 1 -3 1 -4 
1 -3 2 -3 1 -4 1 -3 1 -3 1 -4 1 -3 1 -3 
1 -3 1 -4 1 -3 2 -3 1 -4 1 -3 1 -3 1 -4 
1 -3 1 -3 1 -4 1 -3 2 -3 1 -3 1 -4 1 -3 
1 -3 1 -4 1 -3 1 -3 1 -4 1 -3 2 -3 1 -4 
1 -3 1 -3 1 -4 1 -3 1 -3 1 -4 1 -3 2 -3 
1 -4 1 -3 1 -3 1 -4 1 -3 1 -3 1 -4 1 -3 
1 -3 2 -4 1 -3 1 -3 1 -4 1 -3 1 -3 1 -4 
1 -3 1 -3 1 -4 2 -3 1 -3 1 -4 1 -3 1 -3 
1 -4 1 -3 1 -3 1 -4 2 -3 1 -3 1 -4 1 -3 
1 -3 1 -4 1 -3 1 -3 1 -4 1 -3 2 -3 1 -3 
1 -4 1 -3 1 -3 1 -4 1 -3 1 -3 1 -4 1 -3 
2 -3 1 -4 1 -3 1 -3 1 -3 1 -4 1 -3 1 -3 
1 -4 2 -3 1 -3 3175 2686 300 MP stroke
1 -3 1 -4 1 -3 1 -3 1 -3 1 -4 1 -3 1 -3 
2 -3 1 -4 1 -3 1 -3 1 -3 1 -4 1 -3 1 -3 
1 -3 1 -4 2 -3 1 -3 1 -3 1 -4 1 -3 1 -3 
1 -3 1 -3 1 -4 2 -3 1 -3 1 -3 1 -3 1 -4 
1 -3 1 -3 1 -3 1 -3 1 -3 2 -4 1 -3 1 -3 
1 -3 1 -3 1 -3 1 -3 1 -4 1 -3 2 -3 1 -3 
1 -3 1 -3 1 -3 1 -3 1 -4 1 -3 1 -3 1 -3 
2 -3 1 -3 1 -3 1 -3 1 -3 1 -3 1 -3 1 -3 
1 -3 1 -3 2 -3 1 -4 1 -3 1 -3 1 -3 1 -3 
1 -3 1 -3 1 -3 2 -3 1 -3 1 -3 1 -3 1 -2 
1 -3 1 -3 1 -3 1 -3 1 -3 2 -3 1 -3 1 -3 
1 -3 1 -3 1 -3 1 -3 1 -3 1 -2 1 -3 2 -3 
1 -3 1 -3 1 -3 1 -3 1 -3 1 -2 1 -3 1 -3 
2 -3 1 -3 1 -2 1 -3 1 -3 1 -3 1 -3 1 -2 
1 -3 1 -3 2 -3 1 -2 1 -3 1 -3 1 -3 1 -2 
1 -3 1 -3 1 -2 1 -3 2 -3 1 -3 1 -2 1 -3 
1 -3 1 -2 1 -3 1 -3 1 -2 2 -3 1 -2 1 -3 
1 -3 1 -2 1 -3 1 -2 1 -3 1 -2 1 -3 2 -3 
1 -2 1 -3 1 -2 1 -3 1 -2 1 -3 1 -2 1 -3 
2 -2 1 -3 1 -2 1 -3 1 -2 1 -3 1 -2 1 -2 
1 -3 1 -2 2 -3 1 -2 1 -2 1 -3 1 -2 1 -3 
1 -2 1 -2 1 -3 1 -2 2 -2 1 -3 1 -2 1 -2 
1 -2 1 -3 1 -2 1 -2 1 -3 2 -2 1 -2 1 -2 
1 -3 1 -2 1 -2 1 -2 1 -2 1 -3 1 -2 2 -2 
1 -2 1 -2 1 -2 1 -2 1 -3 1 -2 1 -2 1 -2 
1 -2 2 -2 1 -2 1 -2 1 -2 1 -2 1 -2 1 -2 
1 -2 1 -2 2 -2 1 -2 1 -2 1 -2 1 -2 1 -2 
1 -2 1 -2 1 -2 1 -2 2 -2 1 -2 1 -2 1 -2 
1 -2 1 -1 1 -2 1 -2 1 -2 1 -2 2 -2 1 -1 
1 -2 1 -2 1 -2 1 -2 1 -1 1 -2 1 -2 2 -2 
1 -1 1 -2 1 -2 1 -2 1 -1 1 -2 1 -2 1 -1 
1 -2 2 -2 1 -1 1 -2 1 -2 1 -1 1 -2 1 -1 
1 -2 1 -2 1 -1 2 -2 1 -1 1 -2 1 -1 1 -2 
1 -1 1 -2 1 -1 1 -2 2 -1 1 -2 1 -1 1 -2 
1 -1 1 -2 1 -1 1 -2 1 -1 1 -1 2 -2 1 -1 
1 -2 1 -1 1 -1 1 -2 1 -1 1 -1 1 -2 2 -1 
1 -1 1 -2 1 -1 1 -1 1 -1 1 -2 1 -1 1 -1 
1 -1 2 -2 1 -1 2845 3409 300 MP stroke
1 -1 1 -1 1 -1 1 -2 1 -1 1 -1 1 -1 1 -1 
2 -1 1 -1 1 -2 1 -1 1 -1 1 -1 1 -1 1 -1 
1 -1 2 -1 1 -1 1 -1 1 -1 1 -1 1 -1 1 -1 
1 -1 1 -1 1 -1 2 -1 1 -1 1 -1 1 -1 1 -1 
1 -1 1 -1 1 -1 1 -1 1 -1 2 0 1 -1 1 -1 
1 -1 1 -1 1 -1 1 -1 1 0 1 -1 2 -1 1 -1 
1 -1 1 0 1 -1 1 -1 1 -1 1 0 1 -1 1 -1 
2 -1 1 0 1 -1 1 -1 1 0 1 -1 1 -1 1 -1 
1 0 1 -1 2 0 1 -1 1 -1 1 0 1 -1 1 -1 
1 0 1 -1 1 0 2 -1 1 -1 1 0 1 -1 1 0 
1 -1 1 0 1 -1 1 0 1 -1 2 0 1 -1 1 0 
1 -1 1 0 1 -1 1 0 1 -1 1 0 2 0 1 -1 
1 0 1 -1 1 0 1 0 1 -1 1 0 1 -1 1 0 
2 0 1 -1 1 0 1 0 1 -1 1 0 1 0 1 -1 
1 0 1 0 2 0 1 -1 1 0 1 0 1 -1 1 0 
1 0 1 0 1 -1 2 0 1 0 1 0 1 0 1 -1 
1 0 1 0 1 0 1 0 1 -1 2 0 1 0 1 0 
1 0 1 0 1 0 1 -1 1 0 1 0 1 0 2 0 
1 0 1 0 1 0 1 0 1 0 1 0 1 -1 1 0 
2 0 1 0 1 0 1 0 1 0 1 0 1 0 1 0 
1 0 1 0 2 0 1 0 1 0 1 0 1 0 1 0 
1 0 1 0 1 1 1 0 2 0 1 0 1 0 1 0 
1 0 1 0 1 0 1 0 1 0 2 0 1 1 1 0 
1 0 1 0 1 0 1 0 1 0 1 1 1 0 2 0 
1 0 1 0 1 0 1 1 1 0 1 0 1 0 1 0 
2 0 1 1 1 0 1 0 1 0 1 1 1 0 1 0 
1 0 1 0 2 1 1 0 1 0 1 0 1 1 1 0 
1 0 1 1 1 0 1 0 2 0 1 1 1 0 1 0 
1 1 1 0 1 0 1 0 1 1 2 0 1 0 1 1 
1 0 1 0 1 1 1 0 1 0 1 1 1 0 2 0 
1 1 1 0 1 0 1 1 1 0 1 1 1 0 1 0 
1 1 2 0 1 0 1 1 1 0 1 1 1 0 1 0 
1 1 1 0 2 1 1 0 1 0 1 1 1 0 1 1 
1 0 1 1 1 0 1 0 2 1 1 0 1 1 1 0 
1 1 1 0 1 0 1 1 1 0 1 1 2 0 1 1 
1 0 1 1 1 0 1 1 1 0 1 0 1 1 2 0 
1 1 1 0 1 1 1 0 1 1 1 0 1 1 1 0 
1 1 2 0 1 1 2515 3458 300 MP stroke
1 0 1 1 1 0 1 1 1 0 1 1 1 0 1 1 
2 0 1 1 1 0 1 1 1 0 1 1 1 0 1 1 
1 0 2 1 1 0 1 1 1 0 1 1 1 0 1 1 
1 1 1 0 1 1 2 0 1 1 1 0 1 1 1 0 
1 1 1 0 1 1 1 0 2 1 1 0 1 1 1 0 
1 1 1 1 1 0 1 1 1 0 1 1 2 0 1 1 
1 0 1 1 1 0 1 1 1 0 1 1 1 1 1 0 
2 1 1 0 1 1 1 0 1 1 1 0 1 1 1 0 
1 1 2 1 1 0 1 1 1 0 1 1 1 0 1 1 
1 0 1 1 1 0 2 1 1 1 1 0 1 1 1 0 
1 1 1 0 1 1 1 0 1 1 2 0 1 1 1 1 
1 0 1 1 1 0 1 1 1 0 1 1 2 0 1 1 
1 0 1 1 1 1 1 0 1 1 1 0 1 1 1 0 
2 1 1 0 1 1 1 0 1 1 1 0 1 1 1 0 
1 1 1 1 2 0 1 1 1 0 1 1 1 0 1 1 
1 0 1 1 1 0 2 1 1 0 1 1 1 0 1 1 
1 0 1 1 1 0 1 1 1 0 2 1 1 1 1 0 
1 1 1 0 1 1 1 0 1 1 1 0 2 1 1 0 
1 1 1 0 1 1 1 0 1 1 1 0 1 1 1 0 
2 1 1 0 1 1 1 0 1 1 1 0 1 0 1 1 
1 0 1 1 2 0 1 1 1 0 1 1 1 0 1 1 
1 0 1 1 1 0 2 1 1 0 1 1 1 0 1 1 
1 0 1 0 1 1 1 0 1 1 2 0 1 1 1 0 
1 1 1 0 1 1 1 0 1 0 1 1 1 0 2 1 
1 0 1 1 1 0 1 1 1 0 1 0 1 1 1 0 
2 1 1 0 1 1 1 0 1 0 1 1 1 0 1 1 
1 0 1 1 2 0 1 0 1 1 1 0 1 1 1 0 
1 0 1 1 1 0 1 1 2 0 1 0 1 1 1 0 
1 1 1 0 1 0 1 1 1 0 2 0 1 1 1 0 
1 1 1 0 1 0 1 1 1 0 1 0 1 1 2 0 
1 1 1 0 1 0 1 1 1 0 1 0 1 1 1 0 
2 0 1 1 1 0 1 0 1 1 1 0 1 1 1 0 
1 0 1 1 2 0 1 0 1 1 1 0 1 0 1 1 
1 0 1 0 1 0 1 1 2 0 1 0 1 1 1 0 
1 0 1 1 1 0 1 0 1 1 2 0 1 0 1 1 
1 0 1 0 1 0 1 1 1 0 1 0 1 1 2 0 
1 0 1 0 1 1 1 0 1 0 1 1 1 0 1 0 
1 0 2 1 1 0 2185 3321 300 MP stroke
1 0 1 0 1 1 1 0 1 0 1 1 1 0 2 0 
1 0 1 1 1 0 1 0 1 0 1 1 1 0 1 0 
1 0 2 1 1 0 1 0 1 0 1 0 1 1 1 0 
1 0 1 0 1 1 2 0 1 0 1 0 1 1 1 0 
1 0 1 0 1 0 1 1 2 0 1 0 1 0 1 0 
1 1 1 0 1 0 1 0 1 0 1 1 2 0 1 0 
1 0 1 0 1 1 1 0 1 0 1 0 1 0 2 1 
1 0 1 0 1 0 1 0 1 0 1 1 1 0 1 0 
1 0 2 0 1 1 1 0 1 0 1 0 1 0 1 0 
1 1 1 0 1 0 2 0 1 0 1 0 1 0 1 1 
1 0 1 0 1 0 1 0 2 0 1 1 1 0 1 0 
1 0 1 0 1 0 1 0 1 0 1 1 2 0 1 0 
1 0 1 0 1 0 1 0 1 1 1 0 1 0 1 0 
2 0 1 0 1 0 1 0 1 0 1 1 1 0 1 0 
1 0 2 0 1 0 1 0 1 0 1 0 1 1 1 0 
1 0 1 0 1 0 2 0 1 0 1 0 1 0 1 1 
1 0 1 0 1 0 1 0 1 0 2 0 1 0 1 0 
1 0 1 0 1 0 1 1 1 0 1 0 2 0 1 0 
1 0 1 0 1 0 1 0 1 0 1 0 1 0 1 1 
2 0 1 0 1 0 1 0 1 0 1 0 1 0 1 0 
1 0 1 0 2 0 1 0 1 0 1 0 1 0 1 1 
1 0 1 0 1 0 2 0 1 0 1 0 1 0 1 0 
1 0 1 0 1 0 1 0 1 0 2 0 1 0 1 0 
1 0 1 0 1 1 1 0 1 0 1 0 2 0 1 0 
1 0 1 0 1 0 1 0 1 0 1 0 1 0 1 0 
2 0 1 0 1 0 1 0 1 0 1 0 1 0 1 0 
1 0 1 0 2 0 1 0 1 0 1 0 1 0 1 0 
1 1 1 0 1 0 2 0 1 0 1 0 1 0 1 0 
1 0 1 0 1 0 1 0 1 0 2 0 1 0 1 0 
1 0 1 0 1 0 1 0 1 0 1 0 1 0 2 0 
1 0 1 0 1 0 1 0 1 0 1 0 1 0 1 0 
2 0 1 0 1 0 1 0 1 0 1 0 1 0 1 0 
1 0 1 0 2 0 1 0 1 0 1 0 1 0 1 0 
1 0 1 0 1 0 1 0 2 0 1 0 1 0 1 0 
1 0 1 0 1 0 1 0 1 0 2 0 1 0 1 0 
1 0 1 0 1 0 1 0 1 0 1 0 1 0 2 0 
1 0 1 0 1 0 1 0 1 0 1 0 1 0 1 0 
2 0 1 0 1 0 1855 3293 300 MP stroke
1 0 1 0 1 0 1 0 1 0 1 0 1 0 2 0 
1 0 1 0 1 0 1 0 1 0 1 0 1 0 1 0 
1 0 2 0 1 0 1 0 1 0 1 0 1 0 1 0 
1 0 1 0 2 -1 1 0 1 0 1 0 1 0 1 0 
1 0 1 0 1 0 1 0 2 0 1 0 1 0 1 0 
1 0 1 0 1 0 1 0 1 0 1 0 2 0 1 0 
1 0 1 0 1 0 1 0 1 0 1 0 1 0 2 0 
1 0 1 0 1 0 1 0 1 0 1 0 1 0 1 0 
1 0 2 0 1 0 1 0 1 0 1 0 1 0 1 0 
1 0 1 0 1 0 2 0 1 -1 1 0 1 0 1 0 
1 0 1 0 1 0 1 0 2 0 1 0 1 0 1 0 
1 0 1 0 1 0 1 0 1 0 1 0 2 0 1 0 
1 0 1 0 1 0 1 0 1 0 1 0 1 0 2 0 
1 0 1 0 1 0 1 0 1 0 1 0 1 0 1 0 
1 0 2 0 1 0 1 0 1 0 1 0 1 0 1 -1 
1 0 1 0 1 0 2 0 1 0 1 0 1 0 1 0 
1 0 1 0 1 0 1 0 2 0 1 0 1 0 1 0 
1 0 1 0 1 0 1 0 1 0 1 0 2 0 1 0 
1 0 1 0 1 0 1 0 1 0 1 0 1 0 1 0 
2 0 1 0 1 0 1 0 1 0 1 0 1 0 1 0 
1 0 2 -1 1 0 1 0 1 0 1 0 1 0 1 0 
1 0 1 0 1 0 2 0 1 0 1 0 1 0 1 0 
1 0 1 0 1 0 1 0 1 0 2 0 1 0 1 0 
1 0 1 0 1 0 1 0 1 0 1 0 2 0 1 0 
1 0 1 0 1 0 1 0 1 0 1 0 1 0 1 0 
2 0 1 0 1 0 1 0 1 0 1 0 1 -1 1 0 
1 0 1 0 2 0 1 0 1 0 1 0 1 0 1 0 
1 0 1 0 1 0 2 0 1 0 1 0 1 0 1 0 
1 0 1 0 1 0 1 0 1 0 2 0 1 0 1 0 
1 0 1 0 1 0 1 0 1 0 1 0 2 0 1 0 
1 0 1 0 1 0 1 0 1 0 1 0 1 0 1 0 
2 0 1 0 1 0 1 0 1 0 1 0 1 0 1 0 
1 0 1 0 2 -1 1 0 1 0 1 0 1 0 1 0 
1 0 1 0 1 0 2 0 1 0 1 0 1 0 1 0 
1 0 1 0 1 0 1 0 1 0 2 0 1 0 1 0 
1 0 1 0 1 0 1 0 1 0 1 0 1 0 2 0 
1 0 1 0 1 0 1 0 1 0 1 0 1 0 1 0 
2 0 1 0 1 0 1525 3299 300 MP stroke
1 0 1 0 1 0 1 0 1 0 1 0 1 0 2 0 
1 0 1 0 1 0 1 0 1 0 1 0 1 0 1 0 
1 0 2 0 1 0 1 0 1 0 1 0 1 0 1 0 
1 0 1 -1 2 0 1 0 1 0 1 0 1 0 1 0 
1 0 1 0 1 0 1 0 2 0 1 0 1 0 1 0 
1 0 1 0 1 0 1 0 1 0 2 0 1 0 1 0 
1 0 1 0 1 0 1 0 1 0 1 0 1 0 2 0 
1 0 1 0 1 0 1 0 1 0 1 0 1 0 1 0 
1 0 2 0 1 0 1 0 1 0 1 0 1 0 1 0 
1 0 1 0 2 0 1 0 1 0 1 0 1 0 1 0 
1 0 1 0 1 0 1 0 2 0 1 0 1 0 1 0 
1 0 1 0 1 0 1 0 1 0 1 0 2 0 1 0 
1 0 1 0 1 0 1 0 1 0 1 0 1 0 2 0 
1 0 1 0 1 0 1 0 1 0 1 0 1 0 1 0 
1 0 2 0 1 0 1 0 1 0 1 0 1 0 1 0 
1 0 1 0 1 0 2 0 1 0 1 -1 1 0 1 0 
1 0 1 0 1 0 1 0 2 0 1 0 1 0 1 0 
1 0 1 0 1 0 1 0 1 0 1 0 2 0 1 0 
1 0 1 0 1 0 1 0 1 0 1 0 1 0 2 0 
1 0 1 0 1 0 1 0 1 0 1 0 1 0 1 0 
1 0 2 0 1 0 1 0 1 0 1 0 1 0 1 0 
1 0 1 0 1 0 2 0 1 0 1 0 1 0 1 0 
1 0 1 0 1 0 1 0 2 0 1 0 1 0 1 0 
1 0 1 0 1 0 1 0 1 0 1 0 2 0 1 0 
1 0 1 0 1 0 1 0 1 0 1 0 1 0 1 0 
2 0 1 0 1 0 1 0 1 0 1 0 1 0 1 0 
1 0 2 0 1 0 1 0 1 0 1 0 1 0 1 0 
1 0 1 0 1 0 2 0 1 0 1 0 1 0 1 0 
1 0 1 0 1 0 1 0 1 0 2 0 1 0 1 0 
1 0 1 0 1 0 1 0 1 0 1 0 2 0 1 0 
1 0 1 0 1 0 1 0 1 0 1 0 1 0 1 0 
2 0 1 0 1 0 1 0 1 0 1 0 1 0 1 0 
1 0 2 0 1 0 1 0 1 0 1 0 1 0 1 0 
1 0 1 0 1 0 2 0 1 0 1 0 1 0 1 0 
1 0 1 0 1 0 1 0 1 0 2 0 1 0 1 0 
1 0 1 0 1 0 1 0 1 0 1 0 2 0 1 0 
1 0 1 0 1 0 1 0 1 0 1 0 1 0 1 0 
2 0 1 0 1 0 1195 3301 300 MP stroke
1 0 1 0 1 0 1 0 1 0 1 0 1 0 2 0 
1 0 1 0 1 0 1 0 1 0 1 0 1 0 1 0 
2 0 1 0 1 0 1 0 1 0 1 0 1 0 1 0 
1 0 1 0 2 0 1 0 1 0 1 0 1 0 1 0 
1 0 1 0 1 0 1 0 2 0 1 0 1 0 1 0 
1 0 1 0 1 0 1 0 1 0 2 0 1 0 1 0 
1 0 1 0 1 0 1 0 1 0 1 0 1 0 2 0 
1 0 1 0 1 0 1 0 1 0 1 0 1 0 1 0 
1 0 2 0 1 0 1 0 1 0 1 0 1 0 1 0 
1 0 1 0 2 0 1 0 1 0 1 0 1 0 1 0 
1 0 1 0 1 0 1 0 2 0 1 0 1 0 1 0 
1 0 1 0 1 0 1 0 1 0 2 0 1 0 1 0 
1 0 1 0 1 0 1 0 1 0 1 0 1 0 2 0 
1 0 1 0 1 0 1 0 1 0 1 0 1 0 1 0 
1 0 2 0 1 0 1 0 1 0 1 0 1 0 1 0 
1 0 1 0 2 0 1 0 1 0 1 0 1 0 1 0 
1 0 1 0 1 0 1 0 2 0 1 0 1 0 1 0 
1 0 1 0 1 0 1 0 1 0 1 0 2 0 1 0 
1 0 1 0 1 0 1 0 1 0 1 0 1 0 2 0 
1 0 1 0 1 0 1 0 1 0 1 0 1 0 1 0 
1 0 2 0 1 0 1 0 1 0 1 0 1 0 1 0 
1 0 1 0 1 0 2 0 1 0 1 0 1 0 1 0 
1 0 1 0 1 0 1 0 2 0 1 0 1 0 1 0 
1 0 1 0 1 0 1 0 1 0 1 0 2 0 1 0 
1 0 1 0 1 0 1 0 1 0 1 0 1 0 2 0 
1 0 1 0 1 0 1 0 1 0 1 0 1 0 1 0 
1 0 2 0 1 0 1 0 1 0 1 0 1 0 1 0 
1 0 1 0 1 0 2 0 1 0 1 0 1 0 1 0 
1 0 1 0 1 0 1 0 2 0 1 0 1 0 1 0 
1 0 1 0 1 0 1 0 1 0 1 0 2 0 1 0 
1 0 1 0 1 0 1 0 1 0 1 0 1 0 1 0 
2 0 1 0 1 0 1 0 1 0 1 0 1 0 1 0 
1 0 2 0 1 0 1 0 1 0 1 0 1 0 1 0 
1 0 1 0 1 0 2 0 1 0 1 0 1 0 1 0 
1 0 1 0 1 0 1 0 1 0 2 0 1 0 1 0 
1 0 1 0 1 0 1 0 1 0 1 0 2 0 1 0 
1 0 1 0 1 0 1 0 1 0 1 0 1 0 1 0 
2 0 1 0 1 0 865 3301 300 MP stroke
1 0 1 0 1 0 1 0 1 0 1 0 2 0 1 0 
1 0 1 0 1 0 1 0 1 0 1 0 1 0 1 0 
2 0 1 0 1 0 1 0 1 0 1 0 1 0 1 0 
1 0 1 0 2 0 1 0 1 0 1 0 1 0 1 0 
1 0 1 0 1 0 2 0 1 0 1 0 1 0 1 0 
1 0 1 0 1 0 1 0 1 0 2 0 1 0 1 0 
1 0 1 0 1 0 1 0 1 0 1 0 1 0 2 0 
1 0 1 0 1 0 1 0 1 0 1 0 1 0 1 0 
2 0 1 0 1 0 1 0 1 0 1 0 1 0 1 0 
1 0 1 0 2 0 1 0 1 0 1 0 1 0 1 0 
1 0 1 0 1 0 1 0 2 0 1 0 1 0 1 0 
1 0 1 0 1 0 1 0 1 0 2 0 1 0 1 0 
1 0 1 0 1 0 1 0 1 0 1 0 1 0 2 0 
1 0 1 0 1 0 1 0 1 0 1 0 1 0 1 0 
1 0 741 3301 114 MP stroke
gr

12 w
c8
/c9 { 1.000000 0.000000 0.000000 sr} bdef
c9
  36   36 2668 3499 FO
gs 741 319 4416 3480 rc
gr

0 sg
2789 4167 mt 
(zeta) s
 288 2756 mt  -90 rotate
(Probability of Error) s
90 rotate
6 w

end %%Color Dict

eplot
%%EndObject

epage
end

showpage

%%Trailer
%%EOF
